{
    "status": "OK",
    "copyright": "Copyright (c) 2021 Pro Publica Inc. All Rights Reserved.",
    "results": [
        {
            "id": "B001277",
            "member_uri": "https://api.propublica.org/congress/v1/members/B001277.json",
            "name": "Richard Blumenthal",
            "num_results": 1,
            "offset": 0,
            "bills": [
                {
                    "congress": "116",
                    "bill_id": "s1321-116",
                    "bill_type": "s",
                    "number": "S.1321",
                    "bill_uri": "https://api.propublica.org/congress/v1/116/bills/s1321.json",
                    "title": "A bill to amend title 18, United States Code, to prohibit interference with voting systems under the Computer Fraud and Abuse Act.",
                    "short_title": "Defending the Integrity of Voting Systems Act",
                    "sponsor_title": "Sen.",
                    "sponsor_id": "B001277",
                    "sponsor_name": "Richard Blumenthal",
                    "sponsor_state": "CT",
                    "sponsor_party": "D",
                    "sponsor_uri": "https://api.propublica.org/congress/v1/members/B001277.json",
                    "gpo_pdf_uri": null,
                    "congressdotgov_url": "https://www.congress.gov/bill/116th-congress/senate-bill/1321",
                    "govtrack_url": "https://www.govtrack.us/congress/bills/116/s1321",
                    "introduced_date": "2019-05-06",
                    "active": true,
                    "last_vote": null,
                    "house_passage": "2020-09-21",
                    "senate_passage": "2019-07-17",
                    "enacted": "2020-10-20",
                    "vetoed": null,
                    "cosponsors": 2,
                    "cosponsors_by_party": {
                        "R": 1,
                        "D": 1
                    },
                    "committees": "House Judiciary Committee",
                    "primary_subject": "Crime and Law Enforcement",
                    "summary": "Defending the Integrity of Voting Systems Act This bill broadens the definition of protected computer, for purposes of computer fraud and abuse offenses, to include a computer that is part of a voting system.",
                    "summary_short": "Defending the Integrity of Voting Systems Act This bill broadens the definition of protected computer, for purposes of computer fraud and abuse offenses, to include a computer that is part of a voting system.",
                    "latest_major_action_date": "2020-10-20",
                    "latest_major_action": "Became Public Law No: 116-179."
                }
            ]
        }
    ]
}
