{
    "status": "OK",
    "copyright": "Copyright (c) 2021 Pro Publica Inc. All Rights Reserved.",
    "results": [
        {
            "id": "B001296",
            "member_uri": "https://api.propublica.org/congress/v1/members/B001296.json",
            "name": "Brendan Boyle",
            "num_results": 1,
            "offset": 0,
            "bills": [
                {
                    "congress": "115",
                    "bill_id": "hr2873-115",
                    "bill_type": "hr",
                    "number": "H.R.2873",
                    "bill_uri": "https://api.propublica.org/congress/v1/115/bills/hr2873.json",
                    "title": "To designate the facility of the United States Postal Service located at 207 Glenside Avenue in Wyncote, Pennsylvania, as the 'Staff Sergeant Peter Taub Post Office Building'.",
                    "short_title": "To designate the facility of the United States Postal Service located at 207 Glenside Avenue in Wyncote, Pennsylvania, as the \"Staff Sergeant Peter Taub Post Office Building\".",
                    "sponsor_title": "Rep.",
                    "sponsor_id": "B001296",
                    "sponsor_name": "Brendan Boyle",
                    "sponsor_state": "PA",
                    "sponsor_party": "D",
                    "sponsor_uri": "https://api.propublica.org/congress/v1/members/B001296.json",
                    "gpo_pdf_uri": null,
                    "congressdotgov_url": "https://www.congress.gov/bill/115th-congress/house-bill/2873",
                    "govtrack_url": "https://www.govtrack.us/congress/bills/115/hr2873",
                    "introduced_date": "2017-06-12",
                    "active": true,
                    "last_vote": null,
                    "house_passage": "2017-11-15",
                    "senate_passage": "2018-03-07",
                    "enacted": null,
                    "vetoed": null,
                    "cosponsors": 17,
                    "cosponsors_by_party": {
                        "D": 4,
                        "R": 13
                    },
                    "committees": "Senate Homeland Security and Governmental Affairs Committee",
                    "primary_subject": "Government Operations and Politics",
                    "summary": "Designates the facility of the United States Postal Service located at 207 Glenside Avenue in Wyncote, Pennsylvania, as the \"Staff Sergeant Peter Taub Post Office Building.\"",
                    "summary_short": "Designates the facility of the United States Postal Service located at 207 Glenside Avenue in Wyncote, Pennsylvania, as the &quot;Staff Sergeant Peter Taub Post Office Building.&quot;",
                    "latest_major_action_date": "2018-03-23",
                    "latest_major_action": "Became Public Law No: 115-147."
                }
            ]
        }
    ]
}
