{
    "status": "OK",
    "copyright": "Copyright (c) 2021 Pro Publica Inc. All Rights Reserved.",
    "results": [
        {
            "id": "B001230",
            "member_uri": "https://api.propublica.org/congress/v1/members/B001230.json",
            "name": "Tammy Baldwin",
            "num_results": 4,
            "offset": 0,
            "bills": [
                {
                    "congress": "116",
                    "bill_id": "s1153-116",
                    "bill_type": "s",
                    "number": "S.1153",
                    "bill_uri": "https://api.propublica.org/congress/v1/116/bills/s1153.json",
                    "title": "A bill to explicitly make unauthorized access to Department of Education information technology systems and the misuse of identification devices issued by the Department of Education a criminal act.",
                    "short_title": "Stop Student Debt Relief Scams Act of 2019",
                    "sponsor_title": "Sen.",
                    "sponsor_id": "B001230",
                    "sponsor_name": "Tammy Baldwin",
                    "sponsor_state": "WI",
                    "sponsor_party": "D",
                    "sponsor_uri": "https://api.propublica.org/congress/v1/members/B001230.json",
                    "gpo_pdf_uri": null,
                    "congressdotgov_url": "https://www.congress.gov/bill/116th-congress/senate-bill/1153",
                    "govtrack_url": "https://www.govtrack.us/congress/bills/116/s1153",
                    "introduced_date": "2019-04-11",
                    "active": true,
                    "last_vote": null,
                    "house_passage": "2020-12-07",
                    "senate_passage": "2020-12-01",
                    "enacted": "2020-12-22",
                    "vetoed": null,
                    "cosponsors": 8,
                    "cosponsors_by_party": {
                        "R": 4,
                        "D": 4
                    },
                    "committees": "Senate Health, Education, Labor, and Pensions Committee",
                    "primary_subject": "Education",
                    "summary": "Stop Student Debt Relief Scams Act of 2019 This bill establishes criminal penalties for unauthorized access of certain student loan information and expands the requirements for student loan exit counseling.  Specifically, the bill makes it a crime to knowingly use an access device (e.g., account number) that was issued to another person or was fraudulently obtained to access Department of Education (ED) information technology systems for commercial advantage or private financial gain. A violator is subject to criminal penalties\u2014a fine, a prison term of up to five years, or both.  Further, the bill expands loan exit counseling requirements to require an institution of higher education that participates in federal student-aid programs to provide an explanation to borrowers cautioning them about third-party student debt relief companies. It also requires ED to prevent unauthorized access to the central database for student aid (i.e., the National Student Loan Data System) and warn borrowers of suspicious activity regarding their student loan accounts.",
                    "summary_short": "Stop Student Debt Relief Scams Act of 2019 This bill establishes criminal penalties for unauthorized access of certain student loan information and expands the requirements for student loan exit counseling.  Specifically, the bill makes it a crime to knowingly use an access device (e.g., account number) that was issued to another person or was fraudulently obtained to access Department of Education (ED) information technology systems for commercial advantage or private financial gain. A viola...",
                    "latest_major_action_date": "2020-12-22",
                    "latest_major_action": "Became Public Law No: 116-251."
                },
                {
                    "congress": "116",
                    "bill_id": "s1069-116",
                    "bill_type": "s",
                    "number": "S.1069",
                    "bill_uri": "https://api.propublica.org/congress/v1/116/bills/s1069.json",
                    "title": "A bill to require the Secretary of Commerce, acting through the Administrator of the National Oceanic and Atmospheric Administration, to establish a constituent-driven program to provide a digital information platform capable of efficiently integrating coastal data with decision-support tools, training, and best practices and to support collection of priority coastal geospatial data to inform and improve local, State, regional, and Federal capacities to manage the coastal region, and for other purposes.",
                    "short_title": "Digital Coast Act",
                    "sponsor_title": "Sen.",
                    "sponsor_id": "B001230",
                    "sponsor_name": "Tammy Baldwin",
                    "sponsor_state": "WI",
                    "sponsor_party": "D",
                    "sponsor_uri": "https://api.propublica.org/congress/v1/members/B001230.json",
                    "gpo_pdf_uri": null,
                    "congressdotgov_url": "https://www.congress.gov/bill/116th-congress/senate-bill/1069",
                    "govtrack_url": "https://www.govtrack.us/congress/bills/116/s1069",
                    "introduced_date": "2019-04-09",
                    "active": true,
                    "last_vote": null,
                    "house_passage": "2020-11-16",
                    "senate_passage": "2020-09-30",
                    "enacted": "2020-12-18",
                    "vetoed": null,
                    "cosponsors": 4,
                    "cosponsors_by_party": {
                        "R": 2,
                        "D": 2
                    },
                    "committees": "Senate Commerce, Science, and Transportation Committee",
                    "primary_subject": "Public Lands and Natural Resources",
                    "summary": "Digital Coast Act This bill provides statutory authority for and revises the National Oceanic and Atmospheric Administration's (NOAA's) Digital Coast program. (The program currently exists under NOAA to provide data, tools, and training that communities use to manage their coastal resources.) NOAA must focus on filling data needs and gaps for critical coastal management issues and support continued improvement in existing efforts to coordinate the acquisition and integration of key data sets needed for coastal management. NOAA may enter into financial agreements and collect fees to carry out the program. Additionally, NOAA may establish publicly available tools that track ocean and Great Lakes economy data for each coastal state.",
                    "summary_short": "Digital Coast Act This bill provides statutory authority for and revises the National Oceanic and Atmospheric Administration&#39;s (NOAA&#39;s) Digital Coast program. (The program currently exists under NOAA to provide data, tools, and training that communities use to manage their coastal resources.) NOAA must focus on filling data needs and gaps for critical coastal management issues and support continued improvement in existing efforts to coordinate the acquisition and integration of key data sets ...",
                    "latest_major_action_date": "2020-12-18",
                    "latest_major_action": "Became Public Law No: 116-223."
                },
                {
                    "congress": "116",
                    "bill_id": "s1196-116",
                    "bill_type": "s",
                    "number": "S.1196",
                    "bill_uri": "https://api.propublica.org/congress/v1/116/bills/s1196.json",
                    "title": "A bill to designate the facility of the United States Postal Service located at 1715 Linnerud Drive in Sun Prairie, Wisconsin, as the 'Fire Captain Cory Barr Post Office Building'.",
                    "short_title": "A bill to designate the facility of the United States Postal Service located at 1715 Linnerud Drive in Sun Prairie, Wisconsin, as the \"Fire Captain Cory Barr Post Office Building\".",
                    "sponsor_title": "Sen.",
                    "sponsor_id": "B001230",
                    "sponsor_name": "Tammy Baldwin",
                    "sponsor_state": "WI",
                    "sponsor_party": "D",
                    "sponsor_uri": "https://api.propublica.org/congress/v1/members/B001230.json",
                    "gpo_pdf_uri": null,
                    "congressdotgov_url": "https://www.congress.gov/bill/116th-congress/senate-bill/1196",
                    "govtrack_url": "https://www.govtrack.us/congress/bills/116/s1196",
                    "introduced_date": "2019-04-11",
                    "active": true,
                    "last_vote": null,
                    "house_passage": "2019-10-16",
                    "senate_passage": "2019-07-30",
                    "enacted": "2019-10-31",
                    "vetoed": null,
                    "cosponsors": 1,
                    "cosponsors_by_party": {
                        "R": 1
                    },
                    "committees": "House Oversight and Reform Committee",
                    "primary_subject": "Government Operations and Politics",
                    "summary": "Designates the facility of the United States Postal Service located at 1715 Linnerud Drive in Sun Prairie, Wisconsin, as the \"Fire Captain Cory Barr Post Office Building.\"",
                    "summary_short": "Designates the facility of the United States Postal Service located at 1715 Linnerud Drive in Sun Prairie, Wisconsin, as the &quot;Fire Captain Cory Barr Post Office Building.&quot;",
                    "latest_major_action_date": "2019-10-31",
                    "latest_major_action": "Became Public Law No: 116-66."
                },
                {
                    "congress": "115",
                    "bill_id": "s447-115",
                    "bill_type": "s",
                    "number": "S.447",
                    "bill_uri": "https://api.propublica.org/congress/v1/115/bills/s447.json",
                    "title": "A bill to require reporting on acts of certain foreign countries on Holocaust era assets and related issues.",
                    "short_title": "Justice for Uncompensated Survivors Today (JUST) Act of 2017",
                    "sponsor_title": "Sen.",
                    "sponsor_id": "B001230",
                    "sponsor_name": "Tammy Baldwin",
                    "sponsor_state": "WI",
                    "sponsor_party": "D",
                    "sponsor_uri": "https://api.propublica.org/congress/v1/members/B001230.json",
                    "gpo_pdf_uri": null,
                    "congressdotgov_url": "https://www.congress.gov/bill/115th-congress/senate-bill/447",
                    "govtrack_url": "https://www.govtrack.us/congress/bills/115/s447",
                    "introduced_date": "2017-02-27",
                    "active": true,
                    "last_vote": null,
                    "house_passage": "2018-04-24",
                    "senate_passage": "2017-12-12",
                    "enacted": "2018-05-09",
                    "vetoed": null,
                    "cosponsors": 21,
                    "cosponsors_by_party": {
                        "R": 9,
                        "D": 12
                    },
                    "committees": "House Foreign Affairs Committee",
                    "primary_subject": "International Affairs",
                    "summary": "Justice for Uncompensated Survivors Today (JUST) Act of 2017 (Sec. 2) This bill requires the Department of State to report to Congress assessing the national laws and enforceable policies of covered countries regarding the identification and return of, or restitution for, assets wrongfully seized or transferred during the Holocaust era, including:   the return to the rightful owner of wrongfully seized or transferred property, including religious or communal property, or the provision of comparable substitute property or the payment of equitable compensation;  the restitution of heirless property to assist needy Holocaust survivors; and   progress on the resolution of claims for U.S.-citizen Holocaust survivors and family members.  \"Covered countries\" are participants in the 2009 Holocaust Era Assets Conference that are determined by the State Department, in consultation with expert nongovernmental organizations, to be countries of particular concern relative to the restitution of Holocaust-era assets.",
                    "summary_short": "Justice for Uncompensated Survivors Today (JUST) Act of 2017 (Sec. 2) This bill requires the Department of State to report to Congress assessing the national laws and enforceable policies of covered countries regarding the identification and return of, or restitution for, assets wrongfully seized or transferred during the Holocaust era, including:   the return to the rightful owner of wrongfully seized or transferred property, including religious or communal property, or the provision of comp...",
                    "latest_major_action_date": "2018-05-09",
                    "latest_major_action": "Became Public Law No: 115-171."
                }
            ]
        }
    ]
}
