{
    "status": "OK",
    "copyright": "Copyright (c) 2021 Pro Publica Inc. All Rights Reserved.",
    "results": [
        {
            "id": "B001260",
            "member_uri": "https://api.propublica.org/congress/v1/members/B001260.json",
            "name": "Vern Buchanan",
            "num_results": 1,
            "offset": 0,
            "bills": [
                {
                    "congress": "114",
                    "bill_id": "hr91-114",
                    "bill_type": "hr",
                    "number": "H.R.91",
                    "bill_uri": "https://api.propublica.org/congress/v1/114/bills/hr91.json",
                    "title": "To amend title 38, United States Code, to direct the Secretary of Veterans Affairs to issue, upon request, veteran identification cards to certain veterans.",
                    "short_title": "Veterans Identification Card Act 2015",
                    "sponsor_title": "Rep.",
                    "sponsor_id": "B001260",
                    "sponsor_name": "Vern Buchanan",
                    "sponsor_state": "FL",
                    "sponsor_party": "R",
                    "sponsor_uri": "https://api.propublica.org/congress/v1/members/B001260.json",
                    "gpo_pdf_uri": null,
                    "congressdotgov_url": "https://www.congress.gov/bill/114th-congress/house-bill/91",
                    "govtrack_url": "https://www.govtrack.us/congress/bills/114/hr91",
                    "introduced_date": "2015-01-06",
                    "active": true,
                    "last_vote": "2015-07-07",
                    "house_passage": "2015-07-07",
                    "senate_passage": "2015-06-22",
                    "enacted": "2015-07-09",
                    "vetoed": null,
                    "cosponsors": 82,
                    "cosponsors_by_party": {
                        "R": 46,
                        "D": 36
                    },
                    "committees": "Senate Veterans&#39; Affairs Committee",
                    "primary_subject": "Armed Forces and National Security",
                    "summary": "(This measure has not been amended since it was passed by the Senate on June 22, 2015. The summary of that version is repeated here.) Veteran's Identification Card Act of 2015 (Sec. 2) Directs the Department of Veterans Affairs (VA) to issue a veteran's identification card to a requesting veteran who is neither entitled to military retired pay nor enrolled in the VA system of patient enrollment.  Requires such card, among other things, to: (1) display the veteran's name and photograph, and (2) serve as proof that the veteran has a DD-214 form or other official document in his or her military personnel file that describes the veteran's military service.  Directs VA to charge a card fee.  States that such card shall not serve as proof of entitlement to any benefits.",
                    "summary_short": "(This measure has not been amended since it was passed by the Senate on June 22, 2015. The summary of that version is repeated here.) Veteran&#39;s Identification Card Act of 2015 (Sec. 2) Directs the Department of Veterans Affairs (VA) to issue a veteran&#39;s identification card to a requesting veteran who is neither entitled to military retired pay nor enrolled in the VA system of patient enrollment.  Requires such card, among other things, to: (1) display the veteran&#39;s name and photograph, and (2...",
                    "latest_major_action_date": "2015-07-20",
                    "latest_major_action": "Became Public Law No: 114-31."
                }
            ]
        }
    ]
}
