{
    "status": "OK",
    "copyright": "Copyright (c) 2021 Pro Publica Inc. All Rights Reserved.",
    "results": [
        {
            "id": "B001302",
            "member_uri": "https://api.propublica.org/congress/v1/members/B001302.json",
            "name": "Andy Biggs",
            "num_results": 1,
            "offset": 0,
            "bills": [
                {
                    "congress": "116",
                    "bill_id": "hr4983-116",
                    "bill_type": "hr",
                    "number": "H.R.4983",
                    "bill_uri": "https://api.propublica.org/congress/v1/116/bills/hr4983.json",
                    "title": "To designate the Department of Veterans Affairs community-based outpatient clinic in Gilbert, Arizona, as the 'Staff Sergeant Alexander W. Conrad Veterans Affairs Health Care Clinic'.",
                    "short_title": "To designate the Department of Veterans Affairs community-based outpatient clinic in Gilbert, Arizona, as the \"Staff Sergeant Alexander W. Conrad Veterans Affairs Health Care Clinic\".",
                    "sponsor_title": "Rep.",
                    "sponsor_id": "B001302",
                    "sponsor_name": "Andy Biggs",
                    "sponsor_state": "AZ",
                    "sponsor_party": "R",
                    "sponsor_uri": "https://api.propublica.org/congress/v1/members/B001302.json",
                    "gpo_pdf_uri": null,
                    "congressdotgov_url": "https://www.congress.gov/bill/116th-congress/house-bill/4983",
                    "govtrack_url": "https://www.govtrack.us/congress/bills/116/hr4983",
                    "introduced_date": "2019-11-05",
                    "active": true,
                    "last_vote": null,
                    "house_passage": "2020-09-23",
                    "senate_passage": "2020-12-10",
                    "enacted": null,
                    "vetoed": null,
                    "cosponsors": 8,
                    "cosponsors_by_party": {
                        "D": 5,
                        "R": 3
                    },
                    "committees": "Senate Veterans&#39; Affairs Committee",
                    "primary_subject": "Armed Forces and National Security",
                    "summary": "This bill designates the community-based outpatient clinic of the Department of Veterans Affairs located at 3285 South Val Vista Drive, Gilbert, Arizona, as the Staff Sergeant Alexander W. Conrad Veterans Affairs Health Care Clinic.",
                    "summary_short": "This bill designates the community-based outpatient clinic of the Department of Veterans Affairs located at 3285 South Val Vista Drive, Gilbert, Arizona, as the Staff Sergeant Alexander W. Conrad Veterans Affairs Health Care Clinic.",
                    "latest_major_action_date": "2020-12-24",
                    "latest_major_action": "Presented to President."
                }
            ]
        }
    ]
}
