{
    "status": "OK",
    "copyright": "Copyright (c) 2021 Pro Publica Inc. All Rights Reserved.",
    "results": [
        {
            "id": "B001305",
            "member_uri": "https://api.propublica.org/congress/v1/members/B001305.json",
            "name": "Ted Budd",
            "num_results": 0,
            "offset": 0,
            "bills": []
        }
    ]
}
