{
    "status": "OK",
    "copyright": "Copyright (c) 2021 Pro Publica Inc. All Rights Reserved.",
    "results": [
        {
            "id": "B001236",
            "member_uri": "https://api.propublica.org/congress/v1/members/B001236.json",
            "name": "John Boozman",
            "num_results": 6,
            "offset": 0,
            "bills": [
                {
                    "congress": "115",
                    "bill_id": "s3247-115",
                    "bill_type": "s",
                    "number": "S.3247",
                    "bill_uri": "https://api.propublica.org/congress/v1/115/bills/s3247.json",
                    "title": "A bill to improve programs and activities relating to women's entrepreneurship and economic empowerment that are carried out by the United States Agency for International Development, and for other purposes.",
                    "short_title": "Women's Entrepreneurship and Economic Empowerment Act of 2018",
                    "sponsor_title": "Sen.",
                    "sponsor_id": "B001236",
                    "sponsor_name": "John Boozman",
                    "sponsor_state": "AR",
                    "sponsor_party": "R",
                    "sponsor_uri": "https://api.propublica.org/congress/v1/members/B001236.json",
                    "gpo_pdf_uri": null,
                    "congressdotgov_url": "https://www.congress.gov/bill/115th-congress/senate-bill/3247",
                    "govtrack_url": "https://www.govtrack.us/congress/bills/115/s3247",
                    "introduced_date": "2018-07-19",
                    "active": true,
                    "last_vote": "2018-12-21",
                    "house_passage": "2018-12-21",
                    "senate_passage": "2018-12-19",
                    "enacted": null,
                    "vetoed": null,
                    "cosponsors": 12,
                    "cosponsors_by_party": {
                        "D": 6,
                        "R": 6
                    },
                    "committees": "Senate Foreign Relations Committee",
                    "primary_subject": "International Affairs",
                    "summary": "",
                    "summary_short": "",
                    "latest_major_action_date": "2019-01-09",
                    "latest_major_action": "Became Public Law No: 115-428."
                },
                {
                    "congress": "115",
                    "bill_id": "sjres60-115",
                    "bill_type": "sjres",
                    "number": "S.J.RES.60",
                    "bill_uri": "https://api.propublica.org/congress/v1/115/bills/sjres60.json",
                    "title": "A joint resolution providing for the reappointment of Barbara M. Barrett as a citizen regent of the Board of Regents of the Smithsonian Institution.",
                    "short_title": "A joint resolution providing for the reappointment of Barbara M. Barrett as a citizen regent of the Board of Regents of the Smithsonian Institution.",
                    "sponsor_title": "Sen.",
                    "sponsor_id": "B001236",
                    "sponsor_name": "John Boozman",
                    "sponsor_state": "AR",
                    "sponsor_party": "R",
                    "sponsor_uri": "https://api.propublica.org/congress/v1/members/B001236.json",
                    "gpo_pdf_uri": null,
                    "congressdotgov_url": "https://www.congress.gov/bill/115th-congress/senate-joint-resolution/60",
                    "govtrack_url": "https://www.govtrack.us/congress/bills/115/sjres60",
                    "introduced_date": "2018-04-24",
                    "active": true,
                    "last_vote": null,
                    "house_passage": "2018-06-28",
                    "senate_passage": "2018-05-17",
                    "enacted": "2018-07-20",
                    "vetoed": null,
                    "cosponsors": 2,
                    "cosponsors_by_party": {
                        "R": 1,
                        "D": 1
                    },
                    "committees": "House House Administration Committee",
                    "primary_subject": "Government Operations and Politics",
                    "summary": "This joint resolution reappoints Barbara M. Barrett as a citizen regent of the Board of Regents of the Smithsonian Institution. ",
                    "summary_short": "This joint resolution reappoints Barbara M. Barrett as a citizen regent of the Board of Regents of the Smithsonian Institution. ",
                    "latest_major_action_date": "2018-07-20",
                    "latest_major_action": "Became Public Law No: 115-199."
                },
                {
                    "congress": "115",
                    "bill_id": "sjres36-115",
                    "bill_type": "sjres",
                    "number": "S.J.RES.36",
                    "bill_uri": "https://api.propublica.org/congress/v1/115/bills/sjres36.json",
                    "title": "A joint resolution providing for the appointment of Roger W. Ferguson as a citizen regent of the Board of Regents of the Smithsonian Institution.",
                    "short_title": "A joint resolution providing for the appointment of Roger W. Ferguson as a citizen regent of the Board of Regents of the Smithsonian Institution.",
                    "sponsor_title": "Sen.",
                    "sponsor_id": "B001236",
                    "sponsor_name": "John Boozman",
                    "sponsor_state": "AR",
                    "sponsor_party": "R",
                    "sponsor_uri": "https://api.propublica.org/congress/v1/members/B001236.json",
                    "gpo_pdf_uri": null,
                    "congressdotgov_url": "https://www.congress.gov/bill/115th-congress/senate-joint-resolution/36",
                    "govtrack_url": "https://www.govtrack.us/congress/bills/115/sjres36",
                    "introduced_date": "2017-03-08",
                    "active": true,
                    "last_vote": null,
                    "house_passage": "2017-04-06",
                    "senate_passage": "2017-03-27",
                    "enacted": "2017-04-19",
                    "vetoed": null,
                    "cosponsors": 2,
                    "cosponsors_by_party": {
                        "R": 1,
                        "D": 1
                    },
                    "committees": "House House Administration Committee",
                    "primary_subject": "Government Operations and Politics",
                    "summary": "(This measure has not been amended since it was introduced. The summary of that version is repeated here.) This joint resolution appoints Roger W. Ferguson as a citizen regent of the Board of Regents of the Smithsonian Institution. ",
                    "summary_short": "(This measure has not been amended since it was introduced. The summary of that version is repeated here.) This joint resolution appoints Roger W. Ferguson as a citizen regent of the Board of Regents of the Smithsonian Institution. ",
                    "latest_major_action_date": "2017-04-19",
                    "latest_major_action": "Became Public Law No: 115-29."
                },
                {
                    "congress": "115",
                    "bill_id": "sjres35-115",
                    "bill_type": "sjres",
                    "number": "S.J.RES.35",
                    "bill_uri": "https://api.propublica.org/congress/v1/115/bills/sjres35.json",
                    "title": "A joint resolution providing for the appointment of Michael Govan as a citizen regent of the Board of Regents of the Smithsonian Institution.",
                    "short_title": "A joint resolution providing for the appointment of Michael Govan as a citizen regent of the Board of Regents of the Smithsonian Institution.",
                    "sponsor_title": "Sen.",
                    "sponsor_id": "B001236",
                    "sponsor_name": "John Boozman",
                    "sponsor_state": "AR",
                    "sponsor_party": "R",
                    "sponsor_uri": "https://api.propublica.org/congress/v1/members/B001236.json",
                    "gpo_pdf_uri": null,
                    "congressdotgov_url": "https://www.congress.gov/bill/115th-congress/senate-joint-resolution/35",
                    "govtrack_url": "https://www.govtrack.us/congress/bills/115/sjres35",
                    "introduced_date": "2017-03-08",
                    "active": true,
                    "last_vote": null,
                    "house_passage": "2017-04-06",
                    "senate_passage": "2017-03-27",
                    "enacted": "2017-04-19",
                    "vetoed": null,
                    "cosponsors": 2,
                    "cosponsors_by_party": {
                        "R": 1,
                        "D": 1
                    },
                    "committees": "House House Administration Committee",
                    "primary_subject": "Government Operations and Politics",
                    "summary": "(This measure has not been amended since it was introduced. The summary of that version is repeated here.) This joint resolution appoints Michael Govan as a citizen regent of the Board of Regents of the Smithsonian Institution. ",
                    "summary_short": "(This measure has not been amended since it was introduced. The summary of that version is repeated here.) This joint resolution appoints Michael Govan as a citizen regent of the Board of Regents of the Smithsonian Institution. ",
                    "latest_major_action_date": "2017-04-19",
                    "latest_major_action": "Became Public Law No: 115-28."
                },
                {
                    "congress": "115",
                    "bill_id": "sjres1-115",
                    "bill_type": "sjres",
                    "number": "S.J.RES.1",
                    "bill_uri": "https://api.propublica.org/congress/v1/115/bills/sjres1.json",
                    "title": "A joint resolution approving the location of a memorial to commemorate and honor the members of the Armed Forces who served on active duty in support of Operation Desert Storm or Operation Desert Shield.",
                    "short_title": "A joint resolution approving the location of a memorial to commemorate and honor the members of the Armed Forces who served on active duty in support of Operation Desert Storm or Operation Desert Shield.",
                    "sponsor_title": "Sen.",
                    "sponsor_id": "B001236",
                    "sponsor_name": "John Boozman",
                    "sponsor_state": "AR",
                    "sponsor_party": "R",
                    "sponsor_uri": "https://api.propublica.org/congress/v1/members/B001236.json",
                    "gpo_pdf_uri": null,
                    "congressdotgov_url": "https://www.congress.gov/bill/115th-congress/senate-joint-resolution/1",
                    "govtrack_url": "https://www.govtrack.us/congress/bills/115/sjres1",
                    "introduced_date": "2017-01-03",
                    "active": true,
                    "last_vote": null,
                    "house_passage": "2017-03-15",
                    "senate_passage": "2017-03-08",
                    "enacted": "2017-03-31",
                    "vetoed": null,
                    "cosponsors": 24,
                    "cosponsors_by_party": {
                        "D": 10,
                        "R": 13,
                        "ID": 1
                    },
                    "committees": "Senate Energy and Natural Resources Committee",
                    "primary_subject": "Armed Forces and National Security",
                    "summary": "(This measure has not been amended since it was introduced. The summary of that version is repeated here.) This joint resolution approves the location within Washington, DC and the surrounding area of the National Desert Storm and Desert Shield Memorial authorized to be established under the Carl Levin and Howard P. `Buck' McKeon National Defense Authorization Act for Fiscal Year 2015.",
                    "summary_short": "(This measure has not been amended since it was introduced. The summary of that version is repeated here.) This joint resolution approves the location within Washington, DC and the surrounding area of the National Desert Storm and Desert Shield Memorial authorized to be established under the Carl Levin and Howard P. `Buck&#39; McKeon National Defense Authorization Act for Fiscal Year 2015.",
                    "latest_major_action_date": "2017-03-31",
                    "latest_major_action": "Became Public Law No: 115-18."
                },
                {
                    "congress": "114",
                    "bill_id": "s1707-114",
                    "bill_type": "s",
                    "number": "S.1707",
                    "bill_uri": "https://api.propublica.org/congress/v1/114/bills/s1707.json",
                    "title": "A bill to designate the Federal building located at 617 Walnut Street in Helena, Arkansas, as the 'Jacob Trieber Federal Building, United States Post Office, and United States Court House'.",
                    "short_title": "A bill to designate the Federal building located at 617 Walnut Street in Helena, Arkansas, as the \"Jacob Trieber Federal Building, United States Post Office, and United States Court House\".",
                    "sponsor_title": "Sen.",
                    "sponsor_id": "B001236",
                    "sponsor_name": "John Boozman",
                    "sponsor_state": "AR",
                    "sponsor_party": "R",
                    "sponsor_uri": "https://api.propublica.org/congress/v1/members/B001236.json",
                    "gpo_pdf_uri": null,
                    "congressdotgov_url": "https://www.congress.gov/bill/114th-congress/senate-bill/1707",
                    "govtrack_url": "https://www.govtrack.us/congress/bills/114/s1707",
                    "introduced_date": "2015-07-07",
                    "active": true,
                    "last_vote": null,
                    "house_passage": "2015-09-24",
                    "senate_passage": "2015-08-05",
                    "enacted": "2015-09-29",
                    "vetoed": null,
                    "cosponsors": 2,
                    "cosponsors_by_party": {
                        "R": 1,
                        "D": 1
                    },
                    "committees": "House Transportation and Infrastructure Committee",
                    "primary_subject": "Government Operations and Politics",
                    "summary": "(This measure has not been amended since it was introduced. The summary of that version is repeated here.)  Designates the federal building located at 617 Walnut Street in Helena, Arkansas, as the \"Jacob Trieber Federal Building, United States Post Office, and United States Court House.\"",
                    "summary_short": "(This measure has not been amended since it was introduced. The summary of that version is repeated here.)  Designates the federal building located at 617 Walnut Street in Helena, Arkansas, as the &quot;Jacob Trieber Federal Building, United States Post Office, and United States Court House.&quot;",
                    "latest_major_action_date": "2015-10-07",
                    "latest_major_action": "Became Public Law No: 114-67."
                }
            ]
        }
    ]
}
