{
    "status": "OK",
    "copyright": "Copyright (c) 2021 Pro Publica Inc. All Rights Reserved.",
    "results": [
        {
            "id": "C000266",
            "member_uri": "https://api.propublica.org/congress/v1/members/C000266.json",
            "name": "Steven J. Chabot",
            "num_results": 7,
            "offset": 0,
            "bills": [
                {
                    "congress": "115",
                    "bill_id": "hr6758-115",
                    "bill_type": "hr",
                    "number": "H.R.6758",
                    "bill_uri": "https://api.propublica.org/congress/v1/115/bills/hr6758.json",
                    "title": "To direct the Under Secretary of Commerce for Intellectual Property and Director of the United States Patent and Trademark Office, in consultation with the Administrator of the Small Business Administration, to study and provide recommendations to promote the participation of women and minorities in entrepreneurship activities and the patent system, to extend by 8 years the Patent and Trademark Office's authority to set the amounts for the fees it charges, and for other purposess.",
                    "short_title": "SUCCESS Act",
                    "sponsor_title": "Rep.",
                    "sponsor_id": "C000266",
                    "sponsor_name": "Steven J. Chabot",
                    "sponsor_state": "OH",
                    "sponsor_party": "R",
                    "sponsor_uri": "https://api.propublica.org/congress/v1/members/C000266.json",
                    "gpo_pdf_uri": null,
                    "congressdotgov_url": "https://www.congress.gov/bill/115th-congress/house-bill/6758",
                    "govtrack_url": "https://www.govtrack.us/congress/bills/115/hr6758",
                    "introduced_date": "2018-09-10",
                    "active": true,
                    "last_vote": null,
                    "house_passage": "2018-09-25",
                    "senate_passage": "2018-10-11",
                    "enacted": "2018-10-31",
                    "vetoed": null,
                    "cosponsors": 10,
                    "cosponsors_by_party": {
                        "D": 6,
                        "R": 4
                    },
                    "committees": "House Judiciary Committee",
                    "primary_subject": "Commerce",
                    "summary": "Study of Underrepresented Classes Chasing Engineering and Science Success Act of 2018 or the SUCCESS Act (Sec. 3) This bill directs the U.S. Patent and Trademark Office (USPTO) to study and report to Congress on the number of patents applied for and obtained: (1) by women, minorities, and veterans; and (2) by small businesses owned by women, minorities, and veterans. The USPTO must provide legislative recommendations to increase the number of women, minorities, and veterans who participate in entrepreneurship activities and apply for patents. (Sec. 4) Additionally, the bill amends the Leahy-Smith America Invents Act to extend for eight years the authority of the USPTO to set and adjust patent fees.",
                    "summary_short": "Study of Underrepresented Classes Chasing Engineering and Science Success Act of 2018 or the SUCCESS Act (Sec. 3) This bill directs the U.S. Patent and Trademark Office (USPTO) to study and report to Congress on the number of patents applied for and obtained: (1) by women, minorities, and veterans; and (2) by small businesses owned by women, minorities, and veterans. The USPTO must provide legislative recommendations to increase the number of women, minorities, and veterans who participate in...",
                    "latest_major_action_date": "2018-10-31",
                    "latest_major_action": "Became Public Law No: 115-273."
                },
                {
                    "congress": "115",
                    "bill_id": "hr4743-115",
                    "bill_type": "hr",
                    "number": "H.R.4743",
                    "bill_uri": "https://api.propublica.org/congress/v1/115/bills/hr4743.json",
                    "title": "To amend the Small Business Act to strengthen the Office of Credit Risk Management within the Small Business Administration, and for other purposes.",
                    "short_title": "Small Business 7(a) Lending Oversight Reform Act of 2018",
                    "sponsor_title": "Rep.",
                    "sponsor_id": "C000266",
                    "sponsor_name": "Steven J. Chabot",
                    "sponsor_state": "OH",
                    "sponsor_party": "R",
                    "sponsor_uri": "https://api.propublica.org/congress/v1/members/C000266.json",
                    "gpo_pdf_uri": null,
                    "congressdotgov_url": "https://www.congress.gov/bill/115th-congress/house-bill/4743",
                    "govtrack_url": "https://www.govtrack.us/congress/bills/115/hr4743",
                    "introduced_date": "2018-01-09",
                    "active": true,
                    "last_vote": null,
                    "house_passage": "2018-05-08",
                    "senate_passage": "2018-06-05",
                    "enacted": "2018-06-21",
                    "vetoed": null,
                    "cosponsors": 11,
                    "cosponsors_by_party": {
                        "D": 7,
                        "R": 4
                    },
                    "committees": "House Small Business Committee",
                    "primary_subject": "Commerce",
                    "summary": "Small Business 7(a) Lending Oversight Reform Act of 2018 (Sec. 3) This bill amends the Small Business Act to provide statutory authority for the Small Business Administration (SBA) Office of Credit Risk Management (OCRM) and the SBA Lender Oversight Committee. The bill modifies the OCRM's supervisory duties and the committee's review of OCRM formal enforcement action recommendations. The bill requires OCRM to supervise:   lenders making loans under the SBA's guaranteed loan program, commonly known as 7(a) lenders; lending partners or SBA intermediary participants in a lending program of the SBA's Office of Capital Access;  small business lending companies; and  nonfederally regulated lenders.  The OCRM may assess a monetary penalty against lenders that violate requirements. (Sec. 4) Under current law, a borrower is ineligible for an SBA guaranteed loan if the applicant may obtain credit elsewhere. The term \"credit elsewhere\" is redefined to include the availability of credit on reasonable terms and conditions to the loan applicant from nongovernment sources, considering factors associated with conventional lending practices, including:  the business industry in which the applicant operates; whether the applicant is an enterprise that has been in operation for two years or less; the adequacy of the collateral available to secure the requested loan; the loan term necessary to reasonably assure the ability of the loan applicant to repay the debt from the business's actual or projected cash flow; and any other factors relating to the particular credit application, as documented in detail by the lender, that cannot be overcome except through obtaining a federal loan guarantee under prudent lending standards.  Such term is inapplicable to certain SBA guaranteed loans to repair, rehabilitate, or replace property damaged or destroyed by or resulting from natural or other disasters. (Sec. 5) The SBA may, with congressional approval, increase the cap for general business loans if the cap will be reached within that fiscal year. An increase may only be implemented once each fiscal year. (Sec. 6) SBA waivers of regulations or requirements in the Standard Operating Procedures Manual or Policy Notice related to an Office of Capital Access's program or function must be in writing and maintained in an index. (Sec 7) The bill repeals a requirement for the SBA to report certain information to the President and Congress, including the number and amount of loan defaults.",
                    "summary_short": "Small Business 7(a) Lending Oversight Reform Act of 2018 (Sec. 3) This bill amends the Small Business Act to provide statutory authority for the Small Business Administration (SBA) Office of Credit Risk Management (OCRM) and the SBA Lender Oversight Committee. The bill modifies the OCRM&#39;s supervisory duties and the committee&#39;s review of OCRM formal enforcement action recommendations. The bill requires OCRM to supervise:   lenders making loans under the SBA&#39;s guaranteed loan program, commonly ...",
                    "latest_major_action_date": "2018-06-21",
                    "latest_major_action": "Became Public Law No: 115-189."
                },
                {
                    "congress": "115",
                    "bill_id": "hr535-115",
                    "bill_type": "hr",
                    "number": "H.R.535",
                    "bill_uri": "https://api.propublica.org/congress/v1/115/bills/hr535.json",
                    "title": "To encourage visits between the United States and Taiwan at all levels, and for other purposes.",
                    "short_title": "Taiwan Travel Act",
                    "sponsor_title": "Rep.",
                    "sponsor_id": "C000266",
                    "sponsor_name": "Steven J. Chabot",
                    "sponsor_state": "OH",
                    "sponsor_party": "R",
                    "sponsor_uri": "https://api.propublica.org/congress/v1/members/C000266.json",
                    "gpo_pdf_uri": null,
                    "congressdotgov_url": "https://www.congress.gov/bill/115th-congress/house-bill/535",
                    "govtrack_url": "https://www.govtrack.us/congress/bills/115/hr535",
                    "introduced_date": "2017-01-13",
                    "active": true,
                    "last_vote": null,
                    "house_passage": "2018-01-09",
                    "senate_passage": "2018-02-28",
                    "enacted": "2018-03-16",
                    "vetoed": null,
                    "cosponsors": 81,
                    "cosponsors_by_party": {
                        "R": 52,
                        "D": 29
                    },
                    "committees": "Senate Foreign Relations Committee",
                    "primary_subject": "International Affairs",
                    "summary": "Taiwan Travel Act  (Sec. 3) This bill expresses the sense of Congress that the U.S. government should encourage visits between U.S. and Taiwanese officials at all levels.  The bill states that it should be U.S. policy to: (1) allow U.S. officials at all levels to travel to Taiwan to meet their Taiwanese counterparts; (2) permit high-level Taiwanese officials to enter the United States under respectful conditions and to meet with U.S. officials, including officials from the Departments of State and Defense; and (3) encourage the Taipei Economic and Cultural Representative Office and any other instrumentality established by Taiwan to conduct business in the United States.",
                    "summary_short": "Taiwan Travel Act  (Sec. 3) This bill expresses the sense of Congress that the U.S. government should encourage visits between U.S. and Taiwanese officials at all levels.  The bill states that it should be U.S. policy to: (1) allow U.S. officials at all levels to travel to Taiwan to meet their Taiwanese counterparts; (2) permit high-level Taiwanese officials to enter the United States under respectful conditions and to meet with U.S. officials, including officials from the Departments of Stat...",
                    "latest_major_action_date": "2018-03-16",
                    "latest_major_action": "Became Public Law No: 115-135."
                },
                {
                    "congress": "114",
                    "bill_id": "hr6477-114",
                    "bill_type": "hr",
                    "number": "H.R.6477",
                    "bill_uri": "https://api.propublica.org/congress/v1/114/bills/hr6477.json",
                    "title": "To amend chapter 97 of title 28, United States Code, to clarify the exception to foreign sovereign immunity set forth in section 1605(a)(3) of such title.",
                    "short_title": "Foreign Cultural Exchange Jurisdictional Immunity Clarification Act",
                    "sponsor_title": "Rep.",
                    "sponsor_id": "C000266",
                    "sponsor_name": "Steven J. Chabot",
                    "sponsor_state": "OH",
                    "sponsor_party": "R",
                    "sponsor_uri": "https://api.propublica.org/congress/v1/members/C000266.json",
                    "gpo_pdf_uri": null,
                    "congressdotgov_url": "https://www.congress.gov/bill/114th-congress/house-bill/6477",
                    "govtrack_url": "https://www.govtrack.us/congress/bills/114/hr6477",
                    "introduced_date": "2016-12-08",
                    "active": true,
                    "last_vote": null,
                    "house_passage": "2016-12-08",
                    "senate_passage": "2016-12-10",
                    "enacted": "2016-12-15",
                    "vetoed": null,
                    "cosponsors": 3,
                    "cosponsors_by_party": {
                        "D": 2,
                        "R": 1
                    },
                    "committees": "",
                    "primary_subject": "Law",
                    "summary": "(This measure has not been amended since it was introduced. The expanded summary of the House passed version is repeated here.) Foreign Cultural Exchange Jurisdictional Immunity Clarification Act (Sec. 2) This bill amends the federal judicial code with respect to denial of a foreign state's sovereign immunity from the jurisdiction of U.S. or state courts in commercial activity cases where rights in property taken in violation of international law are in issue and that property, or any property exchanged for it, is: (1) present in the United States in connection with a commercial activity carried on by the foreign state in the United States, or (2) owned by an agency or instrumentality of the foreign state and that agency or instrumentality is engaged in a commercial activity in the United States. The bill grants a foreign state or certain carriers immunity from federal or state court jurisdiction for any activity in the United States associated with a temporary exhibition or display of a work of art or other object of cultural significance if:   the work of art or other object of cultural significance is imported into the United States from any foreign country pursuant to an agreement for its temporary exhibition or display between a foreign state that is its owner or custodian and the United States or U.S. cultural or educational institutions; and  the President has determined that such work is culturally significant and its temporary exhibition or display is in the national interest.   The bill denies immunity, however, in cases concerning rights in property taken in violation of international law in which the action is based upon a claim that the work was taken: (1) between January 30, 1933, and May 8, 1945, by the government of Germany or any government in Europe occupied, assisted, or allied by the German government; or (2) after 1900 in connection with the acts of a foreign government as part of a systematic campaign of coercive confiscation or misappropriation of works from members of a targeted and vulnerable group. For purposes of these denials of immunity, the court must determine that the activity associated with the exhibition or display is commercial and that determination must be necessary for the court to exercise jurisdiction over the foreign state. (Sec. 3) The Department of State must ensure that foreign states that apply for such temporary exhibition immunity are notified of the amendments made by this bill.",
                    "summary_short": "(This measure has not been amended since it was introduced. The expanded summary of the House passed version is repeated here.) Foreign Cultural Exchange Jurisdictional Immunity Clarification Act (Sec. 2) This bill amends the federal judicial code with respect to denial of a foreign state&#39;s sovereign immunity from the jurisdiction of U.S. or state courts in commercial activity cases where rights in property taken in violation of international law are in issue and that property, or any propert...",
                    "latest_major_action_date": "2016-12-16",
                    "latest_major_action": "Became Public Law No: 114-319."
                },
                {
                    "congress": "114",
                    "bill_id": "hr558-114",
                    "bill_type": "hr",
                    "number": "H.R.558",
                    "bill_uri": "https://api.propublica.org/congress/v1/114/bills/hr558.json",
                    "title": "To designate the facility of the United States Postal Service located at 55 South Pioneer Boulevard in Springboro, Ohio, as the 'Richard 'Dick' Chenault Post Office Building'.",
                    "short_title": "To designate the facility of the United States Postal Service located at 55 South Pioneer Boulevard in Springboro, Ohio, as the \"Richard 'Dick' Chenault Post Office Building\".",
                    "sponsor_title": "Rep.",
                    "sponsor_id": "C000266",
                    "sponsor_name": "Steven J. Chabot",
                    "sponsor_state": "OH",
                    "sponsor_party": "R",
                    "sponsor_uri": "https://api.propublica.org/congress/v1/members/C000266.json",
                    "gpo_pdf_uri": null,
                    "congressdotgov_url": "https://www.congress.gov/bill/114th-congress/house-bill/558",
                    "govtrack_url": "https://www.govtrack.us/congress/bills/114/hr558",
                    "introduced_date": "2015-01-27",
                    "active": true,
                    "last_vote": null,
                    "house_passage": "2015-09-24",
                    "senate_passage": "2015-10-20",
                    "enacted": "2015-10-26",
                    "vetoed": null,
                    "cosponsors": 14,
                    "cosponsors_by_party": {
                        "D": 4,
                        "R": 10
                    },
                    "committees": "Senate Homeland Security and Governmental Affairs Committee",
                    "primary_subject": "Government Operations and Politics",
                    "summary": "(This measure has not been amended since it was introduced. The summary of that version is repeated here.) Designates the facility of the United States Postal Service located at 55 South Pioneer Boulevard in Springboro, Ohio, as the \"Richard 'Dick' Chenault Post Office Building.\"",
                    "summary_short": "(This measure has not been amended since it was introduced. The summary of that version is repeated here.) Designates the facility of the United States Postal Service located at 55 South Pioneer Boulevard in Springboro, Ohio, as the &quot;Richard &#39;Dick&#39; Chenault Post Office Building.&quot;",
                    "latest_major_action_date": "2015-11-05",
                    "latest_major_action": "Became Public Law No: 114-79."
                },
                {
                    "congress": "114",
                    "bill_id": "hr2499-114",
                    "bill_type": "hr",
                    "number": "H.R.2499",
                    "bill_uri": "https://api.propublica.org/congress/v1/114/bills/hr2499.json",
                    "title": "To amend the Small Business Act to increase access to capital for veteran entrepreneurs, to help create jobs, and for other purposes.",
                    "short_title": "Veterans Entrepreneurship Act of 2015",
                    "sponsor_title": "Rep.",
                    "sponsor_id": "C000266",
                    "sponsor_name": "Steven J. Chabot",
                    "sponsor_state": "OH",
                    "sponsor_party": "R",
                    "sponsor_uri": "https://api.propublica.org/congress/v1/members/C000266.json",
                    "gpo_pdf_uri": null,
                    "congressdotgov_url": "https://www.congress.gov/bill/114th-congress/house-bill/2499",
                    "govtrack_url": "https://www.govtrack.us/congress/bills/114/hr2499",
                    "introduced_date": "2015-05-21",
                    "active": true,
                    "last_vote": "2015-07-13",
                    "house_passage": "2015-07-27",
                    "senate_passage": "2015-07-23",
                    "enacted": "2015-07-27",
                    "vetoed": null,
                    "cosponsors": 6,
                    "cosponsors_by_party": {
                        "R": 6
                    },
                    "committees": "House Small Business Committee",
                    "primary_subject": "Commerce",
                    "summary": "(This measure has not been amended since it was passed by the Senate on July 23, 2015. The summary of that version is repeated here.) Veterans Entrepreneurship Act of 2015 (Sec. 2) Amends the Small Business Act to prohibit the Small Business Administration (SBA) from collecting a guarantee fee in connection with a loan made under the SBA Express Program to a veteran or the spouse of a veteran on or after October 1, 2015, except during any upcoming fiscal year for which the President's budget, submitted to Congress, includes a cost for the Program that is above zero. (Sec. 3) Requires the SBA to assess for Congress the level of outreach to and consultation with female veterans regarding access to capital by women's business centers and Veterans Business Outreach Centers. (Sec. 4) Amends the Consolidated and Further Continuing Appropriations Act, 2015 to increase the limit from $18.75 billion to $23.5 billion for FY2015 commitments for general business loans for a combination of amortizing term loans and the aggregated maximum line of credit provided by revolving loans. Amends the Small Business Act to prohibit the SBA, starting October 1, 2015, from guaranteeing a loan if:  the lender determines that the borrower is unable to obtain credit elsewhere solely because the lender's liquidity depends upon the guaranteed portion of the loan being sold on the secondary market, or the sole purpose for requesting the guarantee is to allow the lender to exceed its legal lending limit. ",
                    "summary_short": "(This measure has not been amended since it was passed by the Senate on July 23, 2015. The summary of that version is repeated here.) Veterans Entrepreneurship Act of 2015 (Sec. 2) Amends the Small Business Act to prohibit the Small Business Administration (SBA) from collecting a guarantee fee in connection with a loan made under the SBA Express Program to a veteran or the spouse of a veteran on or after October 1, 2015, except during any upcoming fiscal year for which the President&#39;s budget,...",
                    "latest_major_action_date": "2015-07-28",
                    "latest_major_action": "Became Public Law No: 114-38."
                },
                {
                    "congress": "113",
                    "bill_id": "hr3190-113",
                    "bill_type": "hr",
                    "number": "H.R.3190",
                    "bill_uri": "https://api.propublica.org/congress/v1/113/bills/hr3190.json",
                    "title": "To provide for the continued performance of the functions of the United States Parole Commission, and for other purposes.",
                    "short_title": "United States Parole Commission Extension Act of 2013",
                    "sponsor_title": "Rep.",
                    "sponsor_id": "C000266",
                    "sponsor_name": "Steven J. Chabot",
                    "sponsor_state": "OH",
                    "sponsor_party": "R",
                    "sponsor_uri": "https://api.propublica.org/congress/v1/members/C000266.json",
                    "gpo_pdf_uri": null,
                    "congressdotgov_url": "https://www.congress.gov/bill/113th-congress/house-bill/3190",
                    "govtrack_url": "https://www.govtrack.us/congress/bills/113/hr3190",
                    "introduced_date": "2013-09-26",
                    "active": true,
                    "last_vote": null,
                    "house_passage": "2013-10-14",
                    "senate_passage": "2013-10-30",
                    "enacted": "2013-10-31",
                    "vetoed": null,
                    "cosponsors": 4,
                    "cosponsors_by_party": {
                        "R": 2,
                        "D": 2
                    },
                    "committees": "House Judiciary Committee",
                    "primary_subject": "Crime and Law Enforcement",
                    "summary": "(This measure has not been amended since it was introduced. The summary of that version is repeated here.) United States Parole Commission Extension Act of 2013 - Extends the United States Parole Commission for five years.  Directs the Commission, within 180 days after enactment of this Act, to report the following, for FY2012-FY2013, with regard to each type of case over which it has jurisdiction: (1) the number of offenders; (2) the number of hearings, record reviews, and National Appeals Board considerations conducted by the Commission; (3) the number of hearings conducted by the Commission by type of hearing; (4) the number of record reviews conducted by the Commission by type of consideration; (5) the number of warrants issued and executed compared to the number requested; (6) the number of revocation determinations by the Commission; (7) the distribution of initial offenses; (8) the distribution of subsequent offenses; (9) the percentage of offenders paroled or re-paroled compared with the percentage of offenders continued to expiration of sentence; (10) the percentage of cases in which the primary and secondary examiner disagreed on the appropriate disposition of the case, the release conditions to be imposed, or the reasons for the decision; (11) the percentage of revocation and non-revocation hearings in which the offender is accompanied by a representative; (12) the number of administrative appeals and the action of the National Appeals Board in relation to those appeals; and (13) the Commission's annual expenditures for offenders. Directs the Commission to report on: (1) the percentage of decisions within, above, or below its decision guidelines for federal initial hearings and federal and D.C. Code revocation hearings; (2) the projected number of federal offenders that will be under its jurisdiction as of October 31, 2018; (3) an estimate of the date on which no federal offenders will remain under its jurisdiction; and (4) its annual expenditures, including travel expenses and the annual salaries of its members and staff. Requires the Commission to make such reports for each of FY2014-FY2018 within 90 days after the end of the fiscal year. Directs the Commission, within 180 days after enactment of this Act, to report on: (1) the parole failure rate for the District of Columbia for the preceding fiscal year, (2) the factors that caused that rate, and (3) remedial measures that might be undertaken to reduce that rate.",
                    "summary_short": "(This measure has not been amended since it was introduced. The summary of that version is repeated here.) United States Parole Commission Extension Act of 2013 - Extends the United States Parole Commission for five years.  Directs the Commission, within 180 days after enactment of this Act, to report the following, for FY2012-FY2013, with regard to each type of case over which it has jurisdiction: (1) the number of offenders; (2) the number of hearings, record reviews, and National Appeals B...",
                    "latest_major_action_date": "2013-10-31",
                    "latest_major_action": "Became Public Law No: 113-47."
                }
            ]
        }
    ]
}
