{
    "status": "OK",
    "copyright": "Copyright (c) 2021 Pro Publica Inc. All Rights Reserved.",
    "results": [
        {
            "id": "C001067",
            "member_uri": "https://api.propublica.org/congress/v1/members/C001067.json",
            "name": "Yvette D. Clarke",
            "num_results": 1,
            "offset": 0,
            "bills": [
                {
                    "congress": "115",
                    "bill_id": "hr5238-115",
                    "bill_type": "hr",
                    "number": "H.R.5238",
                    "bill_uri": "https://api.propublica.org/congress/v1/115/bills/hr5238.json",
                    "title": "To designate the facility of the United States Postal Service located at 1234 Saint Johns Place in Brooklyn, New York, as the 'Major Robert Odell Owens Post Office'.",
                    "short_title": "To designate the facility of the United States Postal Service located at 1234 Saint Johns Place in Brooklyn, New York, as the \"Major Robert Odell Owens Post Office\".",
                    "sponsor_title": "Rep.",
                    "sponsor_id": "C001067",
                    "sponsor_name": "Yvette D. Clarke",
                    "sponsor_state": "NY",
                    "sponsor_party": "D",
                    "sponsor_uri": "https://api.propublica.org/congress/v1/members/C001067.json",
                    "gpo_pdf_uri": null,
                    "congressdotgov_url": "https://www.congress.gov/bill/115th-congress/house-bill/5238",
                    "govtrack_url": "https://www.govtrack.us/congress/bills/115/hr5238",
                    "introduced_date": "2018-03-09",
                    "active": true,
                    "last_vote": null,
                    "house_passage": "2018-07-16",
                    "senate_passage": "2018-12-06",
                    "enacted": "2018-12-14",
                    "vetoed": null,
                    "cosponsors": 58,
                    "cosponsors_by_party": {
                        "R": 9,
                        "D": 49
                    },
                    "committees": "Senate Homeland Security and Governmental Affairs Committee",
                    "primary_subject": "Government Operations and Politics",
                    "summary": "Designates the facility of the United States Postal Service located at 1234 Saint Johns Place in Brooklyn, New York, as the \"Major Robert Odell Owens Post Office.\"",
                    "summary_short": "Designates the facility of the United States Postal Service located at 1234 Saint Johns Place in Brooklyn, New York, as the &quot;Major Robert Odell Owens Post Office.&quot;",
                    "latest_major_action_date": "2018-12-14",
                    "latest_major_action": "Became Public Law No: 115-317."
                }
            ]
        }
    ]
}
