{
    "status": "OK",
    "copyright": "Copyright (c) 2021 Pro Publica Inc. All Rights Reserved.",
    "results": [
        {
            "id": "C001062",
            "member_uri": "https://api.propublica.org/congress/v1/members/C001062.json",
            "name": "K. Michael Conaway",
            "num_results": 3,
            "offset": 0,
            "bills": [
                {
                    "congress": "116",
                    "bill_id": "hr2334-116",
                    "bill_type": "hr",
                    "number": "H.R.2334",
                    "bill_uri": "https://api.propublica.org/congress/v1/116/bills/hr2334.json",
                    "title": "To designate the Department of Veterans Affairs community-based outpatient clinic in Odessa, Texas, as the 'Wilson and Young Medal of Honor VA Clinic'.",
                    "short_title": "To designate the Department of Veterans Affairs community-based outpatient clinic in Odessa, Texas, as the \"Wilson and Young Medal of Honor VA Clinic\".",
                    "sponsor_title": "Rep.",
                    "sponsor_id": "C001062",
                    "sponsor_name": "K. Michael Conaway",
                    "sponsor_state": "TX",
                    "sponsor_party": "R",
                    "sponsor_uri": "https://api.propublica.org/congress/v1/members/C001062.json",
                    "gpo_pdf_uri": null,
                    "congressdotgov_url": "https://www.congress.gov/bill/116th-congress/house-bill/2334",
                    "govtrack_url": "https://www.govtrack.us/congress/bills/116/hr2334",
                    "introduced_date": "2019-04-18",
                    "active": true,
                    "last_vote": null,
                    "house_passage": "2019-10-15",
                    "senate_passage": "2019-11-21",
                    "enacted": "2019-12-13",
                    "vetoed": null,
                    "cosponsors": 35,
                    "cosponsors_by_party": {
                        "R": 22,
                        "D": 13
                    },
                    "committees": "Senate Veterans&#39; Affairs Committee",
                    "primary_subject": "Armed Forces and National Security",
                    "summary": "This bill designates the community-based outpatient clinic of the Department of Veterans Affairs in Odessa, Texas, as the \"Wilson and Young Medal of Honor VA Clinic.\"",
                    "summary_short": "This bill designates the community-based outpatient clinic of the Department of Veterans Affairs in Odessa, Texas, as the &quot;Wilson and Young Medal of Honor VA Clinic.&quot;",
                    "latest_major_action_date": "2019-12-13",
                    "latest_major_action": "Became Public Law No: 116-87."
                },
                {
                    "congress": "115",
                    "bill_id": "hr2-115",
                    "bill_type": "hr",
                    "number": "H.R.2",
                    "bill_uri": "https://api.propublica.org/congress/v1/115/bills/hr2.json",
                    "title": "To provide for the reform and continuation of agricultural and other programs of the Department of Agriculture through fiscal year 2023, and for other purposes.",
                    "short_title": "Agriculture Improvement Act of 2018",
                    "sponsor_title": "Rep.",
                    "sponsor_id": "C001062",
                    "sponsor_name": "K. Michael Conaway",
                    "sponsor_state": "TX",
                    "sponsor_party": "R",
                    "sponsor_uri": "https://api.propublica.org/congress/v1/members/C001062.json",
                    "gpo_pdf_uri": null,
                    "congressdotgov_url": "https://www.congress.gov/bill/115th-congress/house-bill/2",
                    "govtrack_url": "https://www.govtrack.us/congress/bills/115/hr2",
                    "introduced_date": "2018-04-12",
                    "active": true,
                    "last_vote": "2018-12-12",
                    "house_passage": "2018-07-18",
                    "senate_passage": "2018-06-28",
                    "enacted": "2018-12-20",
                    "vetoed": null,
                    "cosponsors": 0,
                    "cosponsors_by_party": {},
                    "committees": "House Agriculture Committee",
                    "primary_subject": "Agriculture and Food",
                    "summary": "Agriculture Improvement Act of 2018  This bill (commonly known as the farm bill) reauthorizes through FY2023 and modifies Department of Agriculture (USDA) programs that address:    commodity support,   conservation,   trade and international food aid,   nutrition assistance,   farm credit,   rural development,   research and extension activities,   forestry,   energy,   horticulture, and   crop insurance.   The bill modifies agriculture and nutrition policies to:    require farmers to make a new election to obtain either Price Loss Coverage or Agricultural Risk Coverage for the 2019-2023 crop years, which may be changed for the 2021-2023 crop years;  replace the Dairy Margin Protection Program with Dairy Risk Coverage and modify coverage levels and premiums;  make Indian tribes and tribal organizations eligible for supplemental agricultural disaster assistance programs;  reduce the adjusted gross income limitation for receiving benefits under commodity and conservation programs;  modify funding levels and requirements for several conservation programs,   consolidate several existing trade and export promotion programs into a new Priority Trade Promotion, Development, and Assistance program;   legalize industrial hemp and make hemp producers eligible for the federal crop insurance program;   establish an interstate data system to prevent the simultaneous issuance of Supplemental Nutrition Assistance Program (SNAP, formerly known as the food stamp program) benefits to an individual by more than one state;  increase the loan limits for farm ownership and operating loans;  modify the experience requirement for farm ownership loans;  authorize a categorical exclusion from requirements for environmental assessments and environmental impact statements for certain forest management projects with the primary purpose of protecting, restoring, or improving habitat for the greater sage-grouse or mule deer; and modify the organic certification requirements for imported agricultural products.  ",
                    "summary_short": "Agriculture Improvement Act of 2018  This bill (commonly known as the farm bill) reauthorizes through FY2023 and modifies Department of Agriculture (USDA) programs that address:    commodity support,   conservation,   trade and international food aid,   nutrition assistance,   farm credit,   rural development,   research and extension activities,   forestry,   energy,   horticulture, and   crop insurance.   The bill modifies agriculture and nutrition policies to:    require farmers to make a ...",
                    "latest_major_action_date": "2018-12-20",
                    "latest_major_action": "Became Public Law No: 115-334."
                },
                {
                    "congress": "114",
                    "bill_id": "hr2051-114",
                    "bill_type": "hr",
                    "number": "H.R.2051",
                    "bill_uri": "https://api.propublica.org/congress/v1/114/bills/hr2051.json",
                    "title": "To amend the Agricultural Marketing Act of 1946 to extend the livestock mandatory price reporting requirements, and for other purposes.",
                    "short_title": "Agriculture Reauthorizations Act of 2015",
                    "sponsor_title": "Rep.",
                    "sponsor_id": "C001062",
                    "sponsor_name": "K. Michael Conaway",
                    "sponsor_state": "TX",
                    "sponsor_party": "R",
                    "sponsor_uri": "https://api.propublica.org/congress/v1/members/C001062.json",
                    "gpo_pdf_uri": null,
                    "congressdotgov_url": "https://www.congress.gov/bill/114th-congress/house-bill/2051",
                    "govtrack_url": "https://www.govtrack.us/congress/bills/114/hr2051",
                    "introduced_date": "2015-04-28",
                    "active": true,
                    "last_vote": null,
                    "house_passage": "2015-09-28",
                    "senate_passage": "2015-09-21",
                    "enacted": "2015-09-29",
                    "vetoed": null,
                    "cosponsors": 3,
                    "cosponsors_by_party": {
                        "D": 1,
                        "R": 2
                    },
                    "committees": "Senate Agriculture, Nutrition, and Forestry Committee",
                    "primary_subject": "Agriculture and Food",
                    "summary": "(This measure has not been amended since it was reported to the Senate on September 17, 2015. The summary of that version is repeated here.)  Agriculture Reauthorizations Act of 2015  This bill reauthorizes and amends laws that address livestock mandatory price reporting requirements, funding for the National Forest Foundation, and procedures for weighing and inspecting grain.  TITLE I--MANDATORY PRICE REPORTING  This bill amends the Agricultural Marketing Act of 1946 to extend and revise the Department of Agriculture's (USDA's) livestock mandatory price reporting requirements.  (Sec. 101) The bill extends the authority for continuing mandatory livestock price reporting through FY2020. Current authority expires at the end of FY2015.  (Sec. 102) USDA must begin reporting specified price details regarding certain negotiated purchases of swine. USDA must include required information that occurs after the afternoon reporting deadline in reports for the next day.  (Sec. 103) USDA must revise regulations to modify the definitions of \"packer\" and \"importers\" for the purpose of lamb reporting requirements.  USDA must include only importers that imported an average of 1,000 metric tons of lamb meat products per year during the previous four years, or importers that USDA determines should be included based on the volume of lamb imports.  The term \"packer\" applies to any entity with at least 50% ownership in a facility and includes a federally inspected processing plant that slaughtered or processed the equivalent of an average of 35,000 head of lambs per year during the previous five years. USDA may include other processing plants that should be considered packers based on capacity.  (Sec. 104) The USDA's Agricultural Marketing Service must consult with relevant market participants to study and report to Congress on the implementation of livestock mandatory price reporting.  TITLE II--NATIONAL FOREST FOUNDATION ACT REAUTHORIZATION  (Sec. 201) This bill amends the National Forest Foundation Act to authorize USDA to provide matching funds for certain administrative and project expenses incurred by the National Forest Foundation for FY2016-FY2018.  TITLE III--UNITED STATES GRAIN STANDARDS ACT REAUTHORIZATION  This bill reauthorizes and amends provisions of the United States Grain Standards Act. The Act authorizes USDA to establish official marketing standards for grains, and to provide procedures for grain inspection and weighing. The bill reauthorizes several expiring provisions through FY2020, establishes procedures in the event of an interruption of inspection and weighing services, revises the process for delegating inspections to state agencies, and revises fees for inspection and weighing services.  (Sec. 301) The bill revises USDA's discretionary authority to waive weighing and inspection requirements in emergency circumstances to require a waiver in an emergency. Transfers of grain into an export elevator by any mode of transportation are not required to be officially weighed.  In the case of a disruption in official grain inspection or weighing services, the bill requires USDA to immediately take the actions necessary to address the disruption and resume services. USDA must also report to Congress on the disruption and provide daily updates until services have resumed.  The bill ends the permanent delegation to state agencies to carry out export inspection and weighing services. Every five years, USDA must certify that each state agency with a delegation of authority is meeting specified criteria. The certification process must include public notice and a comment period. State agencies that have been delegated authority and intend to temporarily discontinue official inspection or weighing services, except in the case of a major disaster, must notify USDA in advance.  USDA must waive geographic boundaries to permit agencies to carry out weighing and inspection activities in another geographic area if specified conditions are met.  In order to review the performance of states, local agencies, and individuals that have applied to perform official inspections other than at export port locations, USDA must periodically consult with customers of the applicant and work with the applicant to address any concerns.  The bill extends the duration of licenses for inspectors from three to five years. Designations of official agencies terminate at a time specified by USDA that is no later than every five years.  The bill changes the fee calculation for inspection and weighing services and extends the authority to collect fees through FY2020.  The bill extends the limitation on total administrative and supervisory costs, the authorization of appropriations, and the authorization of the advisory committee through FY2020.  (Sec. 302) USDA must report to Congress on the disruption in federal inspection of grain exports at the Port of Vancouver in the summer of 2014. The report must include factors that led or contributed to the disruption and changes in policy USDA has implemented to ensure that a similar disruptions does not occur in the future.  (Sec. 303) USDA must report to Congress on policy barriers to U.S. grain producers in countries that: (1) produce grain that receives official grading in the United States, and (2) do not offer official grading for U.S. grain or provide only the lowest designation for U.S. grain. ",
                    "summary_short": "(This measure has not been amended since it was reported to the Senate on September 17, 2015. The summary of that version is repeated here.)  Agriculture Reauthorizations Act of 2015  This bill reauthorizes and amends laws that address livestock mandatory price reporting requirements, funding for the National Forest Foundation, and procedures for weighing and inspecting grain.  TITLE I--MANDATORY PRICE REPORTING  This bill amends the Agricultural Marketing Act of 1946 to extend and revise the...",
                    "latest_major_action_date": "2016-02-08",
                    "latest_major_action": "By Senator Roberts from Committee on Agriculture, Nutrition, and Forestry filed written report. Report No. 114-206."
                }
            ]
        }
    ]
}
