{
    "status": "OK",
    "copyright": "Copyright (c) 2021 Pro Publica Inc. All Rights Reserved.",
    "results": [
        {
            "id": "C001092",
            "member_uri": "https://api.propublica.org/congress/v1/members/C001092.json",
            "name": "Chris Collins",
            "num_results": 4,
            "offset": 0,
            "bills": [
                {
                    "congress": "115",
                    "bill_id": "hr5395-115",
                    "bill_type": "hr",
                    "number": "H.R.5395",
                    "bill_uri": "https://api.propublica.org/congress/v1/115/bills/hr5395.json",
                    "title": "To designate the facility of the United States Postal Service located at 116 Main Street in Dansville, New York, as the 'Staff Sergeant Alexandria Gleason-Morrow Post Office Building'.",
                    "short_title": "To designate the facility of the United States Postal Service located at 116 Main Street in Dansville, New York, as the \"Staff Sergeant Alexandria Gleason-Morrow Post Office Building\".",
                    "sponsor_title": "Rep.",
                    "sponsor_id": "C001092",
                    "sponsor_name": "Chris Collins",
                    "sponsor_state": "NY",
                    "sponsor_party": "R",
                    "sponsor_uri": "https://api.propublica.org/congress/v1/members/C001092.json",
                    "gpo_pdf_uri": null,
                    "congressdotgov_url": "https://www.congress.gov/bill/115th-congress/house-bill/5395",
                    "govtrack_url": "https://www.govtrack.us/congress/bills/115/hr5395",
                    "introduced_date": "2018-03-22",
                    "active": true,
                    "last_vote": null,
                    "house_passage": "2018-11-29",
                    "senate_passage": "2018-12-12",
                    "enacted": null,
                    "vetoed": null,
                    "cosponsors": 25,
                    "cosponsors_by_party": {
                        "R": 8,
                        "D": 17
                    },
                    "committees": "House Oversight and Reform Committee",
                    "primary_subject": "Government Operations and Politics",
                    "summary": "Designates the facility of the United States Postal Service located at 116 Main Street in Dansville, New York, as the \"Staff Sergeant Alexandria Gleason-Morrow Post Office Building.\"",
                    "summary_short": "Designates the facility of the United States Postal Service located at 116 Main Street in Dansville, New York, as the &quot;Staff Sergeant Alexandria Gleason-Morrow Post Office Building.&quot;",
                    "latest_major_action_date": "2018-12-21",
                    "latest_major_action": "Became Public Law No: 115-355."
                },
                {
                    "congress": "115",
                    "bill_id": "hr931-115",
                    "bill_type": "hr",
                    "number": "H.R.931",
                    "bill_uri": "https://api.propublica.org/congress/v1/115/bills/hr931.json",
                    "title": "To require the Secretary of Health and Human Services to develop a voluntary registry to collect data on cancer incidence among firefighters.",
                    "short_title": "Firefighter Cancer Registry Act of 2018",
                    "sponsor_title": "Rep.",
                    "sponsor_id": "C001092",
                    "sponsor_name": "Chris Collins",
                    "sponsor_state": "NY",
                    "sponsor_party": "R",
                    "sponsor_uri": "https://api.propublica.org/congress/v1/members/C001092.json",
                    "gpo_pdf_uri": null,
                    "congressdotgov_url": "https://www.congress.gov/bill/115th-congress/house-bill/931",
                    "govtrack_url": "https://www.govtrack.us/congress/bills/115/hr931",
                    "introduced_date": "2017-02-07",
                    "active": true,
                    "last_vote": null,
                    "house_passage": "2018-06-22",
                    "senate_passage": "2018-05-10",
                    "enacted": "2018-07-07",
                    "vetoed": null,
                    "cosponsors": 188,
                    "cosponsors_by_party": {
                        "D": 114,
                        "R": 74
                    },
                    "committees": "Senate Health, Education, Labor, and Pensions Committee",
                    "primary_subject": "Health",
                    "summary": "Firefighter Cancer Registry Act of  2018 (Sec. 2) This bill requires the Centers for Disease Control and Prevention (CDC) to develop and maintain a voluntary registry of firefighters in order to collect history and occupational information that can be used to determine the incidence of cancer among firefighters. The registry must be used to improve monitoring of cancer among firefighters and to collect and publish epidemiological information. The CDC should seek to include specified information in the registry, including the number and type of fire incidents attended by an individual. To collect information for the registry, the CDC must enable the registry to connect to state-based cancer registries.  The CDC must also: (1) develop a strategy to encourage participation in the registry, (2) develop guidance for states and firefighting agencies regarding the registry, and (3) seek feedback on the registry from nonfederal experts. The CDC must make registry data available to the public and in accordance with privacy laws. ",
                    "summary_short": "Firefighter Cancer Registry Act of  2018 (Sec. 2) This bill requires the Centers for Disease Control and Prevention (CDC) to develop and maintain a voluntary registry of firefighters in order to collect history and occupational information that can be used to determine the incidence of cancer among firefighters. The registry must be used to improve monitoring of cancer among firefighters and to collect and publish epidemiological information. The CDC should seek to include specified informati...",
                    "latest_major_action_date": "2018-07-07",
                    "latest_major_action": "Became Public Law No: 115-194."
                },
                {
                    "congress": "114",
                    "bill_id": "hr4372-114",
                    "bill_type": "hr",
                    "number": "H.R.4372",
                    "bill_uri": "https://api.propublica.org/congress/v1/114/bills/hr4372.json",
                    "title": "To designate the facility of the United States Postal Service located at 15 Rochester Street, Bergen, New York, as the Barry G. Miller Post Office.",
                    "short_title": "To designate the facility of the United States Postal Service located at 15 Rochester Street, Bergen, New York, as the Barry G. Miller Post Office.",
                    "sponsor_title": "Rep.",
                    "sponsor_id": "C001092",
                    "sponsor_name": "Chris Collins",
                    "sponsor_state": "NY",
                    "sponsor_party": "R",
                    "sponsor_uri": "https://api.propublica.org/congress/v1/members/C001092.json",
                    "gpo_pdf_uri": null,
                    "congressdotgov_url": "https://www.congress.gov/bill/114th-congress/house-bill/4372",
                    "govtrack_url": "https://www.govtrack.us/congress/bills/114/hr4372",
                    "introduced_date": "2016-01-12",
                    "active": true,
                    "last_vote": null,
                    "house_passage": "2016-06-21",
                    "senate_passage": "2016-07-07",
                    "enacted": "2016-07-12",
                    "vetoed": null,
                    "cosponsors": 26,
                    "cosponsors_by_party": {
                        "D": 18,
                        "R": 8
                    },
                    "committees": "Senate Homeland Security and Governmental Affairs Committee",
                    "primary_subject": "Government Operations and Politics",
                    "summary": "(This measure has not been amended since it was introduced. The summary of that version is repeated here.) Designates the facility of the United States Postal Service located at 15 Rochester Street, Bergen, New York, as the Barry G. Miller Post Office. ",
                    "summary_short": "(This measure has not been amended since it was introduced. The summary of that version is repeated here.) Designates the facility of the United States Postal Service located at 15 Rochester Street, Bergen, New York, as the Barry G. Miller Post Office. ",
                    "latest_major_action_date": "2016-07-15",
                    "latest_major_action": "Became Public Law No: 114-192."
                },
                {
                    "congress": "113",
                    "bill_id": "hr3472-113",
                    "bill_type": "hr",
                    "number": "H.R.3472",
                    "bill_uri": "https://api.propublica.org/congress/v1/113/bills/hr3472.json",
                    "title": "To designate the facility of the United States Postal Service located at 13127 Broadway Street in Alden, New York, as the 'Sergeant Brett E. Gornewicz Memorial Post Office'.",
                    "short_title": "To designate the facility of the United States Postal Service located at 13127 Broadway Street in Alden, New York, as the \"Sergeant Brett E. Gornewicz Memorial Post Office\".",
                    "sponsor_title": "Rep.",
                    "sponsor_id": "C001092",
                    "sponsor_name": "Chris Collins",
                    "sponsor_state": "NY",
                    "sponsor_party": "R",
                    "sponsor_uri": "https://api.propublica.org/congress/v1/members/C001092.json",
                    "gpo_pdf_uri": null,
                    "congressdotgov_url": "https://www.congress.gov/bill/113th-congress/house-bill/3472",
                    "govtrack_url": "https://www.govtrack.us/congress/bills/113/hr3472",
                    "introduced_date": "2013-11-13",
                    "active": true,
                    "last_vote": null,
                    "house_passage": "2014-06-17",
                    "senate_passage": "2014-08-01",
                    "enacted": "2014-08-04",
                    "vetoed": null,
                    "cosponsors": 26,
                    "cosponsors_by_party": {
                        "R": 5,
                        "D": 21
                    },
                    "committees": "Senate Homeland Security and Governmental Affairs Committee",
                    "primary_subject": "Government Operations and Politics",
                    "summary": "(This measure has not been amended since it was introduced. The summary of that version is repeated here.)Designates the facility of the United States Postal Service located at 13127 Broadway Street in Alden, New York, as the \"Sergeant Brett E. Gornewicz Memorial Post Office.\"",
                    "summary_short": "(This measure has not been amended since it was introduced. The summary of that version is repeated here.)Designates the facility of the United States Postal Service located at 13127 Broadway Street in Alden, New York, as the &quot;Sergeant Brett E. Gornewicz Memorial Post Office.&quot;",
                    "latest_major_action_date": "2014-08-08",
                    "latest_major_action": "Became Public Law No: 113-151."
                }
            ]
        }
    ]
}
