{
    "status": "OK",
    "copyright": "Copyright (c) 2021 Pro Publica Inc. All Rights Reserved.",
    "results": [
        {
            "id": "C001068",
            "member_uri": "https://api.propublica.org/congress/v1/members/C001068.json",
            "name": "Steve Cohen",
            "num_results": 3,
            "offset": 0,
            "bills": [
                {
                    "congress": "116",
                    "bill_id": "hr3304-116",
                    "bill_type": "hr",
                    "number": "H.R.3304",
                    "bill_uri": "https://api.propublica.org/congress/v1/116/bills/hr3304.json",
                    "title": "To exempt for an additional 4-year period, from the application of the means-test presumption of abuse under chapter 7, qualifying members of reserve components of the Armed Forces and members of the National Guard who, after September 11, 2001, are called to active duty or to perform a homeland defense activity for not less than 90 days.",
                    "short_title": "National Guard and Reservists Debt Relief Extension Act of 2019",
                    "sponsor_title": "Rep.",
                    "sponsor_id": "C001068",
                    "sponsor_name": "Steve Cohen",
                    "sponsor_state": "TN",
                    "sponsor_party": "D",
                    "sponsor_uri": "https://api.propublica.org/congress/v1/members/C001068.json",
                    "gpo_pdf_uri": null,
                    "congressdotgov_url": "https://www.congress.gov/bill/116th-congress/house-bill/3304",
                    "govtrack_url": "https://www.govtrack.us/congress/bills/116/hr3304",
                    "introduced_date": "2019-06-18",
                    "active": true,
                    "last_vote": "2019-07-23",
                    "house_passage": "2019-07-23",
                    "senate_passage": "2019-08-01",
                    "enacted": "2019-08-23",
                    "vetoed": null,
                    "cosponsors": 3,
                    "cosponsors_by_party": {
                        "R": 2,
                        "D": 1
                    },
                    "committees": "House Judiciary Committee",
                    "primary_subject": "Finance and Financial Sector",
                    "summary": "National Guard and Reservists Debt Relief Extension Act of 2019 This bill extends for an additional four years the exemption from the means test under Chapter 7 bankruptcy for qualifying members of an Armed Forces reserve component or the National Guard. Specifically, members who, after September 11, 2001, are called to active duty or to perform a homeland defense activity for not less than 90 days qualify for this exemption. Currently, the exemption expires on December 19, 2019. ",
                    "summary_short": "National Guard and Reservists Debt Relief Extension Act of 2019 This bill extends for an additional four years the exemption from the means test under Chapter 7 bankruptcy for qualifying members of an Armed Forces reserve component or the National Guard. Specifically, members who, after September 11, 2001, are called to active duty or to perform a homeland defense activity for not less than 90 days qualify for this exemption. Currently, the exemption expires on December 19, 2019. ",
                    "latest_major_action_date": "2019-08-23",
                    "latest_major_action": "Became Public Law No: 116-53."
                },
                {
                    "congress": "115",
                    "bill_id": "hr767-115",
                    "bill_type": "hr",
                    "number": "H.R.767",
                    "bill_uri": "https://api.propublica.org/congress/v1/115/bills/hr767.json",
                    "title": "To establish the Stop, Observe, Ask, and Respond to Health and Wellness Training pilot program to address human trafficking in the health care system.",
                    "short_title": "SOAR to Health and Wellness Act of 2018",
                    "sponsor_title": "Rep.",
                    "sponsor_id": "C001068",
                    "sponsor_name": "Steve Cohen",
                    "sponsor_state": "TN",
                    "sponsor_party": "D",
                    "sponsor_uri": "https://api.propublica.org/congress/v1/members/C001068.json",
                    "gpo_pdf_uri": null,
                    "congressdotgov_url": "https://www.congress.gov/bill/115th-congress/house-bill/767",
                    "govtrack_url": "https://www.govtrack.us/congress/bills/115/hr767",
                    "introduced_date": "2017-01-31",
                    "active": true,
                    "last_vote": "2018-12-20",
                    "house_passage": "2018-12-20",
                    "senate_passage": "2018-12-20",
                    "enacted": null,
                    "vetoed": null,
                    "cosponsors": 11,
                    "cosponsors_by_party": {
                        "R": 4,
                        "D": 7
                    },
                    "committees": "Senate Health, Education, Labor, and Pensions Committee",
                    "primary_subject": "Health",
                    "summary": "Stop, Observe, Ask, and Respond to Health and Wellness Act of 2017 or the SOAR to Health and Wellness Act of 2017 (Sec. 3) This bill directs the Department of Health and Human Services (HHS) to establish a program, to be known as the Stop, Observe, Ask, and Respond to Health and Wellness Training Program\u00a0or the SOAR to Health and Wellness Training Program, to train health care providers and other related providers to:  identify potential human trafficking victims,  work with law enforcement to report and facilitate communication with such victims,  refer victims to social or victims service agencies or organizations,  provide such victims with coordinated care tailored to their circumstances, and  consider integrating this training with existing training programs.  The program must include the functions of the training program with the same name that was operating before this bill's enactment and the following initiatives:  engaging stakeholders to develop a flexible training module,  providing technical assistance to health education programs and health care professional organizations,  facilitating the dissemination of best practices, and  developing a methodology for collecting and reporting data on the number of human trafficking victims served in health care settings or other related provider settings.  (Sec. 4) HHS must report the number of grantees operating under the program, the number of providers trained through the program, and numbers for the program operating before this program. (Sec. 5) The bill authorizes appropriations for the program through FY2022.",
                    "summary_short": "Stop, Observe, Ask, and Respond to Health and Wellness Act of 2017 or the SOAR to Health and Wellness Act of 2017 (Sec. 3) This bill directs the Department of Health and Human Services (HHS) to establish a program, to be known as the Stop, Observe, Ask, and Respond to Health and Wellness Training Program\u00a0or the SOAR to Health and Wellness Training Program, to train health care providers and other related providers to:  identify potential human trafficking victims,  work with law enforcement t...",
                    "latest_major_action_date": "2018-12-31",
                    "latest_major_action": "Became Public Law No: 115-398."
                },
                {
                    "congress": "115",
                    "bill_id": "hr5349-115",
                    "bill_type": "hr",
                    "number": "H.R.5349",
                    "bill_uri": "https://api.propublica.org/congress/v1/115/bills/hr5349.json",
                    "title": "To designate the facility of the United States Postal Service located at 1320 Autumn Avenue in Memphis, Tennessee, as the 'Judge Russell B. Sugarmon Post Office Building'.",
                    "short_title": "To designate the facility of the United States Postal Service located at 1325 Autumn Avenue in Memphis, Tennessee, as the \"Judge Russell B. Sugarmon Post Office Building\".",
                    "sponsor_title": "Rep.",
                    "sponsor_id": "C001068",
                    "sponsor_name": "Steve Cohen",
                    "sponsor_state": "TN",
                    "sponsor_party": "D",
                    "sponsor_uri": "https://api.propublica.org/congress/v1/members/C001068.json",
                    "gpo_pdf_uri": null,
                    "congressdotgov_url": "https://www.congress.gov/bill/115th-congress/house-bill/5349",
                    "govtrack_url": "https://www.govtrack.us/congress/bills/115/hr5349",
                    "introduced_date": "2018-03-20",
                    "active": true,
                    "last_vote": null,
                    "house_passage": "2018-09-13",
                    "senate_passage": "2018-11-15",
                    "enacted": "2018-12-06",
                    "vetoed": null,
                    "cosponsors": 8,
                    "cosponsors_by_party": {
                        "R": 7,
                        "D": 1
                    },
                    "committees": "Senate Homeland Security and Governmental Affairs Committee",
                    "primary_subject": "Government Operations and Politics",
                    "summary": "Designates the facility of the United States Postal Service located at 1320 Autumn Avenue in Memphis, Tennessee, as the \"Judge Russell B. Sugarmon Post Office Building.\"",
                    "summary_short": "Designates the facility of the United States Postal Service located at 1320 Autumn Avenue in Memphis, Tennessee, as the &quot;Judge Russell B. Sugarmon Post Office Building.&quot;",
                    "latest_major_action_date": "2018-12-06",
                    "latest_major_action": "Became Public Law No: 115-291."
                }
            ]
        }
    ]
}
