{
    "status": "OK",
    "copyright": "Copyright (c) 2021 Pro Publica Inc. All Rights Reserved.",
    "results": [
        {
            "id": "D000630",
            "member_uri": "https://api.propublica.org/congress/v1/members/D000630.json",
            "name": "Antonio Delgado",
            "num_results": 2,
            "offset": 0,
            "bills": [
                {
                    "congress": "116",
                    "bill_id": "hr2151-116",
                    "bill_type": "hr",
                    "number": "H.R.2151",
                    "bill_uri": "https://api.propublica.org/congress/v1/116/bills/hr2151.json",
                    "title": "To designate the facility of the United States Postal Service located at 7722 South Main Street in Pine Plains, New York, as the 'Senior Chief Petty Officer Shannon M. Kent Post Office'.",
                    "short_title": "To designate the facility of the United States Postal Service located at 7722 South Main Street in Pine Plains, New York, as the \"Senior Chief Petty Officer Shannon M. Kent Post Office\".",
                    "sponsor_title": "Rep.",
                    "sponsor_id": "D000630",
                    "sponsor_name": "Antonio Delgado",
                    "sponsor_state": "NY",
                    "sponsor_party": "D",
                    "sponsor_uri": "https://api.propublica.org/congress/v1/members/D000630.json",
                    "gpo_pdf_uri": null,
                    "congressdotgov_url": "https://www.congress.gov/bill/116th-congress/house-bill/2151",
                    "govtrack_url": "https://www.govtrack.us/congress/bills/116/hr2151",
                    "introduced_date": "2019-04-09",
                    "active": true,
                    "last_vote": null,
                    "house_passage": "2019-10-16",
                    "senate_passage": "2019-11-21",
                    "enacted": "2019-12-13",
                    "vetoed": null,
                    "cosponsors": 39,
                    "cosponsors_by_party": {
                        "R": 7,
                        "D": 32
                    },
                    "committees": "Senate Homeland Security and Governmental Affairs Committee",
                    "primary_subject": "Government Operations and Politics",
                    "summary": "Designates the facility of the United States Postal Service located at 7722 South Main Street in Pine Plains, New York, as the \"Senior Chief Petty Officer Shannon M. Kent Post Office.\"",
                    "summary_short": "Designates the facility of the United States Postal Service located at 7722 South Main Street in Pine Plains, New York, as the &quot;Senior Chief Petty Officer Shannon M. Kent Post Office.&quot;",
                    "latest_major_action_date": "2019-12-13",
                    "latest_major_action": "Became Public Law No: 116-85."
                },
                {
                    "congress": "116",
                    "bill_id": "hr2336-116",
                    "bill_type": "hr",
                    "number": "H.R.2336",
                    "bill_uri": "https://api.propublica.org/congress/v1/116/bills/hr2336.json",
                    "title": "To amend title 11, United States Code, with respect to the definition of 'family farmer'.",
                    "short_title": "Family Farmer Relief Act of 2019",
                    "sponsor_title": "Rep.",
                    "sponsor_id": "D000630",
                    "sponsor_name": "Antonio Delgado",
                    "sponsor_state": "NY",
                    "sponsor_party": "D",
                    "sponsor_uri": "https://api.propublica.org/congress/v1/members/D000630.json",
                    "gpo_pdf_uri": null,
                    "congressdotgov_url": "https://www.congress.gov/bill/116th-congress/house-bill/2336",
                    "govtrack_url": "https://www.govtrack.us/congress/bills/116/hr2336",
                    "introduced_date": "2019-04-18",
                    "active": true,
                    "last_vote": null,
                    "house_passage": "2019-07-25",
                    "senate_passage": "2019-08-01",
                    "enacted": "2019-08-23",
                    "vetoed": null,
                    "cosponsors": 27,
                    "cosponsors_by_party": {
                        "D": 18,
                        "R": 9
                    },
                    "committees": "House Judiciary Committee",
                    "primary_subject": "Finance and Financial Sector",
                    "summary": "Family Farmer Relief Act of 2019 This bill increases the aggregate debt limit for a family farmer who files for bankruptcy under chapter 12 (family farmer or fisherman reorganization).",
                    "summary_short": "Family Farmer Relief Act of 2019 This bill increases the aggregate debt limit for a family farmer who files for bankruptcy under chapter 12 (family farmer or fisherman reorganization).",
                    "latest_major_action_date": "2019-08-23",
                    "latest_major_action": "Became Public Law No: 116-51."
                }
            ]
        }
    ]
}
