{
    "status": "OK",
    "copyright": "Copyright (c) 2021 Pro Publica Inc. All Rights Reserved.",
    "results": [
        {
            "id": "F000455",
            "member_uri": "https://api.propublica.org/congress/v1/members/F000455.json",
            "name": "Marcia L. Fudge",
            "num_results": 0,
            "offset": 0,
            "bills": []
        }
    ]
}
