{
    "status": "OK",
    "copyright": "Copyright (c) 2021 Pro Publica Inc. All Rights Reserved.",
    "results": [
        {
            "id": "F000466",
            "member_uri": "https://api.propublica.org/congress/v1/members/F000466.json",
            "name": "Brian Fitzpatrick",
            "num_results": 1,
            "offset": 0,
            "bills": [
                {
                    "congress": "115",
                    "bill_id": "hr4203-115",
                    "bill_type": "hr",
                    "number": "H.R.4203",
                    "bill_uri": "https://api.propublica.org/congress/v1/115/bills/hr4203.json",
                    "title": "To amend title 18, United States Code, with regard to stalking.",
                    "short_title": "Combat Online Predators Act",
                    "sponsor_title": "Rep.",
                    "sponsor_id": "F000466",
                    "sponsor_name": "Brian Fitzpatrick",
                    "sponsor_state": "PA",
                    "sponsor_party": "R",
                    "sponsor_uri": "https://api.propublica.org/congress/v1/members/F000466.json",
                    "gpo_pdf_uri": null,
                    "congressdotgov_url": "https://www.congress.gov/bill/115th-congress/house-bill/4203",
                    "govtrack_url": "https://www.govtrack.us/congress/bills/115/hr4203",
                    "introduced_date": "2017-11-01",
                    "active": true,
                    "last_vote": "2018-04-10",
                    "house_passage": "2018-04-10",
                    "senate_passage": "2018-12-22",
                    "enacted": null,
                    "vetoed": null,
                    "cosponsors": 5,
                    "cosponsors_by_party": {
                        "D": 1,
                        "R": 4
                    },
                    "committees": "Senate Judiciary Committee",
                    "primary_subject": "Crime and Law Enforcement",
                    "summary": " Combat Online Predators Act This bill amends the federal criminal code increase the maximum prison term for a stalking offense, if the victim is under 18 years of age.",
                    "summary_short": " Combat Online Predators Act This bill amends the federal criminal code increase the maximum prison term for a stalking offense, if the victim is under 18 years of age.",
                    "latest_major_action_date": "2018-12-22",
                    "latest_major_action": "Message on Senate action sent to the House."
                }
            ]
        }
    ]
}
