{
    "status": "OK",
    "copyright": "Copyright (c) 2021 Pro Publica Inc. All Rights Reserved.",
    "results": [
        {
            "id": "G000577",
            "member_uri": "https://api.propublica.org/congress/v1/members/G000577.json",
            "name": "Garret Graves",
            "num_results": 4,
            "offset": 0,
            "bills": [
                {
                    "congress": "116",
                    "bill_id": "hr5126-116",
                    "bill_type": "hr",
                    "number": "H.R.5126",
                    "bill_uri": "https://api.propublica.org/congress/v1/116/bills/hr5126.json",
                    "title": "To require individuals fishing for Gulf reef fish to use certain descending devices, and for other purposes.",
                    "short_title": "DESCEND Act of 2020",
                    "sponsor_title": "Rep.",
                    "sponsor_id": "G000577",
                    "sponsor_name": "Garret Graves",
                    "sponsor_state": "LA",
                    "sponsor_party": "R",
                    "sponsor_uri": "https://api.propublica.org/congress/v1/members/G000577.json",
                    "gpo_pdf_uri": null,
                    "congressdotgov_url": "https://www.congress.gov/bill/116th-congress/house-bill/5126",
                    "govtrack_url": "https://www.govtrack.us/congress/bills/116/hr5126",
                    "introduced_date": "2019-11-15",
                    "active": true,
                    "last_vote": null,
                    "house_passage": "2020-10-01",
                    "senate_passage": "2020-12-21",
                    "enacted": null,
                    "vetoed": null,
                    "cosponsors": 6,
                    "cosponsors_by_party": {
                        "D": 3,
                        "R": 3
                    },
                    "committees": "Senate Commerce, Science, and Transportation Committee",
                    "primary_subject": "Science, Technology, Communications",
                    "summary": "Direct Enhancement of Snapper Conservation and the Economy through Novel Devices Act of 2020 or the DESCEND Act of 2020 This bill addresses the use of descending devices to release reef fish in the Gulf of Mexico. (A descending device is an instrument that will release fish at a depth sufficient for the fish to be able to recover from the effects of barotrauma.) Specifically, the bill requires  commercial and recreational fishermen to possess a venting tool or descending device that is rigged and ready for use when fishing for reef fish in the Gulf of Mexico Exclusive Economic Zone,  the Department of Commerce to contract with the National Academy of Sciences to conduct a study and produce a report on discard mortality in the Gulf reef fish fisheries, and Commerce and the Gulf of Mexico Fishery Management Council to develop guidance for reporting discards and associated mortality and develop a plan to assess the effectiveness and usage of barotrauma-reducing devices. ",
                    "summary_short": "Direct Enhancement of Snapper Conservation and the Economy through Novel Devices Act of 2020 or the DESCEND Act of 2020 This bill addresses the use of descending devices to release reef fish in the Gulf of Mexico. (A descending device is an instrument that will release fish at a depth sufficient for the fish to be able to recover from the effects of barotrauma.) Specifically, the bill requires  commercial and recreational fishermen to possess a venting tool or descending device that is rigged...",
                    "latest_major_action_date": "2020-12-21",
                    "latest_major_action": "Message on Senate action sent to the House."
                },
                {
                    "congress": "116",
                    "bill_id": "hr1079-116",
                    "bill_type": "hr",
                    "number": "H.R.1079",
                    "bill_uri": "https://api.propublica.org/congress/v1/116/bills/hr1079.json",
                    "title": "To require the Director of the Office of Management and Budget to issue guidance on electronic consent forms, and for other purposes.",
                    "short_title": "Creating Advanced Streamlined Electronic Services for Constituents Act of 2019",
                    "sponsor_title": "Rep.",
                    "sponsor_id": "G000577",
                    "sponsor_name": "Garret Graves",
                    "sponsor_state": "LA",
                    "sponsor_party": "R",
                    "sponsor_uri": "https://api.propublica.org/congress/v1/members/G000577.json",
                    "gpo_pdf_uri": null,
                    "congressdotgov_url": "https://www.congress.gov/bill/116th-congress/house-bill/1079",
                    "govtrack_url": "https://www.govtrack.us/congress/bills/116/hr1079",
                    "introduced_date": "2019-02-07",
                    "active": true,
                    "last_vote": "2019-02-11",
                    "house_passage": "2019-02-11",
                    "senate_passage": "2019-07-31",
                    "enacted": "2019-08-22",
                    "vetoed": null,
                    "cosponsors": 3,
                    "cosponsors_by_party": {
                        "D": 1,
                        "R": 2
                    },
                    "committees": "Senate Homeland Security and Governmental Affairs Committee",
                    "primary_subject": "Government Operations and Politics",
                    "summary": "Creating Advanced Streamlined Electronic Services for Constituents Act of 2019 or the CASES Act This bill directs the Office of Management and Budget (OMB) to require each federal agency to accept electronic identity proofing and authentication processes that allow an individual, under the Privacy Act, to access the individual's records or to provide prior written consent for the disclosure of the individual's records. The OMB must (1) create a template for electronic consent and access forms, and (2) require each agency to accept such forms from any individual properly identity proofed and authenticated.",
                    "summary_short": "Creating Advanced Streamlined Electronic Services for Constituents Act of 2019 or the CASES Act This bill directs the Office of Management and Budget (OMB) to require each federal agency to accept electronic identity proofing and authentication processes that allow an individual, under the Privacy Act, to access the individual&#39;s records or to provide prior written consent for the disclosure of the individual&#39;s records. The OMB must (1) create a template for electronic consent and access forms...",
                    "latest_major_action_date": "2019-08-22",
                    "latest_major_action": "Became Public Law No: 116-50."
                },
                {
                    "congress": "115",
                    "bill_id": "hr1679-115",
                    "bill_type": "hr",
                    "number": "H.R.1679",
                    "bill_uri": "https://api.propublica.org/congress/v1/115/bills/hr1679.json",
                    "title": "To ensure that the Federal Emergency Management Agency's current efforts to modernize its grant management system includes applicant accessibility and transparency, and for other purposes.",
                    "short_title": "FEMA Accountability, Modernization and Transparency Act of 2017",
                    "sponsor_title": "Rep.",
                    "sponsor_id": "G000577",
                    "sponsor_name": "Garret Graves",
                    "sponsor_state": "LA",
                    "sponsor_party": "R",
                    "sponsor_uri": "https://api.propublica.org/congress/v1/members/G000577.json",
                    "gpo_pdf_uri": null,
                    "congressdotgov_url": "https://www.congress.gov/bill/115th-congress/house-bill/1679",
                    "govtrack_url": "https://www.govtrack.us/congress/bills/115/hr1679",
                    "introduced_date": "2017-03-22",
                    "active": true,
                    "last_vote": "2017-05-02",
                    "house_passage": "2017-05-02",
                    "senate_passage": "2017-11-13",
                    "enacted": "2017-11-21",
                    "vetoed": null,
                    "cosponsors": 1,
                    "cosponsors_by_party": {
                        "D": 1
                    },
                    "committees": "Senate Homeland Security and Governmental Affairs Committee",
                    "primary_subject": "Emergency Management",
                    "summary": "(This measure has not been amended since it was introduced. The expanded summary of the House passed version is repeated here.) FEMA Accountability, Modernization and Transparency Act of 2017 (Sec. 2) This bill directs the Federal Emergency Management Agency (FEMA) to ensure that the ongoing modernization of the grant systems for the administration of assistance under the Robert T. Stafford Disaster Relief and Emergency Assistance Act includes:  an online interface for applicants to complete application forms, submit materials, and access the status of applications; mechanisms to eliminate duplication of benefits; and a means of sharing information among agencies and with state, local, and tribal governments to eliminate the need to file multiple applications and speed disaster recovery.  FEMA shall deliver the system capabilities in increments or iterations as working components for applicant use. ",
                    "summary_short": "(This measure has not been amended since it was introduced. The expanded summary of the House passed version is repeated here.) FEMA Accountability, Modernization and Transparency Act of 2017 (Sec. 2) This bill directs the Federal Emergency Management Agency (FEMA) to ensure that the ongoing modernization of the grant systems for the administration of assistance under the Robert T. Stafford Disaster Relief and Emergency Assistance Act includes:  an online interface for applicants to complete ...",
                    "latest_major_action_date": "2017-11-21",
                    "latest_major_action": "Became Public Law No: 115-87."
                },
                {
                    "congress": "114",
                    "bill_id": "hconres95-114",
                    "bill_type": "hconres",
                    "number": "H.CON.RES.95",
                    "bill_uri": "https://api.propublica.org/congress/v1/114/bills/hconres95.json",
                    "title": "Providing for a conditional adjournment of the House of Representatives and a conditional recess or adjournment of the Senate.",
                    "short_title": "Providing for a conditional adjournment of the House of Representatives and a conditional recess or adjournment of the Senate.",
                    "sponsor_title": "Rep.",
                    "sponsor_id": "G000577",
                    "sponsor_name": "Garret Graves",
                    "sponsor_state": "LA",
                    "sponsor_party": "R",
                    "sponsor_uri": "https://api.propublica.org/congress/v1/members/G000577.json",
                    "gpo_pdf_uri": null,
                    "congressdotgov_url": "https://www.congress.gov/bill/114th-congress/house-concurrent-resolution/95",
                    "govtrack_url": "https://www.govtrack.us/congress/bills/114/hconres95",
                    "introduced_date": "2015-11-19",
                    "active": true,
                    "last_vote": null,
                    "house_passage": "2015-11-19",
                    "senate_passage": "2015-11-19",
                    "enacted": null,
                    "vetoed": null,
                    "cosponsors": 0,
                    "cosponsors_by_party": {},
                    "committees": "",
                    "primary_subject": "Congress",
                    "summary": "(This measure has not been amended since it was introduced. The summary of that version is repeated here.) Declares that when the House adjourns on any legislative day from Thursday, November 19, 2015, through Wednesday, November 25, 2015, it stand adjourned until 2:00 p.m. on Monday, November 30, 2015. Declares that when the Senate recesses or adjourns on any day from Thursday, November 19, 2015, through Tuesday, November 24, 2015, it stand recessed or adjourned until noon on Monday, November 30, 2015.",
                    "summary_short": "(This measure has not been amended since it was introduced. The summary of that version is repeated here.) Declares that when the House adjourns on any legislative day from Thursday, November 19, 2015, through Wednesday, November 25, 2015, it stand adjourned until 2:00 p.m. on Monday, November 30, 2015. Declares that when the Senate recesses or adjourns on any day from Thursday, November 19, 2015, through Tuesday, November 24, 2015, it stand recessed or adjourned until noon on Monday, Novembe...",
                    "latest_major_action_date": "2015-11-20",
                    "latest_major_action": "Message on Senate action sent to the House."
                }
            ]
        }
    ]
}
