{
    "status": "OK",
    "copyright": "Copyright (c) 2021 Pro Publica Inc. All Rights Reserved.",
    "results": [
        {
            "id": "G000555",
            "member_uri": "https://api.propublica.org/congress/v1/members/G000555.json",
            "name": "Kirsten E. Gillibrand",
            "num_results": 1,
            "offset": 0,
            "bills": [
                {
                    "congress": "115",
                    "bill_id": "s2692-115",
                    "bill_type": "s",
                    "number": "S.2692",
                    "bill_uri": "https://api.propublica.org/congress/v1/115/bills/s2692.json",
                    "title": "A bill to designate the facility of the United States Postal Service located at 4558 Broadway in New York, New York, as the 'Stanley Michels Post Office Building'.",
                    "short_title": "A bill to designate the facility of the United States Postal Service located at 4558 Broadway in New York, New York, as the \"Stanley Michels Post Office Building\".",
                    "sponsor_title": "Sen.",
                    "sponsor_id": "G000555",
                    "sponsor_name": "Kirsten E. Gillibrand",
                    "sponsor_state": "NY",
                    "sponsor_party": "D",
                    "sponsor_uri": "https://api.propublica.org/congress/v1/members/G000555.json",
                    "gpo_pdf_uri": null,
                    "congressdotgov_url": "https://www.congress.gov/bill/115th-congress/senate-bill/2692",
                    "govtrack_url": "https://www.govtrack.us/congress/bills/115/s2692",
                    "introduced_date": "2018-04-18",
                    "active": true,
                    "last_vote": null,
                    "house_passage": "2018-07-16",
                    "senate_passage": "2018-06-28",
                    "enacted": "2018-07-30",
                    "vetoed": null,
                    "cosponsors": 1,
                    "cosponsors_by_party": {
                        "D": 1
                    },
                    "committees": "Senate Homeland Security and Governmental Affairs Committee",
                    "primary_subject": "Government Operations and Politics",
                    "summary": "(Sec. 1) Designates the facility of the United States Postal Service located at 4558 Broadway in New York, New York, as the \"Stanley Michels Post Office Building.\"",
                    "summary_short": "(Sec. 1) Designates the facility of the United States Postal Service located at 4558 Broadway in New York, New York, as the &quot;Stanley Michels Post Office Building.&quot;",
                    "latest_major_action_date": "2018-07-30",
                    "latest_major_action": "Became Public Law No: 115-223."
                }
            ]
        }
    ]
}
