{
    "status": "OK",
    "copyright": "Copyright (c) 2021 Pro Publica Inc. All Rights Reserved.",
    "results": [
        {
            "id": "H000874",
            "member_uri": "https://api.propublica.org/congress/v1/members/H000874.json",
            "name": "Steny H. Hoyer",
            "num_results": 2,
            "offset": 0,
            "bills": [
                {
                    "congress": "116",
                    "bill_id": "hr2468-116",
                    "bill_type": "hr",
                    "number": "H.R.2468",
                    "bill_uri": "https://api.propublica.org/congress/v1/116/bills/hr2468.json",
                    "title": "To amend the Public Health Service Act to increase the preference given, in awarding certain allergies and asthma-related grants, to States that require certain public schools to have allergies and asthma management programs, and for other purposes.",
                    "short_title": "School-Based Allergies and Asthma Management Program Act",
                    "sponsor_title": "Rep.",
                    "sponsor_id": "H000874",
                    "sponsor_name": "Steny H. Hoyer",
                    "sponsor_state": "MD",
                    "sponsor_party": "D",
                    "sponsor_uri": "https://api.propublica.org/congress/v1/members/H000874.json",
                    "gpo_pdf_uri": null,
                    "congressdotgov_url": "https://www.congress.gov/bill/116th-congress/house-bill/2468",
                    "govtrack_url": "https://www.govtrack.us/congress/bills/116/hr2468",
                    "introduced_date": "2019-05-02",
                    "active": true,
                    "last_vote": null,
                    "house_passage": "2020-09-29",
                    "senate_passage": "2020-12-17",
                    "enacted": null,
                    "vetoed": null,
                    "cosponsors": 47,
                    "cosponsors_by_party": {
                        "R": 6,
                        "D": 42
                    },
                    "committees": "Senate Health, Education, Labor, and Pensions Committee",
                    "primary_subject": "Health",
                    "summary": "",
                    "summary_short": "",
                    "latest_major_action_date": "2020-12-24",
                    "latest_major_action": "Presented to President."
                },
                {
                    "congress": "113",
                    "bill_id": "hr4120-113",
                    "bill_type": "hr",
                    "number": "H.R.4120",
                    "bill_uri": "https://api.propublica.org/congress/v1/113/bills/hr4120.json",
                    "title": "To amend the National Law Enforcement Museum Act to extend the termination date.",
                    "short_title": "To amend the National Law Enforcement Museum Act to extend the termination date.",
                    "sponsor_title": "Rep.",
                    "sponsor_id": "H000874",
                    "sponsor_name": "Steny H. Hoyer",
                    "sponsor_state": "MD",
                    "sponsor_party": "D",
                    "sponsor_uri": "https://api.propublica.org/congress/v1/members/H000874.json",
                    "gpo_pdf_uri": null,
                    "congressdotgov_url": "https://www.congress.gov/bill/113th-congress/house-bill/4120",
                    "govtrack_url": "https://www.govtrack.us/congress/bills/113/hr4120",
                    "introduced_date": "2014-02-28",
                    "active": true,
                    "last_vote": "2014-04-28",
                    "house_passage": "2014-04-28",
                    "senate_passage": "2014-05-05",
                    "enacted": "2014-05-07",
                    "vetoed": null,
                    "cosponsors": 4,
                    "cosponsors_by_party": {
                        "R": 2,
                        "D": 2
                    },
                    "committees": "House Natural Resources Committee",
                    "primary_subject": "Crime and Law Enforcement",
                    "summary": "(This measure has not been amended since it was introduced. The summary of that version is repeated here.) Amends the National Law Enforcement Museum Act to extend by three years the authority to construct the National Law Enforcement Museum.",
                    "summary_short": "(This measure has not been amended since it was introduced. The summary of that version is repeated here.) Amends the National Law Enforcement Museum Act to extend by three years the authority to construct the National Law Enforcement Museum.",
                    "latest_major_action_date": "2014-05-16",
                    "latest_major_action": "Became Public Law No: 113-102."
                }
            ]
        }
    ]
}
