{
    "status": "OK",
    "copyright": "Copyright (c) 2021 Pro Publica Inc. All Rights Reserved.",
    "results": [
        {
            "id": "H001058",
            "member_uri": "https://api.propublica.org/congress/v1/members/H001058.json",
            "name": "Bill Huizenga",
            "num_results": 1,
            "offset": 0,
            "bills": [
                {
                    "congress": "115",
                    "bill_id": "hjres41-115",
                    "bill_type": "hjres",
                    "number": "H.J.RES.41",
                    "bill_uri": "https://api.propublica.org/congress/v1/115/bills/hjres41.json",
                    "title": "Providing for congressional disapproval under chapter 8 of title 5, United States Code, of a rule submitted by the Securities and Exchange Commission relating to 'Disclosure of Payments by Resource Extraction Issuers'.",
                    "short_title": "Providing for congressional disapproval under chapter 8 of title 5, United States Code, of a rule submitted by the Securities and Exchange Commission relating to \"Disclosure of Payments by Resource Extraction Issuers\".",
                    "sponsor_title": "Rep.",
                    "sponsor_id": "H001058",
                    "sponsor_name": "Bill Huizenga",
                    "sponsor_state": "MI",
                    "sponsor_party": "R",
                    "sponsor_uri": "https://api.propublica.org/congress/v1/members/H001058.json",
                    "gpo_pdf_uri": null,
                    "congressdotgov_url": "https://www.congress.gov/bill/115th-congress/house-joint-resolution/41",
                    "govtrack_url": "https://www.govtrack.us/congress/bills/115/hjres41",
                    "introduced_date": "2017-01-30",
                    "active": true,
                    "last_vote": "2017-02-03",
                    "house_passage": "2017-02-01",
                    "senate_passage": "2017-02-03",
                    "enacted": "2017-02-14",
                    "vetoed": null,
                    "cosponsors": 33,
                    "cosponsors_by_party": {
                        "R": 33
                    },
                    "committees": "House Financial Services Committee",
                    "primary_subject": "Finance and Financial Sector",
                    "summary": "(This measure has not been amended since it was introduced. The summary of that version is repeated here.) This joint resolution nullifies the \"Disclosure of Payments by Resource Extraction Issuers\" rule finalized by the Securities and Exchange Commission on July 27, 2016. (The rule,\u00a0mandated under the Dodd-Frank Wall Street Reform and Consumer Protection Act, requires resource extraction issuers to disclose payments made to governments for the commercial development of oil, natural gas, or minerals.)",
                    "summary_short": "(This measure has not been amended since it was introduced. The summary of that version is repeated here.) This joint resolution nullifies the &quot;Disclosure of Payments by Resource Extraction Issuers&quot; rule finalized by the Securities and Exchange Commission on July 27, 2016. (The rule,\u00a0mandated under the Dodd-Frank Wall Street Reform and Consumer Protection Act, requires resource extraction issuers to disclose payments made to governments for the commercial development of oil, natural gas, or m...",
                    "latest_major_action_date": "2017-02-14",
                    "latest_major_action": "Became Public Law No: 115-4."
                }
            ]
        }
    ]
}
