{
    "status": "OK",
    "copyright": "Copyright (c) 2021 Pro Publica Inc. All Rights Reserved.",
    "results": [
        {
            "id": "I000024",
            "member_uri": "https://api.propublica.org/congress/v1/members/I000024.json",
            "name": "James M. Inhofe",
            "num_results": 3,
            "offset": 0,
            "bills": [
                {
                    "congress": "116",
                    "bill_id": "s1790-116",
                    "bill_type": "s",
                    "number": "S.1790",
                    "bill_uri": "https://api.propublica.org/congress/v1/116/bills/s1790.json",
                    "title": "An original bill to authorize appropriations for fiscal year 2020 for military activities of the Department of Defense, for military construction, and for defense activities of the Department of Energy, to prescribe military personnel strengths for such fiscal year, and for other purposes.",
                    "short_title": "National Defense Authorization Act for Fiscal Year 2020",
                    "sponsor_title": "Sen.",
                    "sponsor_id": "I000024",
                    "sponsor_name": "James M. Inhofe",
                    "sponsor_state": "OK",
                    "sponsor_party": "R",
                    "sponsor_uri": "https://api.propublica.org/congress/v1/members/I000024.json",
                    "gpo_pdf_uri": null,
                    "congressdotgov_url": "https://www.congress.gov/bill/116th-congress/senate-bill/1790",
                    "govtrack_url": "https://www.govtrack.us/congress/bills/116/s1790",
                    "introduced_date": "2019-06-11",
                    "active": true,
                    "last_vote": "2019-12-17",
                    "house_passage": "2019-12-11",
                    "senate_passage": "2019-06-27",
                    "enacted": "2019-12-20",
                    "vetoed": null,
                    "cosponsors": 0,
                    "cosponsors_by_party": {},
                    "committees": "Senate Armed Services Committee",
                    "primary_subject": "Armed Forces and National Security",
                    "summary": "National Defense Authorization Act for Fiscal Year 2020 This bill authorizes FY2020 appropriations and sets forth policies for Department of Defense (DOD) programs and activities, including military personnel strengths. It does not provide budget authority, which is provided in subsequent appropriations legislation. The bill authorizes appropriations to DOD for  Procurement, including aircraft, weapons and tracked combat vehicles, shipbuilding and conversion, missiles, and space procurement; Research, Development, Test, and Evaluation; Operation and Maintenance; Working Capital Funds; Chemical Agents and Munitions Destruction; Drug Interdiction and Counter-Drug Activities; the Defense Inspector General; the Defense Health Program; the Armed Forces Retirement Home; Overseas Contingency Operations; and Military Construction.  The bill authorizes the FY2020 personnel strengths for active duty and reserve forces and sets forth policies regarding   military personnel; acquisition policy and management; international programs; National Guard and Reserve Forces facilities; compensation and other personnel benefits; health care; DOD organization and management; civilian personnel matters;  matters relating to foreign nations; and strategic programs, cyber, and intelligence matters.  The bill authorizes appropriations for base realignment and closure activities, and maritime matters. The bill also authorizes appropriations and sets forth policies for Department of Energy national security programs, including the National Nuclear Security Administration and the Defense Nuclear Facilities Safety Board. The bill sets forth policies for  North Korea nuclear sanctions, paid family leave for federal personnel, limiting the use of criminal history in federal hiring and contracting, defense equipment sales to foreign countries or international organizations, matters relating to Burma, Saudi Arabia human rights and accountability, measures to combat illicit trafficking that finances Al-Shabaab, sanctions with respect to foreign traffickers of illicit synthetic opioids, and a Cable Security Fleet to meet national security requirements. ",
                    "summary_short": "National Defense Authorization Act for Fiscal Year 2020 This bill authorizes FY2020 appropriations and sets forth policies for Department of Defense (DOD) programs and activities, including military personnel strengths. It does not provide budget authority, which is provided in subsequent appropriations legislation. The bill authorizes appropriations to DOD for  Procurement, including aircraft, weapons and tracked combat vehicles, shipbuilding and conversion, missiles, and space procurement; ...",
                    "latest_major_action_date": "2019-12-20",
                    "latest_major_action": "Became Public Law No: 116-92."
                },
                {
                    "congress": "115",
                    "bill_id": "s1266-115",
                    "bill_type": "s",
                    "number": "S.1266",
                    "bill_uri": "https://api.propublica.org/congress/v1/115/bills/s1266.json",
                    "title": "A bill to authorize the Secretary of Veterans Affairs to enter into contracts with nonprofit organizations to investigate medical centers of the Department of Veterans Affairs.",
                    "short_title": "Enhancing Veteran Care Act",
                    "sponsor_title": "Sen.",
                    "sponsor_id": "I000024",
                    "sponsor_name": "James M. Inhofe",
                    "sponsor_state": "OK",
                    "sponsor_party": "R",
                    "sponsor_uri": "https://api.propublica.org/congress/v1/members/I000024.json",
                    "gpo_pdf_uri": null,
                    "congressdotgov_url": "https://www.congress.gov/bill/115th-congress/senate-bill/1266",
                    "govtrack_url": "https://www.govtrack.us/congress/bills/115/s1266",
                    "introduced_date": "2017-05-25",
                    "active": true,
                    "last_vote": "2017-12-06",
                    "house_passage": "2017-12-06",
                    "senate_passage": "2017-11-09",
                    "enacted": "2017-12-20",
                    "vetoed": null,
                    "cosponsors": 3,
                    "cosponsors_by_party": {
                        "R": 1,
                        "D": 2
                    },
                    "committees": "House Veterans&#39; Affairs Committee",
                    "primary_subject": "Armed Forces and National Security",
                    "summary": "Enhancing Veteran Care Act  (Sec. 2) This bill authorizes the Department of Veterans Affairs (VA) to contract with a nonprofit organization that accredits health care organizations and programs in the United States to investigate a VA medical center to assess and report deficiencies of the center's facilities. The VA shall delegate such authority to the Veterans Integrated Service Network (VISN) in which the medical center is located or to the director of such medical center.   Before entering into a contract, a VISN director or a medical center director shall notify the VA, the VA Inspector General, and the Government Accountability Office in order to coordinate an investigation conducted pursuant to such contract with any other ongoing investigations.  ",
                    "summary_short": "Enhancing Veteran Care Act  (Sec. 2) This bill authorizes the Department of Veterans Affairs (VA) to contract with a nonprofit organization that accredits health care organizations and programs in the United States to investigate a VA medical center to assess and report deficiencies of the center&#39;s facilities. The VA shall delegate such authority to the Veterans Integrated Service Network (VISN) in which the medical center is located or to the director of such medical center.   Before enterin...",
                    "latest_major_action_date": "2017-12-20",
                    "latest_major_action": "Became Public Law No: 115-95."
                },
                {
                    "congress": "114",
                    "bill_id": "s261-114",
                    "bill_type": "s",
                    "number": "S.261",
                    "bill_uri": "https://api.propublica.org/congress/v1/114/bills/s261.json",
                    "title": "A bill to designate the United States courthouse located at 200 NW 4th Street in Oklahoma City, Oklahoma, as the William J. Holloway, Jr. United States Courthouse.",
                    "short_title": "A bill to designate the United States courthouse located at 200 NW 4th Street in Oklahoma City, Oklahoma, as the William J. Holloway, Jr. United States Courthouse.",
                    "sponsor_title": "Sen.",
                    "sponsor_id": "I000024",
                    "sponsor_name": "James M. Inhofe",
                    "sponsor_state": "OK",
                    "sponsor_party": "R",
                    "sponsor_uri": "https://api.propublica.org/congress/v1/members/I000024.json",
                    "gpo_pdf_uri": null,
                    "congressdotgov_url": "https://www.congress.gov/bill/114th-congress/senate-bill/261",
                    "govtrack_url": "https://www.govtrack.us/congress/bills/114/s261",
                    "introduced_date": "2015-01-27",
                    "active": true,
                    "last_vote": null,
                    "house_passage": "2015-09-24",
                    "senate_passage": "2015-05-21",
                    "enacted": "2015-09-29",
                    "vetoed": null,
                    "cosponsors": 0,
                    "cosponsors_by_party": {},
                    "committees": "House Transportation and Infrastructure Committee",
                    "primary_subject": "Government Operations and Politics",
                    "summary": "(This measure has not been amended since it was introduced. The summary of that version is repeated here.) Designates the U.S. courthouse located at 200 NW 4th Street in Oklahoma City, Oklahoma, as the \"William J. Holloway, Jr. United States Courthouse.\"",
                    "summary_short": "(This measure has not been amended since it was introduced. The summary of that version is repeated here.) Designates the U.S. courthouse located at 200 NW 4th Street in Oklahoma City, Oklahoma, as the &quot;William J. Holloway, Jr. United States Courthouse.&quot;",
                    "latest_major_action_date": "2015-10-07",
                    "latest_major_action": "Became Public Law No: 114-64."
                }
            ]
        }
    ]
}
