{
    "status": "OK",
    "copyright": "Copyright (c) 2021 Pro Publica Inc. All Rights Reserved.",
    "results": [
        {
            "id": "J000300",
            "member_uri": "https://api.propublica.org/congress/v1/members/J000300.json",
            "name": "Doug Jones",
            "num_results": 1,
            "offset": 0,
            "bills": [
                {
                    "congress": "115",
                    "bill_id": "s3191-115",
                    "bill_type": "s",
                    "number": "S.3191",
                    "bill_uri": "https://api.propublica.org/congress/v1/115/bills/s3191.json",
                    "title": "A bill to provide for the expeditious disclosure of records related to civil rights cold cases, and for other purposes.",
                    "short_title": "Civil Rights Cold Case Records Collection Act of 2018",
                    "sponsor_title": "Sen.",
                    "sponsor_id": "J000300",
                    "sponsor_name": "Doug Jones",
                    "sponsor_state": "AL",
                    "sponsor_party": "D",
                    "sponsor_uri": "https://api.propublica.org/congress/v1/members/J000300.json",
                    "gpo_pdf_uri": null,
                    "congressdotgov_url": "https://www.congress.gov/bill/115th-congress/senate-bill/3191",
                    "govtrack_url": "https://www.govtrack.us/congress/bills/115/s3191",
                    "introduced_date": "2018-07-10",
                    "active": true,
                    "last_vote": "2018-12-21",
                    "house_passage": "2018-12-21",
                    "senate_passage": "2018-12-17",
                    "enacted": null,
                    "vetoed": null,
                    "cosponsors": 3,
                    "cosponsors_by_party": {
                        "D": 2,
                        "R": 1
                    },
                    "committees": "Senate Homeland Security and Governmental Affairs Committee",
                    "primary_subject": "Civil Rights and Liberties, Minority Issues",
                    "summary": "Civil Rights Cold Case Records Collection Act of 2018 This bill requires the National Archives and Records Administration (NARA) to: (1) commence establishing a collection of civil rights cold case records, (2) commence preparing and publishing the subject guidebook and index to the collection, and (3) establish criteria for transmitting copies of civil rights cold case records to NARA, to include required metadata. All civil rights cold case records transmitted to NARA for disclosure to the public shall be included in the collection, available to the public for inspection and copying by 60 days after the record's transmission to NARA, and prioritized for digitization by NARA. The Civil Rights Cold Case Records Review Board is established as an independent agency of impartial private citizens. The records of the review board shall not be destroyed, with an exception.",
                    "summary_short": "Civil Rights Cold Case Records Collection Act of 2018 This bill requires the National Archives and Records Administration (NARA) to: (1) commence establishing a collection of civil rights cold case records, (2) commence preparing and publishing the subject guidebook and index to the collection, and (3) establish criteria for transmitting copies of civil rights cold case records to NARA, to include required metadata. All civil rights cold case records transmitted to NARA for disclosure to the ...",
                    "latest_major_action_date": "2019-01-08",
                    "latest_major_action": "Became Public Law No: 115-426."
                }
            ]
        }
    ]
}
