{
    "status": "OK",
    "copyright": "Copyright (c) 2021 Pro Publica Inc. All Rights Reserved.",
    "results": [
        {
            "id": "K000386",
            "member_uri": "https://api.propublica.org/congress/v1/members/K000386.json",
            "name": "John Katko",
            "num_results": 6,
            "offset": 0,
            "bills": [
                {
                    "congress": "116",
                    "bill_id": "hr5451-116",
                    "bill_type": "hr",
                    "number": "H.R.5451",
                    "bill_uri": "https://api.propublica.org/congress/v1/116/bills/hr5451.json",
                    "title": "To designate the facility of the United States Postal Service located at 599 East Genesse Street in Fayetteville, New York, as the 'George H. Bacel Post Office Building'.",
                    "short_title": "To designate the facility of the United States Postal Service located at 599 East Genesse Street in Fayetteville, New York, as the \"George H. Bacel Post Office Building\".",
                    "sponsor_title": "Rep.",
                    "sponsor_id": "K000386",
                    "sponsor_name": "John Katko",
                    "sponsor_state": "NY",
                    "sponsor_party": "R",
                    "sponsor_uri": "https://api.propublica.org/congress/v1/members/K000386.json",
                    "gpo_pdf_uri": null,
                    "congressdotgov_url": "https://www.congress.gov/bill/116th-congress/house-bill/5451",
                    "govtrack_url": "https://www.govtrack.us/congress/bills/116/hr5451",
                    "introduced_date": "2019-12-17",
                    "active": true,
                    "last_vote": null,
                    "house_passage": "2020-12-10",
                    "senate_passage": "2020-12-17",
                    "enacted": null,
                    "vetoed": null,
                    "cosponsors": 26,
                    "cosponsors_by_party": {
                        "D": 21,
                        "R": 5
                    },
                    "committees": "Senate Homeland Security and Governmental Affairs Committee",
                    "primary_subject": "Government Operations and Politics",
                    "summary": "Designates the facility of the United States Postal Service located at 599 East Genesse Street in Fayetteville, New York, as the \"George H. Bacel Post Office Building.\"",
                    "summary_short": "Designates the facility of the United States Postal Service located at 599 East Genesse Street in Fayetteville, New York, as the &quot;George H. Bacel Post Office Building.&quot;",
                    "latest_major_action_date": "2020-12-24",
                    "latest_major_action": "Presented to President."
                },
                {
                    "congress": "115",
                    "bill_id": "hr46-115",
                    "bill_type": "hr",
                    "number": "H.R.46",
                    "bill_uri": "https://api.propublica.org/congress/v1/115/bills/hr46.json",
                    "title": "To authorize the Secretary of the Interior to conduct a special resource study of Fort Ontario in the State of New York.",
                    "short_title": "Fort Ontario Study Act",
                    "sponsor_title": "Rep.",
                    "sponsor_id": "K000386",
                    "sponsor_name": "John Katko",
                    "sponsor_state": "NY",
                    "sponsor_party": "R",
                    "sponsor_uri": "https://api.propublica.org/congress/v1/members/K000386.json",
                    "gpo_pdf_uri": null,
                    "congressdotgov_url": "https://www.congress.gov/bill/115th-congress/house-bill/46",
                    "govtrack_url": "https://www.govtrack.us/congress/bills/115/hr46",
                    "introduced_date": "2017-01-03",
                    "active": true,
                    "last_vote": null,
                    "house_passage": "2017-01-30",
                    "senate_passage": "2018-09-18",
                    "enacted": "2018-10-09",
                    "vetoed": null,
                    "cosponsors": 2,
                    "cosponsors_by_party": {
                        "D": 1,
                        "R": 1
                    },
                    "committees": "Senate Energy and Natural Resources Committee",
                    "primary_subject": "Public Lands and Natural Resources",
                    "summary": "Fort Ontario Study Act (Sec. 3) This bill directs the Department of the Interior to conduct a special resource study of Fort Ontario in Oswego, New York.  Interior shall: (1) evaluate the Fort's national significance, and (2) determine the suitability and feasibility of designating it as a unit of the National Park System.",
                    "summary_short": "Fort Ontario Study Act (Sec. 3) This bill directs the Department of the Interior to conduct a special resource study of Fort Ontario in Oswego, New York.  Interior shall: (1) evaluate the Fort&#39;s national significance, and (2) determine the suitability and feasibility of designating it as a unit of the National Park System.",
                    "latest_major_action_date": "2018-10-09",
                    "latest_major_action": "Became Public Law No: 115-255."
                },
                {
                    "congress": "115",
                    "bill_id": "hr5729-115",
                    "bill_type": "hr",
                    "number": "H.R.5729",
                    "bill_uri": "https://api.propublica.org/congress/v1/115/bills/hr5729.json",
                    "title": "To restrict the department in which the Coast Guard is operating from implementing any rule requiring the use of biometric readers for biometric transportation security cards until after submission to Congress of the results of an assessment of the effectiveness of the transportation security card program.",
                    "short_title": "Transportation Worker Identification Credential Accountability Act of 2018",
                    "sponsor_title": "Rep.",
                    "sponsor_id": "K000386",
                    "sponsor_name": "John Katko",
                    "sponsor_state": "NY",
                    "sponsor_party": "R",
                    "sponsor_uri": "https://api.propublica.org/congress/v1/members/K000386.json",
                    "gpo_pdf_uri": null,
                    "congressdotgov_url": "https://www.congress.gov/bill/115th-congress/house-bill/5729",
                    "govtrack_url": "https://www.govtrack.us/congress/bills/115/hr5729",
                    "introduced_date": "2018-05-09",
                    "active": true,
                    "last_vote": null,
                    "house_passage": "2018-07-10",
                    "senate_passage": "2018-07-26",
                    "enacted": "2018-08-02",
                    "vetoed": null,
                    "cosponsors": 3,
                    "cosponsors_by_party": {
                        "R": 1,
                        "D": 2
                    },
                    "committees": "House Homeland Security Committee",
                    "primary_subject": "Transportation and Public Works",
                    "summary": "Transportation Worker Identification Credential Accountability Act of 2018 (Sec.2)This bill prohibits the U.S. Coast Guard from: (1) implementing the rule titled \"Transportation Worker Identification Credential (TWIC)-Reader Requirements,\" and (2) proposing or issuing a notice of proposed rulemaking for a rule that would require the use of biometric readers for biometric transportation security cards. These prohibitions end 60 days after the Department of Homeland Security (DHS) submits to Congress an assessment of the transportation security card program. (Sec.3) DHS must report to Congress on implementation of the transportation security card program within 30 days of the bill's enactment and every 90 days after that until it completes the assessment.",
                    "summary_short": "Transportation Worker Identification Credential Accountability Act of 2018 (Sec.2)This bill prohibits the U.S. Coast Guard from: (1) implementing the rule titled &quot;Transportation Worker Identification Credential (TWIC)-Reader Requirements,&quot; and (2) proposing or issuing a notice of proposed rulemaking for a rule that would require the use of biometric readers for biometric transportation security cards. These prohibitions end 60 days after the Department of Homeland Security (DHS) submits to Co...",
                    "latest_major_action_date": "2018-08-02",
                    "latest_major_action": "Became Public Law No: 115-230."
                },
                {
                    "congress": "115",
                    "bill_id": "hr3731-115",
                    "bill_type": "hr",
                    "number": "H.R.3731",
                    "bill_uri": "https://api.propublica.org/congress/v1/115/bills/hr3731.json",
                    "title": "To provide overtime pay for employees of the United States Secret Service, and for other purposes.",
                    "short_title": "Secret Service Recruitment and Retention Act of 2018",
                    "sponsor_title": "Rep.",
                    "sponsor_id": "K000386",
                    "sponsor_name": "John Katko",
                    "sponsor_state": "NY",
                    "sponsor_party": "R",
                    "sponsor_uri": "https://api.propublica.org/congress/v1/members/K000386.json",
                    "gpo_pdf_uri": null,
                    "congressdotgov_url": "https://www.congress.gov/bill/115th-congress/house-bill/3731",
                    "govtrack_url": "https://www.govtrack.us/congress/bills/115/hr3731",
                    "introduced_date": "2017-09-11",
                    "active": true,
                    "last_vote": "2017-12-05",
                    "house_passage": "2018-03-21",
                    "senate_passage": "2018-03-19",
                    "enacted": "2018-04-03",
                    "vetoed": null,
                    "cosponsors": 15,
                    "cosponsors_by_party": {
                        "D": 5,
                        "R": 10
                    },
                    "committees": "Senate Judiciary Committee",
                    "primary_subject": "Government Operations and Politics",
                    "summary": "Secret Service Recruitment and Retention Act of 2018 (Sec. 2) This bill amends the Overtime Pay for Protective Services Act of 2016 to extend through 2018, subject to specified limitations, the exemption of U.S. Secret Service officers, employees, and agents who perform protective services from the limitation on premium pay otherwise applicable to federal employees. The bill specifies that the exemption also applies to the U.S. Secret Service Uniformed Division. The bill provides that such amendments shall take effect as if they had been enacted on December 31, 2016. The Secret Service must report to Congress by January 30, 2018, and January 30, 2019, on premium pay above the limitation paid to Secret Service personnel in the previous year.  (Sec. 3) The Government Accountability Office shall study and report to specified congressional committees on the extent of the progress made by the Secret Service in implementing the recommendations of the U.S. Secret Service Protective Mission Panel, including those items which pertain to training and personnel enumerated in the Executive Summary to Report from the panel to the Secretary of Homeland Security, dated December 15, 2014. ",
                    "summary_short": "Secret Service Recruitment and Retention Act of 2018 (Sec. 2) This bill amends the Overtime Pay for Protective Services Act of 2016 to extend through 2018, subject to specified limitations, the exemption of U.S. Secret Service officers, employees, and agents who perform protective services from the limitation on premium pay otherwise applicable to federal employees. The bill specifies that the exemption also applies to the U.S. Secret Service Uniformed Division. The bill provides that such am...",
                    "latest_major_action_date": "2018-04-03",
                    "latest_major_action": "Became Public Law No: 115-160."
                },
                {
                    "congress": "114",
                    "bill_id": "hr719-114",
                    "bill_type": "hr",
                    "number": "H.R.719",
                    "bill_uri": "https://api.propublica.org/congress/v1/114/bills/hr719.json",
                    "title": "To require the Transportation Security Administration to conform to existing Federal law and regulations regarding criminal investigator positions, and for other purposes.",
                    "short_title": "Continuing Appropriations Act, 2016",
                    "sponsor_title": "Rep.",
                    "sponsor_id": "K000386",
                    "sponsor_name": "John Katko",
                    "sponsor_state": "NY",
                    "sponsor_party": "R",
                    "sponsor_uri": "https://api.propublica.org/congress/v1/members/K000386.json",
                    "gpo_pdf_uri": null,
                    "congressdotgov_url": "https://www.congress.gov/bill/114th-congress/house-bill/719",
                    "govtrack_url": "https://www.govtrack.us/congress/bills/114/hr719",
                    "introduced_date": "2015-02-04",
                    "active": true,
                    "last_vote": "2015-09-30",
                    "house_passage": "2015-02-10",
                    "senate_passage": "2015-09-17",
                    "enacted": "2015-09-30",
                    "vetoed": null,
                    "cosponsors": 4,
                    "cosponsors_by_party": {
                        "D": 2,
                        "R": 2
                    },
                    "committees": "Senate Commerce, Science, and Transportation Committee",
                    "primary_subject": "Economics and Public Finance",
                    "summary": "(This measure has not been amended since the Senate agreed to the House amendment with an amendment on September 30, 2015. The summary of that version is repeated here.) Highlights: This bill provides continuing FY2016 appropriations to federal agencies until December 11, 2015, or the enactment of specified appropriations legislation. It is known as a continuing resolution (CR) and prevents a government shutdown that would otherwise occur when FY2016 begins on October 1, 2015, because none of the twelve FY2016 regular appropriations bills that fund the federal government have been enacted.  The bill funds most projects and activities at the FY2015 levels, with the inclusion of an across-the-board reduction of less than 1% to most programs. The bill also includes a number of exceptions which provide funding flexibility and additional appropriations to various programs.  The bill extends several programs and laws that are scheduled to expire at the end of FY2015, including the E-Verify program and the moratorium imposed by the Internet Tax Freedom Act. (Unless otherwise indicated, all extensions referenced in this summary are for the duration of the CR.)  The bill also provides $700 million in emergency appropriations for Forest Service wildland fire suppression activities. Emergency funds are exempt from limits on discretionary spending.  The bill requires the Transportation Security Administration to take a number of actions to ensure that Office of Inspection employees that are classified and paid as criminal investigators meet all of the legal and regulatory requirements for criminal investigator positions.  Full Summary:  TSA Office of Inspection Accountability Act of 2015 or the Continuing Appropriations Act, 2016  (Sec. 4) Requires the Department of Homeland Security Office of Inspector General (OIG) to: (1) analyze the data and methods used by the Transportation Security Administration (TSA) to classify Office of Inspection (OOI) employees as criminal investigators; and (2) report relevant findings, including whether the data and methods are adequate and valid.  Prohibits the TSA from hiring new OOI employees if the OIG finds that the data and methods are inadequate or invalid until: (1) the TSA certifies to Congress that only OOI employees who meet the minimum legal requirements are classified as criminal investigators and are receiving premium pay and other benefits associated with the classification, and (2) the OIG finds that the TSA's certification utilized adequate and valid data and methods.  (Sec. 5) Requires the TSA to: (1) certify to Congress that only OOI employees who meet the minimum legal requirements are classified as criminal investigators and are receiving premium pay and other benefits associated with the classification, (2) reclassify OOI criminal investigator employees who do not, or are not expected to, spend an average of at least 50% of their time performing criminal investigative duties, and (3) report to Congress on the long-term cost savings from reclassified positions.  (Sec. 6) Requires the TSA to report to Congress on the OOI's review of instances in which Federal Air Marshal Service officials obtained discounted or free firearms for personal use.  (Sec. 7) Requires the OIG to submit to Congress a report: (1) reviewing the employee requirements, responsibilities, and benefits of criminal investigators in the OOI with criminal investigators employed at agencies adhering to the Office of Personnel Management employee classification system; and (2) identifying any inconsistencies and costs implications for differences between the varying employee requirements, responsibilities, and benefits.  (Sec. 8) Requires the OIG to submit to Congress a study reviewing: (1) the Federal Air Marshal Service's existing personnel policies and procedures for identifying misuse of government resources; and (2) the administration of the Federal Air Marshal Service's existing code of conduct or integrity policies with respect to instances of misconduct.  Provides continuing FY2016 appropriations to federal agencies until December 11, 2015, or enactment of specified appropriations legislation.  (Sec. 101) Provides FY2016 appropriations to federal agencies for continuing projects or activities at the levels of, and under the terms and conditions of FY2015 appropriations Acts, reduced by 0.21% of both defense and non-defense discretionary programs.  (Sec. 102) Prohibits funds provided by section 101 for the Department of Defense (DOD) from being used for: (1) new production of items not funded in FY2015 or prior years; (2) an increase in production rates above those sustained with FY2015 funds; or (3) the initiation, resumption, or continuation of any project, activity, operation, or organization for which funds or authority were not available during FY2015.  Prohibits funds provided by section 101 to DOD from being used to initiate certain multi-year procurements.  (Sec. 103) Specifies that funds provided by section 101 shall be available to the extent and in the manner that would be provided in the pertinent appropriations Act.  (Sec. 104) Prohibits any appropriations or funds made available by section 101 from being used to initiate or resume any project or activity which was not funded in FY2015.  (Sec. 105) Continues all authorities, requirements, and limitations from FY2015 appropriations Acts through the date in section 106 and permits valid obligations and expenditures during the period of this continuing resolution (CR).  (Sec. 106) Continues the appropriations provided by this bill through the earlier of December 11, 2015, or the enactment of the pertinent appropriations Act.  (Sec. 107) Requires expenditures for activities funded in this bill to be charged to the relevant account when the applicable appropriations bill becomes law.  (Sec. 108) Waives the normal time limitations for submission and approval of apportionments of accounts funded in annual appropriations Acts.  (Sec. 109) Limits disbursements for programs that otherwise would have high initial rates of operation or would complete distribution of funding at the beginning of the fiscal year if those actions would impinge on final congressional funding prerogatives.  (Sec. 110) Directs that this bill be implemented so that only the most limited funding action permitted by this bill is taken in order to provide for continuation of projects and activities.  (Sec. 111) Provides that entitlements and other mandatory payments with budget authority provided in FY2015 appropriations Acts and activities under the Food and Nutrition Act of 2008 shall continue at the rate to maintain program levels under current law and under the authority and conditions provided in the applicable FY2015 appropriations Act for up to 30 days after the expiration of the CR.  (Sec. 112) Provides that funding made available by this bill for civilian personnel compensation and benefits in each department and agency may be apportioned up to the rate of operations necessary to avoid furloughs. Requires all necessary actions to reduce or defer non-personnel-related administrative expenses to be taken prior to using this authority.  (Sec. 113) Permits funds appropriated by this bill to be obligated and expended notwithstanding specified statutory provisions restricting appropriations for foreign assistance, the Department of State, international broadcasting, and intelligence activities in the absence of prior authorizations.  (Sec. 114) Extends designations for Overseas Contingency Operations/ Global War on Terrorism and disaster relief to funds provided by this bill that previously carried those designations.  Exempts funds designated or otherwise provided as Overseas Contingency Operations/Global War on Terrorism, the Social Security Administration's continuing disability reviews and redeterminations, health care fraud and abuse control, disaster relief, and emergency requirements from the across-the-board reduction included in section 101.  Provides that amounts designated for Overseas Contingency Operations/ Global War on Terrorism shall only be available if the President subsequently designates the amounts and transmits the designations to Congress.  (Sec. 115) Applies the across-the-board reduction in section 101 to advance appropriations made in prior years that first become available in FY2016.  (Sec. 116) Provides a higher rate of funding for the Department of Agriculture's (USDA's) Commodity Assistance Program, including the Commodity Supplemental Food Program, which is a domestic food assistance program that predominantly serves low-income elderly individuals.  (Sec. 117) Provides USDA with funding flexibility to pay ongoing debt service for multi-family direct loan program rental assistance contracts under sections 514 and 515 of the Housing Act of 1949. Permits the renewal during the duration of the CR of rental assistance contracts entered into or renewed in 2015 that exhausted funds within the 12-month contract period.  (Sec. 118) Provides the National Oceanic and Atmospheric Administration with funding flexibility to maintain launch schedules for the Joint Polar Satellite System. (Polar-orbiting satellites circle the earth in a north-south orbit and provide the primary inputs for weather prediction models.)  (Sec. 119) Permits the transfer of certain unobligated balances from the Assets Forfeiture Fund to the U.S. Marshals Service's Federal Prisoner Detention account to fund federal prisoner detention operations for the duration of the CR.  (Sec. 120) Extends the availability of previously appropriated funds to support closeout activities of the Space Shuttle Program.  (Sec. 121) Permits uncompleted Broadband Technology Opportunities Program projects to continue to expend obligated funds through FY2020.  (Sec. 122) Extends the authority for the Office of Security Cooperation in Iraq and the authority to pay cash rewards to persons assisting U.S. forces in counterterrorism operations.  (Sec. 123) Permits funds provided by this bill to the Department of Energy for the Uranium Enrichment Decontamination and Decommissioning Fund to be apportioned up to the rate for operations necessary to avoid disruption of continuing projects and activities. (This account primarily funds the decommissioning and environmental remediation of three federal uranium enrichment facilities in Kentucky, Ohio, and Tennessee.)  (Sec. 124) Permits the District of Columbia to spend funds collected through local taxes and other non-federal sources at the rate set forth in the DC FY2016 Budget Request Act of 2015.  (Sec. 125) States that no funds are provided by this bill for the Recovery Accountability and Transparency Board, which was established to provide oversight and transparency in the expenditure of funds provided by the American Recovery and Reinvestment Act of 2009.  (Sec. 126) Provides the Small Business Administration with funding flexibility to accommodate increased demand for general business loans authorized under section 7(a) of the Small Business Act.  (Sec. 127) Extends the Internet Tax Freedom Act, which includes a moratorium preventing state and local governments from taxing Internet access or imposing multiple or discriminatory taxes on electronic commerce.  (Sec. 128) Permits the Office of Management and Budget to make specified adjustments to discretionary spending limits to account for estimating differences with the Congressional Budget Office.  (Sec. 129) Extends the authority of the Department of Homeland Security to use certain procurement agreements for research and development projects with non-traditional government contractors.  (Sec. 130) Extends the E-Verify employment authorization program.  (Sec. 131) Extends the EB-5 Immigrant Investor Visa Program.  (Sec. 132) Extends the special immigrant status granted to religious workers other than ministers.  (Sec. 133) Extends the authority for the visa waiver program for rural doctors.  (Sec. 134) Amends the Federal Lands Recreation Enhancement Act to extend through September 30, 2017, the authority of federal agencies to establish, collect, and retain fees on federal recreational lands and waters.  (Sec. 135) Appropriates $700 million in emergency funding, to remain available until expended, for urgent Forest Service wildland fire suppression activities if: (1) funds previously provided for fire suppression will be exhausted imminently, and (2) the appropriations committees are notified.  Permits the funds to be transferred to other appropriations accounts to repay amounts previously transferred for wildfire suppression. Designates the funds as an emergency requirement, which will only become available if the President also designates the amounts. (Emergency funds are exempt from discretionary spending limits and other budget enforcement rules.)  (Sec. 136) Extends the authority of the Department of the Interior to establish higher rates of pay for certain employees in the petroleum engineering and geoscience fields working on both offshore and onshore oil and gas development.  (Sec. 137) Extends the authority for the Eisenhower Memorial Commission and continues the construction limitation for the Memorial imposed in 2015 and prior years.  (Sec. 138) Amends the Carl Levin and Howard P. ''Buck'' McKeon National Defense Authorization Act for Fiscal Year 2015 to provide that certain funding for the Department of the Interior's Payments In Lieu of Taxes (PILT) program is available for FY2015. (PILT compensates local governments for the presence of federally owned land.)  (Sec. 139) Permits funds made available in prior appropriations bills for construction and renovation of facilities for the Centers for Disease Control and Prevention to be used for construction of a replacement freezer building on leased land.  (Sec. 140) Extends through the 2016-2017 school year the authority of the Department of Education to include teachers pursuing alternative routes to certification in the definition of a highly qualified teacher under the No Child Left Behind Act of 2001.  (Sec. 141) Incorporates and continues a rescission of Children's Health Insurance Program funds.  (Sec. 142) Extends the authority for the Department of Education's National Advisory Committee on Institutional Quality and Integrity. (The committee is responsible for assessing the process of accreditation in higher education and the institutional eligibility and certification of institutions of higher education to participate in federal student aid programs authorized under Title IV of the Higher Education Act.)  (Sec. 143) Appropriates a $174,000 death gratuity to the widow of Representative Alan Nunnelee. (A gratuity equal to one year's salary has long been given to the heirs of Members of Congress who die in office.)  (Sec. 144) Permits specified unobligated Department of Veterans Affairs (VA) funds to be transferred to the Construction--Major Projects account to cover costs for completion of the Denver Replacement Medical Center, subject to the approval of Congress.  (Sec. 145) Provides additional funding for Veterans Benefits Administration general operating expenses to continue progress on the disability claims backlog.  (Sec. 146) Continues a rescission of VA Medical Services, Medical Support and Compliance, and Medical Facilities funds that routinely accompanies a reappropriation of the funds to extend the availability of the funds from one to two years.  (Sec. 147) Extends the authority for the U.S. Commission on International Religious Freedom.  (Sec. 148) Provides funding flexibility for specified international activities to sustain assistance for Ukraine to counter external, regional aggression and influence, including for the costs of authorized loan guarantees.  (Sec. 149) Extends the authority for the U.S. Advisory Commission on Public Diplomacy.  (Sec. 150) Provides the Department of Housing and Urban Development (HUD) with funding flexibility to maintain the schedule for the New Core Shared Services Project. (The project is a transition of HUD's financial management systems to a federal shared services provider.) ",
                    "summary_short": "(This measure has not been amended since the Senate agreed to the House amendment with an amendment on September 30, 2015. The summary of that version is repeated here.) Highlights: This bill provides continuing FY2016 appropriations to federal agencies until December 11, 2015, or the enactment of specified appropriations legislation. It is known as a continuing resolution (CR) and prevents a government shutdown that would otherwise occur when FY2016 begins on October 1, 2015, because none of...",
                    "latest_major_action_date": "2015-09-30",
                    "latest_major_action": "Became Public Law No: 114-53."
                },
                {
                    "congress": "114",
                    "bill_id": "hr720-114",
                    "bill_type": "hr",
                    "number": "H.R.720",
                    "bill_uri": "https://api.propublica.org/congress/v1/114/bills/hr720.json",
                    "title": "To improve intergovernmental planning for and communication during security incidents at domestic airports, and for other purposes.",
                    "short_title": "Gerardo Hernandez Airport Security Act of 2015",
                    "sponsor_title": "Rep.",
                    "sponsor_id": "K000386",
                    "sponsor_name": "John Katko",
                    "sponsor_state": "NY",
                    "sponsor_party": "R",
                    "sponsor_uri": "https://api.propublica.org/congress/v1/members/K000386.json",
                    "gpo_pdf_uri": null,
                    "congressdotgov_url": "https://www.congress.gov/bill/114th-congress/house-bill/720",
                    "govtrack_url": "https://www.govtrack.us/congress/bills/114/hr720",
                    "introduced_date": "2015-02-04",
                    "active": true,
                    "last_vote": "2015-02-10",
                    "house_passage": "2015-02-10",
                    "senate_passage": "2015-08-05",
                    "enacted": "2015-09-17",
                    "vetoed": null,
                    "cosponsors": 7,
                    "cosponsors_by_party": {
                        "D": 5,
                        "R": 2
                    },
                    "committees": "Senate Commerce, Science, and Transportation Committee",
                    "primary_subject": "Transportation and Public Works",
                    "summary": "(This measure has not been amended since it was passed by the Senate on August 5, 2015. The summary of that version is repeated here.) Gerardo Hernandez Airport Security Act of 2015   (Sec. 3) Directs the Transportation Security Administration (TSA) of the Department of Homeland Security to: (1) conduct outreach to all U.S. airports at which the TSA performs, or oversees the implementation and performance of, security measures; and (2) give necessary technical assistance to verify that such airports have in place individualized working plans for responding to security incidents inside the airport perimeter, including active shooters, acts of terrorism, and incidents that target passenger-screening checkpoints. Requires the TSA to report to Congress on the outreach findings, including an analysis of the level of preparedness such airports have to respond to such incidents.  (Sec. 4) Requires the TSA to: (1) identify best practices that exist across airports for security incident planning, management, and training; and (2) establish a mechanism through which to share those best practices with other airport operators nationwide. (Sec. 5) Requires the TSA also to: (1) certify annually to specified congressional committees that all screening personnel have participated in practical training exercises for active shooter scenarios, and (2) analyze for those same committees how TSA can use cost savings achieved through efficiencies to increase over the next five fiscal years the funding available for checkpoint screening law enforcement support reimbursable agreements. (Sec. 7) Directs the TSA to: (1) conduct outreach to all passenger transportation agencies and providers with high-risk facilities to verify that they have in place plans for responding to active shooters, acts of terrorism, or other security-related incidents that target passengers; and (2) identify best practices for security incident planning, management, and training and establish a mechanism through which to share such practices with passenger transportation agencies nationwide. (Sec. 8) Declares that no additional appropriations are authorized to carry out this Act. Requires this Act to be carried out using amounts otherwise available. (Sec. 9) Requires the TSA to review the interoperable communications capabilities of law enforcement, fire, and medical personnel responsible for responding to security incidents at all U.S. airports at which the TSA performs, or oversees the implementation and performance of, security measures.",
                    "summary_short": "(This measure has not been amended since it was passed by the Senate on August 5, 2015. The summary of that version is repeated here.) Gerardo Hernandez Airport Security Act of 2015   (Sec. 3) Directs the Transportation Security Administration (TSA) of the Department of Homeland Security to: (1) conduct outreach to all U.S. airports at which the TSA performs, or oversees the implementation and performance of, security measures; and (2) give necessary technical assistance to verify that such a...",
                    "latest_major_action_date": "2015-09-24",
                    "latest_major_action": "Became Public Law No: 114-50."
                }
            ]
        }
    ]
}
