{
    "status": "OK",
    "copyright": "Copyright (c) 2021 Pro Publica Inc. All Rights Reserved.",
    "results": [
        {
            "id": "K000376",
            "member_uri": "https://api.propublica.org/congress/v1/members/K000376.json",
            "name": "Mike Kelly",
            "num_results": 2,
            "offset": 0,
            "bills": [
                {
                    "congress": "115",
                    "bill_id": "hr2210-115",
                    "bill_type": "hr",
                    "number": "H.R.2210",
                    "bill_uri": "https://api.propublica.org/congress/v1/115/bills/hr2210.json",
                    "title": "To designate the community living center of the Department of Veterans Affairs in Butler Township, Butler County, Pennsylvania, as the 'Sergeant Joseph George Kusick VA Community Living Center'.",
                    "short_title": "To designate the community living center of the Department of Veterans Affairs in Butler Township, Butler County, Pennsylvania, as the \"Sergeant Joseph George Kusick VA Community Living Center\".",
                    "sponsor_title": "Rep.",
                    "sponsor_id": "K000376",
                    "sponsor_name": "Mike Kelly",
                    "sponsor_state": "PA",
                    "sponsor_party": "R",
                    "sponsor_uri": "https://api.propublica.org/congress/v1/members/K000376.json",
                    "gpo_pdf_uri": null,
                    "congressdotgov_url": "https://www.congress.gov/bill/115th-congress/house-bill/2210",
                    "govtrack_url": "https://www.govtrack.us/congress/bills/115/hr2210",
                    "introduced_date": "2017-04-27",
                    "active": true,
                    "last_vote": "2017-07-17",
                    "house_passage": "2017-07-17",
                    "senate_passage": "2017-08-01",
                    "enacted": "2017-08-16",
                    "vetoed": null,
                    "cosponsors": 17,
                    "cosponsors_by_party": {
                        "R": 12,
                        "D": 5
                    },
                    "committees": "House Veterans&#39; Affairs Committee",
                    "primary_subject": "Armed Forces and National Security",
                    "summary": "(This measure has not been amended since it was introduced. The expanded summary of the House passed version is repeated here.) (Sec. 2) This bill designates the Department of Veterans Affairs community living center in Butler Township, Butler County, Pennsylvania, as the \"Sergeant Joseph George Kusick VA Community Living Center.\"",
                    "summary_short": "(This measure has not been amended since it was introduced. The expanded summary of the House passed version is repeated here.) (Sec. 2) This bill designates the Department of Veterans Affairs community living center in Butler Township, Butler County, Pennsylvania, as the &quot;Sergeant Joseph George Kusick VA Community Living Center.&quot;",
                    "latest_major_action_date": "2017-08-16",
                    "latest_major_action": "Became Public Law No: 115-47."
                },
                {
                    "congress": "115",
                    "bill_id": "hr609-115",
                    "bill_type": "hr",
                    "number": "H.R.609",
                    "bill_uri": "https://api.propublica.org/congress/v1/115/bills/hr609.json",
                    "title": "To designate the Department of Veterans Affairs health care center in Center Township, Butler County, Pennsylvania, as the 'Abie Abraham VA Clinic'.",
                    "short_title": "To designate the Department of Veterans Affairs health care center in Center Township, Butler County, Pennsylvania, as the \"Abie Abraham VA Clinic\".",
                    "sponsor_title": "Rep.",
                    "sponsor_id": "K000376",
                    "sponsor_name": "Mike Kelly",
                    "sponsor_state": "PA",
                    "sponsor_party": "R",
                    "sponsor_uri": "https://api.propublica.org/congress/v1/members/K000376.json",
                    "gpo_pdf_uri": null,
                    "congressdotgov_url": "https://www.congress.gov/bill/115th-congress/house-bill/609",
                    "govtrack_url": "https://www.govtrack.us/congress/bills/115/hr609",
                    "introduced_date": "2017-01-23",
                    "active": true,
                    "last_vote": null,
                    "house_passage": "2017-02-13",
                    "senate_passage": "2017-02-17",
                    "enacted": "2017-03-13",
                    "vetoed": null,
                    "cosponsors": 17,
                    "cosponsors_by_party": {
                        "D": 5,
                        "R": 12
                    },
                    "committees": "Senate Veterans&#39; Affairs Committee",
                    "primary_subject": "Armed Forces and National Security",
                    "summary": "(This measure has not been amended since it was introduced. The summary of that version is repeated here.) This bill designates the Department of Veterans Affairs health care center in Center Township, Butler County, Pennsylvania, as the \"Abie Abraham VA Clinic.\"",
                    "summary_short": "(This measure has not been amended since it was introduced. The summary of that version is repeated here.) This bill designates the Department of Veterans Affairs health care center in Center Township, Butler County, Pennsylvania, as the &quot;Abie Abraham VA Clinic.&quot;",
                    "latest_major_action_date": "2017-03-13",
                    "latest_major_action": "Became Public Law No: 115-9."
                }
            ]
        }
    ]
}
