{
    "status": "OK",
    "copyright": "Copyright (c) 2021 Pro Publica Inc. All Rights Reserved.",
    "results": [
        {
            "id": "K000367",
            "member_uri": "https://api.propublica.org/congress/v1/members/K000367.json",
            "name": "Amy Klobuchar",
            "num_results": 6,
            "offset": 0,
            "bills": [
                {
                    "congress": "115",
                    "bill_id": "s3021-115",
                    "bill_type": "s",
                    "number": "S.3021",
                    "bill_uri": "https://api.propublica.org/congress/v1/115/bills/s3021.json",
                    "title": "A bill to designate the United States courthouse located at 300 South Fourth Street in Minneapolis, Minnesota, as the 'Diana E. Murphy United States Courthouse'.",
                    "short_title": "America's Water Infrastructure Act of 2018",
                    "sponsor_title": "Sen.",
                    "sponsor_id": "K000367",
                    "sponsor_name": "Amy Klobuchar",
                    "sponsor_state": "MN",
                    "sponsor_party": "D",
                    "sponsor_uri": "https://api.propublica.org/congress/v1/members/K000367.json",
                    "gpo_pdf_uri": null,
                    "congressdotgov_url": "https://www.congress.gov/bill/115th-congress/senate-bill/3021",
                    "govtrack_url": "https://www.govtrack.us/congress/bills/115/s3021",
                    "introduced_date": "2018-06-07",
                    "active": true,
                    "last_vote": "2018-10-10",
                    "house_passage": "2018-09-13",
                    "senate_passage": "2018-09-04",
                    "enacted": "2018-10-23",
                    "vetoed": null,
                    "cosponsors": 1,
                    "cosponsors_by_party": {
                        "D": 1
                    },
                    "committees": "House Transportation and Infrastructure Committee",
                    "primary_subject": "Water Resources Development",
                    "summary": "This bill designates the U.S. courthouse at 300 South Fourth Street in Minneapolis, Minnesota, as the \"Diana E. Murphy United States Courthouse.\"",
                    "summary_short": "This bill designates the U.S. courthouse at 300 South Fourth Street in Minneapolis, Minnesota, as the &quot;Diana E. Murphy United States Courthouse.&quot;",
                    "latest_major_action_date": "2018-10-23",
                    "latest_major_action": "Became Public Law No: 115-270."
                },
                {
                    "congress": "115",
                    "bill_id": "s96-115",
                    "bill_type": "s",
                    "number": "S.96",
                    "bill_uri": "https://api.propublica.org/congress/v1/115/bills/s96.json",
                    "title": "A bill to amend the Communications Act of 1934 to ensure the integrity of voice communications and to prevent unjust or unreasonable discrimination among areas of the United States in the delivery of such communications.",
                    "short_title": "Improving Rural Call Quality and Reliability Act of 2017",
                    "sponsor_title": "Sen.",
                    "sponsor_id": "K000367",
                    "sponsor_name": "Amy Klobuchar",
                    "sponsor_state": "MN",
                    "sponsor_party": "D",
                    "sponsor_uri": "https://api.propublica.org/congress/v1/members/K000367.json",
                    "gpo_pdf_uri": null,
                    "congressdotgov_url": "https://www.congress.gov/bill/115th-congress/senate-bill/96",
                    "govtrack_url": "https://www.govtrack.us/congress/bills/115/s96",
                    "introduced_date": "2017-01-11",
                    "active": true,
                    "last_vote": null,
                    "house_passage": "2018-02-09",
                    "senate_passage": "2017-08-03",
                    "enacted": "2018-02-26",
                    "vetoed": null,
                    "cosponsors": 8,
                    "cosponsors_by_party": {
                        "R": 4,
                        "D": 3,
                        "ID": 1
                    },
                    "committees": "Senate Commerce, Science, and Transportation Committee",
                    "primary_subject": "Science, Technology, Communications",
                    "summary": "(This measure has not been amended since it was reported to the Senate on March 21, 2017. The summary of that version is repeated here.) Improving Rural Call Quality and Reliability Act of 2017 (Sec. 2) This bill amends the Communications Act of 1934 to require intermediate providers that offer the capability to transmit voice communications and signaling information from one destination to another, and that charge a rate to any other entity (including an affiliated entity) for such a transmission, to: (1) register with the Federal Communications Commission (FCC), and (2) comply with service quality standards to be established by the FCC.  An \"intermediate provider\" is an entity that: (1) enters a business arrangement with a long-distance voice service provider that makes the initial call path choice for more than 100,000 domestic retail subscriber lines, or with another intermediate provider, to carry, route, or transmit voice traffic from a call placed from or to an end user connection using a North American Numbering Plan resource; and (2) does not itself (directly or in conjunction with an affiliate) serve as such a long-distance initial call path choice provider in the context of originating or terminating a given call.  The bill prohibits such long-distance providers (including local exchange carriers, interexchange carriers, commercial mobile radio services, interconnected voice over Internet Protocol [VoIP] services, and certain non-interconnected VoIP services) from using an intermediate provider to transmit voice communications and signals unless the intermediate provider is so registered.  The FCC must: (1) ensure the integrity of the transmission of voice communications to all customers in the United States, (2) prevent unjust or unreasonable discrimination among areas of the United States in the delivery of such voice communications, and (3) make a registry of intermediate providers publicly available on the FCC website.  The bill shall not be construed to preempt or expand the authority of a state agency or public utility commission to collect data, or enforce state law and regulations, regarding the completion of intrastate voice communications.  Certain long-distance providers that make initial call path choices are exempt from service quality standards that the FCC is required to establish under this bill if they certify under a safe harbor provision in existing FCC rules that they monitor the performance of, or do not use, intermediate providers. ",
                    "summary_short": "(This measure has not been amended since it was reported to the Senate on March 21, 2017. The summary of that version is repeated here.) Improving Rural Call Quality and Reliability Act of 2017 (Sec. 2) This bill amends the Communications Act of 1934 to require intermediate providers that offer the capability to transmit voice communications and signaling information from one destination to another, and that charge a rate to any other entity (including an affiliated entity) for such a transmi...",
                    "latest_major_action_date": "2018-02-26",
                    "latest_major_action": "Became Public Law No: 115-129."
                },
                {
                    "congress": "115",
                    "bill_id": "s1536-115",
                    "bill_type": "s",
                    "number": "S.1536",
                    "bill_uri": "https://api.propublica.org/congress/v1/115/bills/s1536.json",
                    "title": "A bill to designate a human trafficking prevention coordinator and to expand the scope of activities authorized under the Federal Motor Carrier Safety Administration's outreach and education program to include human trafficking prevention activities, and for other purposes.",
                    "short_title": "Combating Human Trafficking in Commercial Vehicles Act",
                    "sponsor_title": "Sen.",
                    "sponsor_id": "K000367",
                    "sponsor_name": "Amy Klobuchar",
                    "sponsor_state": "MN",
                    "sponsor_party": "D",
                    "sponsor_uri": "https://api.propublica.org/congress/v1/members/K000367.json",
                    "gpo_pdf_uri": null,
                    "congressdotgov_url": "https://www.congress.gov/bill/115th-congress/senate-bill/1536",
                    "govtrack_url": "https://www.govtrack.us/congress/bills/115/s1536",
                    "introduced_date": "2017-07-12",
                    "active": true,
                    "last_vote": "2017-12-19",
                    "house_passage": "2017-12-19",
                    "senate_passage": "2017-09-14",
                    "enacted": "2018-01-03",
                    "vetoed": null,
                    "cosponsors": 6,
                    "cosponsors_by_party": {
                        "R": 4,
                        "D": 2
                    },
                    "committees": "House Transportation and Infrastructure Committee",
                    "primary_subject": "Transportation and Public Works",
                    "summary": "Combating Human Trafficking in Commercial Vehicles Act (Sec. 2) This bill directs the Department of Transportation (DOT) to designate an official to: (1) coordinate human trafficking prevention efforts across DOT modal administrations and with other federal agencies, and (2) take into account the unique challenges of combating human trafficking within different transportation modes. (Sec. 3) The bill expands the Federal Motor Carrier Safety Administration's outreach and education program and DOT's commercial driver's license financial assistance program to include activities for the recognition, prevention, and reporting of human trafficking. (Sec. 5) DOT shall establish an advisory committee on human trafficking. The committee shall: (1) make recommendations on actions DOT can take to help combat human trafficking, and (2) develop recommended best practices for states and state and local transportation stakeholders in combating human trafficking.",
                    "summary_short": "Combating Human Trafficking in Commercial Vehicles Act (Sec. 2) This bill directs the Department of Transportation (DOT) to designate an official to: (1) coordinate human trafficking prevention efforts across DOT modal administrations and with other federal agencies, and (2) take into account the unique challenges of combating human trafficking within different transportation modes. (Sec. 3) The bill expands the Federal Motor Carrier Safety Administration&#39;s outreach and education program and ...",
                    "latest_major_action_date": "2018-01-03",
                    "latest_major_action": "Became Public Law No: 115-99."
                },
                {
                    "congress": "114",
                    "bill_id": "s2974-114",
                    "bill_type": "s",
                    "number": "S.2974",
                    "bill_uri": "https://api.propublica.org/congress/v1/114/bills/s2974.json",
                    "title": "A bill to ensure funding for the National Human Trafficking Hotline, and for other purposes.",
                    "short_title": "A bill to ensure funding for the National Human Trafficking Hotline, and for other purposes.",
                    "sponsor_title": "Sen.",
                    "sponsor_id": "K000367",
                    "sponsor_name": "Amy Klobuchar",
                    "sponsor_state": "MN",
                    "sponsor_party": "D",
                    "sponsor_uri": "https://api.propublica.org/congress/v1/members/K000367.json",
                    "gpo_pdf_uri": null,
                    "congressdotgov_url": "https://www.congress.gov/bill/114th-congress/senate-bill/2974",
                    "govtrack_url": "https://www.govtrack.us/congress/bills/114/s2974",
                    "introduced_date": "2016-05-23",
                    "active": true,
                    "last_vote": null,
                    "house_passage": "2016-12-08",
                    "senate_passage": "2016-11-28",
                    "enacted": "2016-12-12",
                    "vetoed": null,
                    "cosponsors": 1,
                    "cosponsors_by_party": {
                        "R": 1
                    },
                    "committees": "Senate Health, Education, Labor, and Pensions Committee",
                    "primary_subject": "Crime and Law Enforcement",
                    "summary": "(This measure has not been amended since it was introduced. The expanded summary of the Senate passed version is repeated here.) (Sec. 1) This bill amends the Victims of Trafficking and Violence Protection Act of 2000 to eliminate the provision that specifies that Department of Health and Human Services national human trafficking hotline grants be funded by amounts made available to the Department of Justice for trafficking victim services grants.",
                    "summary_short": "(This measure has not been amended since it was introduced. The expanded summary of the Senate passed version is repeated here.) (Sec. 1) This bill amends the Victims of Trafficking and Violence Protection Act of 2000 to eliminate the provision that specifies that Department of Health and Human Services national human trafficking hotline grants be funded by amounts made available to the Department of Justice for trafficking victim services grants.",
                    "latest_major_action_date": "2016-12-14",
                    "latest_major_action": "Became Public Law No: 114-271."
                },
                {
                    "congress": "114",
                    "bill_id": "s179-114",
                    "bill_type": "s",
                    "number": "S.179",
                    "bill_uri": "https://api.propublica.org/congress/v1/114/bills/s179.json",
                    "title": "A bill to designate the facility of the United States Postal Service located at 14 3rd Avenue, NW, in Chisholm, Minnesota, as the 'James L. Oberstar Memorial Post Office Building'.",
                    "short_title": "A bill to designate the facility of the United States Postal Service located at 14 3rd Avenue, NW, in Chisholm, Minnesota, as the \"James L. Oberstar Memorial Post Office Building\".",
                    "sponsor_title": "Sen.",
                    "sponsor_id": "K000367",
                    "sponsor_name": "Amy Klobuchar",
                    "sponsor_state": "MN",
                    "sponsor_party": "D",
                    "sponsor_uri": "https://api.propublica.org/congress/v1/members/K000367.json",
                    "gpo_pdf_uri": null,
                    "congressdotgov_url": "https://www.congress.gov/bill/114th-congress/senate-bill/179",
                    "govtrack_url": "https://www.govtrack.us/congress/bills/114/s179",
                    "introduced_date": "2015-01-13",
                    "active": true,
                    "last_vote": null,
                    "house_passage": "2015-07-13",
                    "senate_passage": "2015-05-11",
                    "enacted": "2015-07-14",
                    "vetoed": null,
                    "cosponsors": 1,
                    "cosponsors_by_party": {
                        "D": 1
                    },
                    "committees": "House Oversight and Reform Committee",
                    "primary_subject": "Government Operations and Politics",
                    "summary": "(This measure has not been amended since it was introduced. The summary of that version is repeated here.) Designates the facility of the United States Postal Service located at 14 3rd Avenue, NW, in Chisholm, Minnesota, as the \"James L. Oberstar Memorial Post Office Building.\"",
                    "summary_short": "(This measure has not been amended since it was introduced. The summary of that version is repeated here.) Designates the facility of the United States Postal Service located at 14 3rd Avenue, NW, in Chisholm, Minnesota, as the &quot;James L. Oberstar Memorial Post Office Building.&quot;",
                    "latest_major_action_date": "2015-07-20",
                    "latest_major_action": "Became Public Law No: 114-37."
                },
                {
                    "congress": "113",
                    "bill_id": "s1614-113",
                    "bill_type": "s",
                    "number": "S.1614",
                    "bill_uri": "https://api.propublica.org/congress/v1/113/bills/s1614.json",
                    "title": "A bill to require Certificates of Citizenship and other Federal documents to reflect name and date of birth determinations made by a State court and for other purposes.",
                    "short_title": "Accuracy for Adoptees Act",
                    "sponsor_title": "Sen.",
                    "sponsor_id": "K000367",
                    "sponsor_name": "Amy Klobuchar",
                    "sponsor_state": "MN",
                    "sponsor_party": "D",
                    "sponsor_uri": "https://api.propublica.org/congress/v1/members/K000367.json",
                    "gpo_pdf_uri": null,
                    "congressdotgov_url": "https://www.congress.gov/bill/113th-congress/senate-bill/1614",
                    "govtrack_url": "https://www.govtrack.us/congress/bills/113/s1614",
                    "introduced_date": "2013-10-30",
                    "active": true,
                    "last_vote": null,
                    "house_passage": "2013-12-23",
                    "senate_passage": "2013-12-20",
                    "enacted": "2014-01-08",
                    "vetoed": null,
                    "cosponsors": 13,
                    "cosponsors_by_party": {
                        "R": 10,
                        "D": 3
                    },
                    "committees": "Senate Judiciary Committee",
                    "primary_subject": "Immigration",
                    "summary": "(This measure has not been amended since it was introduced. The summary of that version is repeated here.) Accuracy for Adoptees Act - Amends the Immigration and Nationality Act to require that a certificate of citizenship or other federal document issued, or requested to be amended, reflect the child's name and date of birth as indicated on a state court order, birth certificate, certificate of foreign birth, certificate of birth abroad, or similar state vital records document issued by the child's U.S. state of residence after the child has been adopted or readopted in that state.",
                    "summary_short": "(This measure has not been amended since it was introduced. The summary of that version is repeated here.) Accuracy for Adoptees Act - Amends the Immigration and Nationality Act to require that a certificate of citizenship or other federal document issued, or requested to be amended, reflect the child&#39;s name and date of birth as indicated on a state court order, birth certificate, certificate of foreign birth, certificate of birth abroad, or similar state vital records document issued by the ...",
                    "latest_major_action_date": "2014-01-16",
                    "latest_major_action": "Became Public Law No: 113-74."
                }
            ]
        }
    ]
}
