{
    "status": "OK",
    "copyright": "Copyright (c) 2021 Pro Publica Inc. All Rights Reserved.",
    "results": [
        {
            "id": "M001210",
            "member_uri": "https://api.propublica.org/congress/v1/members/M001210.json",
            "name": "Greg Murphy",
            "num_results": 1,
            "offset": 0,
            "bills": [
                {
                    "congress": "116",
                    "bill_id": "hr5037-116",
                    "bill_type": "hr",
                    "number": "H.R.5037",
                    "bill_uri": "https://api.propublica.org/congress/v1/116/bills/hr5037.json",
                    "title": "To designate the facility of the United States Postal Service located at 3703 North Main Street in Farmville, North Carolina, as the 'Walter B. Jones, Jr. Post Office'.",
                    "short_title": "To designate the facility of the United States Postal Service located at 3703 North Main Street in Farmville, North Carolina, as the \"Walter B. Jones, Jr. Post Office\".",
                    "sponsor_title": "Rep.",
                    "sponsor_id": "M001210",
                    "sponsor_name": "Greg Murphy",
                    "sponsor_state": "NC",
                    "sponsor_party": "R",
                    "sponsor_uri": "https://api.propublica.org/congress/v1/members/M001210.json",
                    "gpo_pdf_uri": null,
                    "congressdotgov_url": "https://www.congress.gov/bill/116th-congress/house-bill/5037",
                    "govtrack_url": "https://www.govtrack.us/congress/bills/116/hr5037",
                    "introduced_date": "2019-11-12",
                    "active": true,
                    "last_vote": null,
                    "house_passage": "2020-02-05",
                    "senate_passage": "2020-11-18",
                    "enacted": "2020-12-03",
                    "vetoed": null,
                    "cosponsors": 16,
                    "cosponsors_by_party": {
                        "D": 6,
                        "R": 10
                    },
                    "committees": "Senate Homeland Security and Governmental Affairs Committee",
                    "primary_subject": "Government Operations and Politics",
                    "summary": "Designates the facility of the United States Postal Service located at 3703 North Main Street in Farmville, North Carolina, as the \"Walter B. Jones, Jr. Post Office.\"",
                    "summary_short": "Designates the facility of the United States Postal Service located at 3703 North Main Street in Farmville, North Carolina, as the &quot;Walter B. Jones, Jr. Post Office.&quot;",
                    "latest_major_action_date": "2020-12-03",
                    "latest_major_action": "Became Public Law No: 116-203."
                }
            ]
        }
    ]
}
