{
    "status": "OK",
    "copyright": "Copyright (c) 2021 Pro Publica Inc. All Rights Reserved.",
    "results": [
        {
            "id": "M001156",
            "member_uri": "https://api.propublica.org/congress/v1/members/M001156.json",
            "name": "Patrick T. McHenry",
            "num_results": 0,
            "offset": 0,
            "bills": []
        }
    ]
}
