{
    "status": "OK",
    "copyright": "Copyright (c) 2021 Pro Publica Inc. All Rights Reserved.",
    "results": [
        {
            "id": "M001209",
            "member_uri": "https://api.propublica.org/congress/v1/members/M001209.json",
            "name": "Ben McAdams",
            "num_results": 1,
            "offset": 0,
            "bills": [
                {
                    "congress": "116",
                    "bill_id": "hr4704-116",
                    "bill_type": "hr",
                    "number": "H.R.4704",
                    "bill_uri": "https://api.propublica.org/congress/v1/116/bills/hr4704.json",
                    "title": "To direct the Director of the National Science Foundation to support multidisciplinary research on the science of suicide, and to advance the knowledge and understanding of issues that may be associated with several aspects of suicide including intrinsic and extrinsic factors related to areas such as wellbeing, resilience, and vulnerability.",
                    "short_title": "Advancing Research to Prevent Suicide Act",
                    "sponsor_title": "Rep.",
                    "sponsor_id": "M001209",
                    "sponsor_name": "Ben McAdams",
                    "sponsor_state": "UT",
                    "sponsor_party": "D",
                    "sponsor_uri": "https://api.propublica.org/congress/v1/members/M001209.json",
                    "gpo_pdf_uri": null,
                    "congressdotgov_url": "https://www.congress.gov/bill/116th-congress/house-bill/4704",
                    "govtrack_url": "https://www.govtrack.us/congress/bills/116/hr4704",
                    "introduced_date": "2019-10-16",
                    "active": true,
                    "last_vote": "2020-01-27",
                    "house_passage": "2020-01-27",
                    "senate_passage": "2020-12-14",
                    "enacted": null,
                    "vetoed": null,
                    "cosponsors": 16,
                    "cosponsors_by_party": {
                        "R": 3,
                        "D": 13
                    },
                    "committees": "Senate Commerce, Science, and Transportation Committee",
                    "primary_subject": "Health",
                    "summary": "Advancing Research to Prevent Suicide Act This bill directs the National Science Foundation (NSF) to award competitive, merit-reviewed grants to institutions of higher education (or their consortia) to support multidisciplinary, fundamental research with potential relevance to suicide, including potential relevance to prevention and treatment.  In awarding such grants, the NSF shall encourage applications submitted by early career researchers, including doctoral students and postdoctoral researchers, to promote the researchers' development.",
                    "summary_short": "Advancing Research to Prevent Suicide Act This bill directs the National Science Foundation (NSF) to award competitive, merit-reviewed grants to institutions of higher education (or their consortia) to support multidisciplinary, fundamental research with potential relevance to suicide, including potential relevance to prevention and treatment.  In awarding such grants, the NSF shall encourage applications submitted by early career researchers, including doctoral students and postdoctoral rese...",
                    "latest_major_action_date": "2020-12-15",
                    "latest_major_action": "Message on Senate action sent to the House."
                }
            ]
        }
    ]
}
