{
    "status": "OK",
    "copyright": "Copyright (c) 2021 Pro Publica Inc. All Rights Reserved.",
    "results": [
        {
            "id": "M001180",
            "member_uri": "https://api.propublica.org/congress/v1/members/M001180.json",
            "name": "David McKinley",
            "num_results": 1,
            "offset": 0,
            "bills": [
                {
                    "congress": "115",
                    "bill_id": "hr2122-115",
                    "bill_type": "hr",
                    "number": "H.R.2122",
                    "bill_uri": "https://api.propublica.org/congress/v1/115/bills/hr2122.json",
                    "title": "To reinstate and extend the deadline for commencement of construction of a hydroelectric project involving Jennings Randolph Dam.",
                    "short_title": "To reinstate and extend the deadline for commencement of construction of a hydroelectric project involving Jennings Randolph Dam.",
                    "sponsor_title": "Rep.",
                    "sponsor_id": "M001180",
                    "sponsor_name": "David McKinley",
                    "sponsor_state": "WV",
                    "sponsor_party": "R",
                    "sponsor_uri": "https://api.propublica.org/congress/v1/members/M001180.json",
                    "gpo_pdf_uri": null,
                    "congressdotgov_url": "https://www.congress.gov/bill/115th-congress/house-bill/2122",
                    "govtrack_url": "https://www.govtrack.us/congress/bills/115/hr2122",
                    "introduced_date": "2017-04-25",
                    "active": true,
                    "last_vote": null,
                    "house_passage": "2017-06-12",
                    "senate_passage": "2018-06-28",
                    "enacted": "2018-07-23",
                    "vetoed": null,
                    "cosponsors": 1,
                    "cosponsors_by_party": {
                        "D": 1
                    },
                    "committees": "House Energy and Commerce Committee",
                    "primary_subject": "Energy",
                    "summary": "(Sec.1)This bill authorizes the Federal Energy Regulatory Commission (FERC), upon request, to extend for up to six years the time period during which construction must commence on the Jennings Randolph Hydroelectric Project located on the North Branch of the Potomac River in Garrett County, Maryland, and Mineral County, West Virginia. Additionally, FERC may reinstate the construction license if it is expired.",
                    "summary_short": "(Sec.1)This bill authorizes the Federal Energy Regulatory Commission (FERC), upon request, to extend for up to six years the time period during which construction must commence on the Jennings Randolph Hydroelectric Project located on the North Branch of the Potomac River in Garrett County, Maryland, and Mineral County, West Virginia. Additionally, FERC may reinstate the construction license if it is expired.",
                    "latest_major_action_date": "2018-07-23",
                    "latest_major_action": "Became Public Law No: 115-205."
                }
            ]
        }
    ]
}
