{
    "status": "OK",
    "copyright": "Copyright (c) 2021 Pro Publica Inc. All Rights Reserved.",
    "results": [
        {
            "id": "M001188",
            "member_uri": "https://api.propublica.org/congress/v1/members/M001188.json",
            "name": "Grace Meng",
            "num_results": 1,
            "offset": 0,
            "bills": [
                {
                    "congress": "114",
                    "bill_id": "hr4238-114",
                    "bill_type": "hr",
                    "number": "H.R.4238",
                    "bill_uri": "https://api.propublica.org/congress/v1/114/bills/hr4238.json",
                    "title": "To amend the Department of Energy Organization Act and the Local Public Works Capital Development and Investment Act of 1976 to modernize terms relating to minorities.",
                    "short_title": "To amend the Department of Energy Organization Act and the Local Public Works Capital Development and Investment Act of 1976 to modernize terms relating to minorities.",
                    "sponsor_title": "Rep.",
                    "sponsor_id": "M001188",
                    "sponsor_name": "Grace Meng",
                    "sponsor_state": "NY",
                    "sponsor_party": "D",
                    "sponsor_uri": "https://api.propublica.org/congress/v1/members/M001188.json",
                    "gpo_pdf_uri": null,
                    "congressdotgov_url": "https://www.congress.gov/bill/114th-congress/house-bill/4238",
                    "govtrack_url": "https://www.govtrack.us/congress/bills/114/hr4238",
                    "introduced_date": "2015-12-11",
                    "active": true,
                    "last_vote": "2016-02-29",
                    "house_passage": "2016-02-29",
                    "senate_passage": "2016-05-09",
                    "enacted": "2016-05-13",
                    "vetoed": null,
                    "cosponsors": 76,
                    "cosponsors_by_party": {
                        "R": 2,
                        "D": 74
                    },
                    "committees": "House Energy and Commerce Committee",
                    "primary_subject": "Civil Rights and Liberties, Minority Issues",
                    "summary": "(This measure has not been amended since it was introduced. The summary of that version is repeated here.) This bill amends: (1) the Department of Energy Organization Act to revise the definition of \"minority\" to mean any U.S. citizen who is an Asian American, Native Hawaiian, Pacific Islander, African American, Hispanic, Puerto Rican, Native American, or Alaska Native; and (2) the Local Public Works Capital Development and Investment Act of 1976 to revise the definition of \"minority group members\" (who own minority group enterprises) to mean U.S. citizens who are Asian American, Native Hawaiian, Pacific Islanders, African American, Hispanic, Native American, or Alaska Natives.",
                    "summary_short": "(This measure has not been amended since it was introduced. The summary of that version is repeated here.) This bill amends: (1) the Department of Energy Organization Act to revise the definition of &quot;minority&quot; to mean any U.S. citizen who is an Asian American, Native Hawaiian, Pacific Islander, African American, Hispanic, Puerto Rican, Native American, or Alaska Native; and (2) the Local Public Works Capital Development and Investment Act of 1976 to revise the definition of &quot;minority group me...",
                    "latest_major_action_date": "2016-05-20",
                    "latest_major_action": "Became Public Law No: 114-157."
                }
            ]
        }
    ]
}
