{
    "status": "OK",
    "copyright": "Copyright (c) 2021 Pro Publica Inc. All Rights Reserved.",
    "results": [
        {
            "id": "N000189",
            "member_uri": "https://api.propublica.org/congress/v1/members/N000189.json",
            "name": "Dan Newhouse",
            "num_results": 1,
            "offset": 0,
            "bills": [
                {
                    "congress": "115",
                    "bill_id": "hr5504-115",
                    "bill_type": "hr",
                    "number": "H.R.5504",
                    "bill_uri": "https://api.propublica.org/congress/v1/115/bills/hr5504.json",
                    "title": "To designate the facility of the United States Postal Service located at 4801 West Van Giesen Street in West Richland, Washington, as the 'Sergeant Dietrich Schmieman Post Office Building'.",
                    "short_title": "To designate the facility of the United States Postal Service located at 4801 West Van Giesen Street in West Richland, Washington, as the \"Sergeant Dietrich Schmieman Post Office Building\".",
                    "sponsor_title": "Rep.",
                    "sponsor_id": "N000189",
                    "sponsor_name": "Dan Newhouse",
                    "sponsor_state": "WA",
                    "sponsor_party": "R",
                    "sponsor_uri": "https://api.propublica.org/congress/v1/members/N000189.json",
                    "gpo_pdf_uri": null,
                    "congressdotgov_url": "https://www.congress.gov/bill/115th-congress/house-bill/5504",
                    "govtrack_url": "https://www.govtrack.us/congress/bills/115/hr5504",
                    "introduced_date": "2018-04-13",
                    "active": true,
                    "last_vote": null,
                    "house_passage": "2018-07-16",
                    "senate_passage": "2018-11-15",
                    "enacted": "2018-12-06",
                    "vetoed": null,
                    "cosponsors": 9,
                    "cosponsors_by_party": {
                        "D": 6,
                        "R": 3
                    },
                    "committees": "Senate Homeland Security and Governmental Affairs Committee",
                    "primary_subject": "Government Operations and Politics",
                    "summary": "Designates the facility of the United States Postal Service located at 4801 West Van Giesen Street in West Richland, Washington, as the \"Sergeant Dietrich Schmieman Post Office Building.\"",
                    "summary_short": "Designates the facility of the United States Postal Service located at 4801 West Van Giesen Street in West Richland, Washington, as the &quot;Sergeant Dietrich Schmieman Post Office Building.&quot;",
                    "latest_major_action_date": "2018-12-06",
                    "latest_major_action": "Became Public Law No: 115-292."
                }
            ]
        }
    ]
}
