{
    "status": "OK",
    "copyright": "Copyright (c) 2021 Pro Publica Inc. All Rights Reserved.",
    "results": [
        {
            "id": "N000015",
            "member_uri": "https://api.propublica.org/congress/v1/members/N000015.json",
            "name": "Richard E. Neal",
            "num_results": 2,
            "offset": 0,
            "bills": [
                {
                    "congress": "116",
                    "bill_id": "hr430-116",
                    "bill_type": "hr",
                    "number": "H.R.430",
                    "bill_uri": "https://api.propublica.org/congress/v1/116/bills/hr430.json",
                    "title": "To extend the program of block grants to States for temporary assistance for needy families and related programs through June 30, 2019.",
                    "short_title": "TANF Extension Act of 2019",
                    "sponsor_title": "Rep.",
                    "sponsor_id": "N000015",
                    "sponsor_name": "Richard E. Neal",
                    "sponsor_state": "MA",
                    "sponsor_party": "D",
                    "sponsor_uri": "https://api.propublica.org/congress/v1/members/N000015.json",
                    "gpo_pdf_uri": null,
                    "congressdotgov_url": "https://www.congress.gov/bill/116th-congress/house-bill/430",
                    "govtrack_url": "https://www.govtrack.us/congress/bills/116/hr430",
                    "introduced_date": "2019-01-10",
                    "active": true,
                    "last_vote": null,
                    "house_passage": "2019-01-14",
                    "senate_passage": "2019-01-22",
                    "enacted": "2019-01-24",
                    "vetoed": null,
                    "cosponsors": 1,
                    "cosponsors_by_party": {
                        "R": 1
                    },
                    "committees": "House Ways and Means Committee",
                    "primary_subject": "Social Welfare",
                    "summary": "TANF Extension Act of 2019 This bill extends appropriations through June 30, 2019, for Temporary Assistance for Needy Families (TANF) program grants to states and related assistance grants to U.S. territories such as Puerto Rico and the Virgin Islands. ",
                    "summary_short": "TANF Extension Act of 2019 This bill extends appropriations through June 30, 2019, for Temporary Assistance for Needy Families (TANF) program grants to states and related assistance grants to U.S. territories such as Puerto Rico and the Virgin Islands. ",
                    "latest_major_action_date": "2019-01-24",
                    "latest_major_action": "Became Public Law No: 116-4."
                },
                {
                    "congress": "115",
                    "bill_id": "hr1235-115",
                    "bill_type": "hr",
                    "number": "H.R.1235",
                    "bill_uri": "https://api.propublica.org/congress/v1/115/bills/hr1235.json",
                    "title": "To require the Secretary of the Treasury to mint coins in recognition of the 60th Anniversary of the Naismith Memorial Basketball Hall of Fame.",
                    "short_title": "Naismith Memorial Basketball Hall of Fame Commemorative Coin Act",
                    "sponsor_title": "Rep.",
                    "sponsor_id": "N000015",
                    "sponsor_name": "Richard E. Neal",
                    "sponsor_state": "MA",
                    "sponsor_party": "D",
                    "sponsor_uri": "https://api.propublica.org/congress/v1/members/N000015.json",
                    "gpo_pdf_uri": null,
                    "congressdotgov_url": "https://www.congress.gov/bill/115th-congress/house-bill/1235",
                    "govtrack_url": "https://www.govtrack.us/congress/bills/115/hr1235",
                    "introduced_date": "2017-02-27",
                    "active": true,
                    "last_vote": null,
                    "house_passage": "2017-09-25",
                    "senate_passage": "2018-12-18",
                    "enacted": null,
                    "vetoed": null,
                    "cosponsors": 291,
                    "cosponsors_by_party": {
                        "R": 95,
                        "D": 196
                    },
                    "committees": "Senate Banking, Housing, and Urban Affairs Committee",
                    "primary_subject": "Finance and Financial Sector",
                    "summary": "Naismith Memorial Basketball Hall of Fame Commemorative Coin Act (Sec. 3) This bill directs the Department of the Treasury to mint and issue not more than 50,000 $5 coins, 400,000 $1 coins, and 750,000 half-dollar coins in recognition and celebration of the Naismith Memorial Basketball Hall of Fame. The coins shall be in the shape of a dome, and the design on the common reverse of the coins shall depict a basketball. Treasury shall hold a competition to determine the design of the common obverse of the coins, which shall be emblematic of the game of basketball. (Sec. 7) The bill requires all sales of such coins to include specified surcharges, which shall be paid by Treasury to the Hall to fund an endowment for increased operations and educational programming.",
                    "summary_short": "Naismith Memorial Basketball Hall of Fame Commemorative Coin Act (Sec. 3) This bill directs the Department of the Treasury to mint and issue not more than 50,000 $5 coins, 400,000 $1 coins, and 750,000 half-dollar coins in recognition and celebration of the Naismith Memorial Basketball Hall of Fame. The coins shall be in the shape of a dome, and the design on the common reverse of the coins shall depict a basketball. Treasury shall hold a competition to determine the design of the common obve...",
                    "latest_major_action_date": "2018-12-21",
                    "latest_major_action": "Became Public Law No: 115-343."
                }
            ]
        }
    ]
}
