{
    "status": "OK",
    "copyright": "Copyright (c) 2021 Pro Publica Inc. All Rights Reserved.",
    "results": [
        {
            "id": "P000096",
            "member_uri": "https://api.propublica.org/congress/v1/members/P000096.json",
            "name": "Bill Pascrell Jr.",
            "num_results": 3,
            "offset": 0,
            "bills": [
                {
                    "congress": "116",
                    "bill_id": "hr1865-116",
                    "bill_type": "hr",
                    "number": "H.R.1865",
                    "bill_uri": "https://api.propublica.org/congress/v1/116/bills/hr1865.json",
                    "title": "To require the Secretary of the Treasury to mint a coin in commemoration of the opening of the National Law Enforcement Museum in the District of Columbia, and for other purposes.",
                    "short_title": "Further Consolidated Appropriations Act, 2020",
                    "sponsor_title": "Rep.",
                    "sponsor_id": "P000096",
                    "sponsor_name": "Bill Pascrell Jr.",
                    "sponsor_state": "NJ",
                    "sponsor_party": "D",
                    "sponsor_uri": "https://api.propublica.org/congress/v1/members/P000096.json",
                    "gpo_pdf_uri": null,
                    "congressdotgov_url": "https://www.congress.gov/bill/116th-congress/house-bill/1865",
                    "govtrack_url": "https://www.govtrack.us/congress/bills/116/hr1865",
                    "introduced_date": "2019-03-25",
                    "active": true,
                    "last_vote": "2019-12-19",
                    "house_passage": "2019-12-17",
                    "senate_passage": "2019-11-12",
                    "enacted": "2019-12-20",
                    "vetoed": null,
                    "cosponsors": 304,
                    "cosponsors_by_party": {
                        "R": 125,
                        "D": 179
                    },
                    "committees": "House Financial Services Committee",
                    "primary_subject": "Economics and Public Finance",
                    "summary": "Further Consolidated Appropriations Act, 2020  This bill provides FY2020 appropriations for several federal departments and agencies.  It includes 8 of the 12 regular FY2020 appropriations bills:   the Departments of Labor, Health and Human Services, and Education, and Related Agencies Appropriations Act, 2020;   the Agriculture, Rural Development, Food and Drug Administration, and Related Agencies Appropriations Act, 2020;   the Energy and Water Development and Related Agencies Appropriations Act, 2020;   the Department of the Interior, Environment, and Related Agencies Appropriations Act, 2020;   the Legislative Branch Appropriations Act, 2020;   the Military Construction, Veterans Affairs, and Related Agencies Appropriations Act, 2020;   the Department of State, Foreign Operations, and Related Programs Appropriations Act, 2020; and   the Transportation, Housing and Urban Development, and Related Agencies Appropriations Act, 2020.   In addition to providing appropriations, the bill includes legislation that extends several expiring programs and addresses a wide range of policy issues throughout the federal government. ",
                    "summary_short": "Further Consolidated Appropriations Act, 2020  This bill provides FY2020 appropriations for several federal departments and agencies.  It includes 8 of the 12 regular FY2020 appropriations bills:   the Departments of Labor, Health and Human Services, and Education, and Related Agencies Appropriations Act, 2020;   the Agriculture, Rural Development, Food and Drug Administration, and Related Agencies Appropriations Act, 2020;   the Energy and Water Development and Related Agencies Appropriation...",
                    "latest_major_action_date": "2019-12-20",
                    "latest_major_action": "Became Public Law No: 116-94."
                },
                {
                    "congress": "116",
                    "bill_id": "hr2379-116",
                    "bill_type": "hr",
                    "number": "H.R.2379",
                    "bill_uri": "https://api.propublica.org/congress/v1/116/bills/hr2379.json",
                    "title": "To reauthorize the Bulletproof Vest Partnership Grant Program.",
                    "short_title": "To reauthorize the Bulletproof Vest Partnership Grant Program.",
                    "sponsor_title": "Rep.",
                    "sponsor_id": "P000096",
                    "sponsor_name": "Bill Pascrell Jr.",
                    "sponsor_state": "NJ",
                    "sponsor_party": "D",
                    "sponsor_uri": "https://api.propublica.org/congress/v1/members/P000096.json",
                    "gpo_pdf_uri": null,
                    "congressdotgov_url": "https://www.congress.gov/bill/116th-congress/house-bill/2379",
                    "govtrack_url": "https://www.govtrack.us/congress/bills/116/hr2379",
                    "introduced_date": "2019-04-29",
                    "active": true,
                    "last_vote": "2019-05-14",
                    "house_passage": "2019-05-14",
                    "senate_passage": "2019-05-16",
                    "enacted": "2019-05-23",
                    "vetoed": null,
                    "cosponsors": 26,
                    "cosponsors_by_party": {
                        "R": 9,
                        "D": 17
                    },
                    "committees": "House Judiciary Committee",
                    "primary_subject": "Crime and Law Enforcement",
                    "summary": "This bill makes permanent the authority for the Bulletproof Vest Partnership (BVP) Program. The BVP Program provides grants to states and localities to purchase body armor vests for law enforcement officers. Additionally, the bill renames the BVP Program as the Patrick Leahy Bulletproof Vest Partnership Grant Program.",
                    "summary_short": "This bill makes permanent the authority for the Bulletproof Vest Partnership (BVP) Program. The BVP Program provides grants to states and localities to purchase body armor vests for law enforcement officers. Additionally, the bill renames the BVP Program as the Patrick Leahy Bulletproof Vest Partnership Grant Program.",
                    "latest_major_action_date": "2019-05-23",
                    "latest_major_action": "Became Public Law No: 116-18."
                },
                {
                    "congress": "115",
                    "bill_id": "hr6615-115",
                    "bill_type": "hr",
                    "number": "H.R.6615",
                    "bill_uri": "https://api.propublica.org/congress/v1/115/bills/hr6615.json",
                    "title": "To reauthorize the Traumatic Brain Injury program.",
                    "short_title": "Traumatic Brain Injury Program Reauthorization Act of 2018",
                    "sponsor_title": "Rep.",
                    "sponsor_id": "P000096",
                    "sponsor_name": "Bill Pascrell Jr.",
                    "sponsor_state": "NJ",
                    "sponsor_party": "D",
                    "sponsor_uri": "https://api.propublica.org/congress/v1/members/P000096.json",
                    "gpo_pdf_uri": null,
                    "congressdotgov_url": "https://www.congress.gov/bill/115th-congress/house-bill/6615",
                    "govtrack_url": "https://www.govtrack.us/congress/bills/115/hr6615",
                    "introduced_date": "2018-07-26",
                    "active": true,
                    "last_vote": "2018-12-19",
                    "house_passage": "2018-12-19",
                    "senate_passage": "2018-12-18",
                    "enacted": null,
                    "vetoed": null,
                    "cosponsors": 5,
                    "cosponsors_by_party": {
                        "R": 2,
                        "D": 3
                    },
                    "committees": "House Energy and Commerce Committee",
                    "primary_subject": "Health",
                    "summary": "",
                    "summary_short": "",
                    "latest_major_action_date": "2018-12-21",
                    "latest_major_action": "Became Public Law No: 115-377."
                }
            ]
        }
    ]
}
