{
    "status": "OK",
    "copyright": "Copyright (c) 2021 Pro Publica Inc. All Rights Reserved.",
    "results": [
        {
            "id": "R000577",
            "member_uri": "https://api.propublica.org/congress/v1/members/R000577.json",
            "name": "Tim Ryan",
            "num_results": 1,
            "offset": 0,
            "bills": [
                {
                    "congress": "116",
                    "bill_id": "hr5023-116",
                    "bill_type": "hr",
                    "number": "H.R.5023",
                    "bill_uri": "https://api.propublica.org/congress/v1/116/bills/hr5023.json",
                    "title": "To name the Department of Veterans Affairs community-based outpatient clinic in Youngstown, Ohio, as the 'Carl Nunziato VA Clinic'.",
                    "short_title": "To name the Department of Veterans Affairs community-based outpatient clinic in Youngstown, Ohio, as the \"Carl Nunziato VA Clinic\".",
                    "sponsor_title": "Rep.",
                    "sponsor_id": "R000577",
                    "sponsor_name": "Tim Ryan",
                    "sponsor_state": "OH",
                    "sponsor_party": "D",
                    "sponsor_uri": "https://api.propublica.org/congress/v1/members/R000577.json",
                    "gpo_pdf_uri": null,
                    "congressdotgov_url": "https://www.congress.gov/bill/116th-congress/house-bill/5023",
                    "govtrack_url": "https://www.govtrack.us/congress/bills/116/hr5023",
                    "introduced_date": "2019-11-08",
                    "active": true,
                    "last_vote": null,
                    "house_passage": "2020-09-23",
                    "senate_passage": "2020-12-18",
                    "enacted": null,
                    "vetoed": null,
                    "cosponsors": 15,
                    "cosponsors_by_party": {
                        "R": 12,
                        "D": 3
                    },
                    "committees": "House Veterans&#39; Affairs Committee",
                    "primary_subject": "Armed Forces and National Security",
                    "summary": "This bill designates the community-based outpatient clinic of the Department of Veterans Affairs in Youngstown, Ohio, as the Carl Nunziato VA Clinic.",
                    "summary_short": "This bill designates the community-based outpatient clinic of the Department of Veterans Affairs in Youngstown, Ohio, as the Carl Nunziato VA Clinic.",
                    "latest_major_action_date": "2020-12-24",
                    "latest_major_action": "Presented to President."
                }
            ]
        }
    ]
}
