{
    "status": "OK",
    "copyright": "Copyright (c) 2021 Pro Publica Inc. All Rights Reserved.",
    "results": [
        {
            "id": "R000603",
            "member_uri": "https://api.propublica.org/congress/v1/members/R000603.json",
            "name": "David Rouzer",
            "num_results": 2,
            "offset": 0,
            "bills": [
                {
                    "congress": "114",
                    "bill_id": "hr5015-114",
                    "bill_type": "hr",
                    "number": "H.R.5015",
                    "bill_uri": "https://api.propublica.org/congress/v1/114/bills/hr5015.json",
                    "title": "To restore amounts improperly withheld for tax purposes from severance payments to individuals who retired or separated from service in the Armed Forces for combat-related injuries, and for other purposes.",
                    "short_title": "Combat-Injured Veterans Tax Fairness Act of 2016",
                    "sponsor_title": "Rep.",
                    "sponsor_id": "R000603",
                    "sponsor_name": "David Rouzer",
                    "sponsor_state": "NC",
                    "sponsor_party": "R",
                    "sponsor_uri": "https://api.propublica.org/congress/v1/members/R000603.json",
                    "gpo_pdf_uri": null,
                    "congressdotgov_url": "https://www.congress.gov/bill/114th-congress/house-bill/5015",
                    "govtrack_url": "https://www.govtrack.us/congress/bills/114/hr5015",
                    "introduced_date": "2016-04-20",
                    "active": true,
                    "last_vote": "2016-12-05",
                    "house_passage": "2016-12-05",
                    "senate_passage": "2016-12-10",
                    "enacted": "2016-12-15",
                    "vetoed": null,
                    "cosponsors": 33,
                    "cosponsors_by_party": {
                        "R": 33
                    },
                    "committees": "House Armed Services Committee",
                    "primary_subject": "Armed Forces and National Security",
                    "summary": "Combat-Injured Veterans Tax Fairness Act of 2016 (Sec. 3) This bill directs the Department of Defense (DOD), within one year after enactment of this bill, to identify:   certain disability severance payments that were not considered gross income to veterans with combat-related injuries paid after January 17, 1991, from which DOD withheld amounts for tax purposes, and  the individuals to whom such severance payments were made.   DOD shall provide each such veteran with: (1) notice of the amount of improperly withheld severance payments, and (2) instructions for filing amended tax returns to recover such amount. The period for filing a related claim with the Internal Revenue Service for a credit or refund is extended beyond the three-year limitation to the date that is one year after DOD provides the veteran with the information required by this bill.  (Sec. 4) DOD shall ensure that amounts are not withheld for tax purposes from DOD severance payments to individuals when such payments are not considered gross income. (Sec. 5) DOD shall report on: (1) the number of identified individuals, (2) the aggregate amount of payments withheld for tax purposes from such severance payments, and (3) a description of how DOD shall ensure that the withheld amounts will not be considered gross income to the affected individuals.",
                    "summary_short": "Combat-Injured Veterans Tax Fairness Act of 2016 (Sec. 3) This bill directs the Department of Defense (DOD), within one year after enactment of this bill, to identify:   certain disability severance payments that were not considered gross income to veterans with combat-related injuries paid after January 17, 1991, from which DOD withheld amounts for tax purposes, and  the individuals to whom such severance payments were made.   DOD shall provide each such veteran with: (1) notice of the amoun...",
                    "latest_major_action_date": "2016-12-16",
                    "latest_major_action": "Became Public Law No: 114-292."
                },
                {
                    "congress": "114",
                    "bill_id": "hr5883-114",
                    "bill_type": "hr",
                    "number": "H.R.5883",
                    "bill_uri": "https://api.propublica.org/congress/v1/114/bills/hr5883.json",
                    "title": "To amend the Packers and Stockyards Act, 1921, to clarify the duties relating to services furnished in connection with the buying or selling of livestock in commerce through online, video, or other electronic methods, and for other purposes.",
                    "short_title": "Clarification of Treatment of Electronic Sales of Livestock Act of 2016",
                    "sponsor_title": "Rep.",
                    "sponsor_id": "R000603",
                    "sponsor_name": "David Rouzer",
                    "sponsor_state": "NC",
                    "sponsor_party": "R",
                    "sponsor_uri": "https://api.propublica.org/congress/v1/members/R000603.json",
                    "gpo_pdf_uri": null,
                    "congressdotgov_url": "https://www.congress.gov/bill/114th-congress/house-bill/5883",
                    "govtrack_url": "https://www.govtrack.us/congress/bills/114/hr5883",
                    "introduced_date": "2016-07-14",
                    "active": true,
                    "last_vote": null,
                    "house_passage": "2016-09-26",
                    "senate_passage": "2016-09-29",
                    "enacted": "2016-10-03",
                    "vetoed": null,
                    "cosponsors": 12,
                    "cosponsors_by_party": {
                        "R": 11,
                        "D": 1
                    },
                    "committees": "House Agriculture Committee",
                    "primary_subject": "Agriculture and Food",
                    "summary": "(This measure has not been amended since it was reported to the House on September 20, 2016. The summary of that version is repeated here.)Clarification of Treatment of Electronic Sales of Livestock Act of 2016 (Sec. 2) This bill amends the Packers and Stockyards Act, 1921 to expand the definition of \"marketing agency\" to include any person who engages in the business of buying or selling livestock, on a commission or other fee basis, through the use of online, video, or other electronic methods. The term \"marketing agency\" does not include a person whose annual average of online, video, or electronic sales of livestock, on a commission or other fee basis, is less than $250,000. (Sec. 3) The bill also permits electronic funds transfers and other expeditious payment methods that the Department of Agriculture determines to be appropriate to be used as options for meeting prompt payment requirements for livestock purchases. ",
                    "summary_short": "(This measure has not been amended since it was reported to the House on September 20, 2016. The summary of that version is repeated here.)Clarification of Treatment of Electronic Sales of Livestock Act of 2016 (Sec. 2) This bill amends the Packers and Stockyards Act, 1921 to expand the definition of &quot;marketing agency&quot; to include any person who engages in the business of buying or selling livestock, on a commission or other fee basis, through the use of online, video, or other electronic meth...",
                    "latest_major_action_date": "2016-10-07",
                    "latest_major_action": "Became Public Law No: 114-237."
                }
            ]
        }
    ]
}
