{
    "status": "OK",
    "copyright": "Copyright (c) 2021 Pro Publica Inc. All Rights Reserved.",
    "results": [
        {
            "id": "S000033",
            "member_uri": "https://api.propublica.org/congress/v1/members/S000033.json",
            "name": "Bernard Sanders",
            "num_results": 3,
            "offset": 0,
            "bills": [
                {
                    "congress": "116",
                    "bill_id": "sjres7-116",
                    "bill_type": "sjres",
                    "number": "S.J.RES.7",
                    "bill_uri": "https://api.propublica.org/congress/v1/116/bills/sjres7.json",
                    "title": "A joint resolution to direct the removal of United States Armed Forces from hostilities in the Republic of Yemen that have not been authorized by Congress.",
                    "short_title": "A joint resolution to direct the removal of United States Armed Forces from hostilities in the Republic of Yemen that have not been authorized by Congress.",
                    "sponsor_title": "Sen.",
                    "sponsor_id": "S000033",
                    "sponsor_name": "Bernard Sanders",
                    "sponsor_state": "VT",
                    "sponsor_party": "I",
                    "sponsor_uri": "https://api.propublica.org/congress/v1/members/S000033.json",
                    "gpo_pdf_uri": null,
                    "congressdotgov_url": "https://www.congress.gov/bill/116th-congress/senate-joint-resolution/7",
                    "govtrack_url": "https://www.govtrack.us/congress/bills/116/sjres7",
                    "introduced_date": "2019-01-30",
                    "active": true,
                    "last_vote": "2019-05-02",
                    "house_passage": "2019-04-04",
                    "senate_passage": "2019-03-13",
                    "enacted": null,
                    "vetoed": "2019-04-16",
                    "cosponsors": 19,
                    "cosponsors_by_party": {
                        "R": 1,
                        "D": 18
                    },
                    "committees": "Senate Foreign Relations Committee",
                    "primary_subject": "International Affairs",
                    "summary": "This joint resolution directs the President to remove U.S. Armed Forces from hostilities in or affecting Yemen within 30 days unless Congress authorizes a later withdrawal date, issues a declaration of war, or specifically authorizes the use of the Armed Forces. Prohibited activities include providing in-flight fueling for non-U.S. aircraft conducting missions as part of the conflict in Yemen. This joint resolution shall not affect any military operations\u00a0directed at Al Qaeda. The President must\u00a0submit to Congress, within 90 days, reports assessing the risks that would be posed (1)\u00a0if the United States were to cease supporting operations with respect to the conflict in Yemen, and (2)\u00a0if Saudi Arabia were to cease sharing Yemen-related intelligence with the United States. ",
                    "summary_short": "This joint resolution directs the President to remove U.S. Armed Forces from hostilities in or affecting Yemen within 30 days unless Congress authorizes a later withdrawal date, issues a declaration of war, or specifically authorizes the use of the Armed Forces. Prohibited activities include providing in-flight fueling for non-U.S. aircraft conducting missions as part of the conflict in Yemen. This joint resolution shall not affect any military operations\u00a0directed at Al Qaeda. The President m...",
                    "latest_major_action_date": "2019-05-02",
                    "latest_major_action": "Failed of passage in Senate over veto by Yea-Nay Vote. 53 - 45. Record Vote Number: 94."
                },
                {
                    "congress": "113",
                    "bill_id": "s885-113",
                    "bill_type": "s",
                    "number": "S.885",
                    "bill_uri": "https://api.propublica.org/congress/v1/113/bills/s885.json",
                    "title": "A bill to designate the facility of the United States Postal Service located at 35 Park Street in Danville, Vermont, as the 'Thaddeus Stevens Post Office'.",
                    "short_title": "A bill to designate the facility of the United States Postal Service located at 35 Park Street in Danville, Vermont, as the \"Thaddeus Stevens Post Office\".",
                    "sponsor_title": "Sen.",
                    "sponsor_id": "S000033",
                    "sponsor_name": "Bernard Sanders",
                    "sponsor_state": "VT",
                    "sponsor_party": "I",
                    "sponsor_uri": "https://api.propublica.org/congress/v1/members/S000033.json",
                    "gpo_pdf_uri": null,
                    "congressdotgov_url": "https://www.congress.gov/bill/113th-congress/senate-bill/885",
                    "govtrack_url": "https://www.govtrack.us/congress/bills/113/s885",
                    "introduced_date": "2013-05-07",
                    "active": true,
                    "last_vote": null,
                    "house_passage": "2014-11-17",
                    "senate_passage": "2013-08-01",
                    "enacted": "2014-11-19",
                    "vetoed": null,
                    "cosponsors": 1,
                    "cosponsors_by_party": {
                        "D": 1
                    },
                    "committees": "House Oversight and Government Reform Committee",
                    "primary_subject": "Government Operations and Politics",
                    "summary": "(This measure has not been amended since it was introduced. The summary of that version is repeated here.)Designates the facility of the United States Postal Service located at 35 Park Street in Danville, Vermont, as the \"Thaddeus Stevens Post Office.\"",
                    "summary_short": "(This measure has not been amended since it was introduced. The summary of that version is repeated here.)Designates the facility of the United States Postal Service located at 35 Park Street in Danville, Vermont, as the &quot;Thaddeus Stevens Post Office.&quot;",
                    "latest_major_action_date": "2014-11-26",
                    "latest_major_action": "Became Public Law No: 113-189."
                },
                {
                    "congress": "113",
                    "bill_id": "s893-113",
                    "bill_type": "s",
                    "number": "S.893",
                    "bill_uri": "https://api.propublica.org/congress/v1/113/bills/s893.json",
                    "title": "A bill to provide for an increase, effective December 1, 2013, in the rates of compensation for veterans with service-connected disabilities and the rates of dependency and indemnity compensation for the survivors of certain disabled veterans, and for other purposes.",
                    "short_title": "Veterans' Compensation Cost-of-Living Adjustment Act of 2013",
                    "sponsor_title": "Sen.",
                    "sponsor_id": "S000033",
                    "sponsor_name": "Bernard Sanders",
                    "sponsor_state": "VT",
                    "sponsor_party": "I",
                    "sponsor_uri": "https://api.propublica.org/congress/v1/members/S000033.json",
                    "gpo_pdf_uri": null,
                    "congressdotgov_url": "https://www.congress.gov/bill/113th-congress/senate-bill/893",
                    "govtrack_url": "https://www.govtrack.us/congress/bills/113/s893",
                    "introduced_date": "2013-05-08",
                    "active": true,
                    "last_vote": null,
                    "house_passage": "2013-11-12",
                    "senate_passage": "2013-10-28",
                    "enacted": "2013-11-14",
                    "vetoed": null,
                    "cosponsors": 17,
                    "cosponsors_by_party": {
                        "R": 8,
                        "D": 9
                    },
                    "committees": "House Veterans&#39; Affairs Committee",
                    "primary_subject": "Armed Forces and National Security",
                    "summary": "(This measure has not been amended since it was introduced. The summary of that version is repeated here.)  Veterans' Compensation Cost-of-Living Adjustment Act of 2013 - Directs the Secretary of Veterans Affairs (VA) to increase, as of December 1, 2013, the rates of veterans' disability compensation, additional compensation for dependents, the clothing allowance for certain disabled veterans, and dependency and indemnity compensation for surviving spouses and children. Requires each such increase to be the same percentage as the increase in benefits provided under title II (Old Age, Survivors and Disability Insurance) of the Social Security Act, on the same effective date.",
                    "summary_short": "(This measure has not been amended since it was introduced. The summary of that version is repeated here.)  Veterans&#39; Compensation Cost-of-Living Adjustment Act of 2013 - Directs the Secretary of Veterans Affairs (VA) to increase, as of December 1, 2013, the rates of veterans&#39; disability compensation, additional compensation for dependents, the clothing allowance for certain disabled veterans, and dependency and indemnity compensation for surviving spouses and children. Requires each such inc...",
                    "latest_major_action_date": "2013-11-21",
                    "latest_major_action": "Became Public Law No: 113-52."
                }
            ]
        }
    ]
}
