{
    "status": "OK",
    "copyright": "Copyright (c) 2021 Pro Publica Inc. All Rights Reserved.",
    "results": [
        {
            "id": "S001165",
            "member_uri": "https://api.propublica.org/congress/v1/members/S001165.json",
            "name": "Albio Sires",
            "num_results": 1,
            "offset": 0,
            "bills": [
                {
                    "congress": "115",
                    "bill_id": "hr1660-115",
                    "bill_type": "hr",
                    "number": "H.R.1660",
                    "bill_uri": "https://api.propublica.org/congress/v1/115/bills/hr1660.json",
                    "title": "To direct the Administrator of the United States Agency for International Development to submit to Congress a report on the development and use of global health innovations in the programs, projects, and activities of the Agency.",
                    "short_title": "Global Health Innovation Act of 2017",
                    "sponsor_title": "Rep.",
                    "sponsor_id": "S001165",
                    "sponsor_name": "Albio Sires",
                    "sponsor_state": "NJ",
                    "sponsor_party": "D",
                    "sponsor_uri": "https://api.propublica.org/congress/v1/members/S001165.json",
                    "gpo_pdf_uri": null,
                    "congressdotgov_url": "https://www.congress.gov/bill/115th-congress/house-bill/1660",
                    "govtrack_url": "https://www.govtrack.us/congress/bills/115/hr1660",
                    "introduced_date": "2017-03-21",
                    "active": true,
                    "last_vote": "2018-01-18",
                    "house_passage": "2018-01-18",
                    "senate_passage": "2018-12-20",
                    "enacted": null,
                    "vetoed": null,
                    "cosponsors": 19,
                    "cosponsors_by_party": {
                        "R": 8,
                        "D": 11
                    },
                    "committees": "Senate Foreign Relations Committee",
                    "primary_subject": "International Affairs",
                    "summary": "Global Health Innovation Act of 2017  (Sec. 2) This bill directs the Administrator of the U.S. Agency for International Development (USAID) to report to Congress, annually for four years, on the development and use of global health innovations in USAID programs, projects, and activities.  Such reports shall include descriptions of: (1) goals and progress towards their achievement; (2) how innovation has advanced USAID's commitments to achieving an HIV/AIDS-free generation, ending preventable child and maternal deaths, and protecting communities from infectious diseases; (3) how USAID, alone and in partnerships, is leveraging U.S. investments to achieve greater health innovation; and (4) coordination with other federal departments.",
                    "summary_short": "Global Health Innovation Act of 2017  (Sec. 2) This bill directs the Administrator of the U.S. Agency for International Development (USAID) to report to Congress, annually for four years, on the development and use of global health innovations in USAID programs, projects, and activities.  Such reports shall include descriptions of: (1) goals and progress towards their achievement; (2) how innovation has advanced USAID&#39;s commitments to achieving an HIV/AIDS-free generation, ending preventable ...",
                    "latest_major_action_date": "2019-01-03",
                    "latest_major_action": "Became Public Law No: 115-411."
                }
            ]
        }
    ]
}
