{
    "status": "OK",
    "copyright": "Copyright (c) 2021 Pro Publica Inc. All Rights Reserved.",
    "results": [
        {
            "id": "S001177",
            "member_uri": "https://api.propublica.org/congress/v1/members/S001177.json",
            "name": "Gregorio Kilili Camacho Sablan",
            "num_results": 3,
            "offset": 0,
            "bills": [
                {
                    "congress": "116",
                    "bill_id": "hr559-116",
                    "bill_type": "hr",
                    "number": "H.R.559",
                    "bill_uri": "https://api.propublica.org/congress/v1/116/bills/hr559.json",
                    "title": "To amend section 6 of the Joint Resolution entitled 'A Joint Resolution to approve the Covenant To Establish a Commonwealth of the Northern Mariana Islands in Political Union with the United States of America, and for other purposes'.",
                    "short_title": "Northern Mariana Islands Long-Term Legal Residents Relief Act",
                    "sponsor_title": "Del.",
                    "sponsor_id": "S001177",
                    "sponsor_name": "Gregorio Kilili Camacho Sablan",
                    "sponsor_state": "MP",
                    "sponsor_party": "D",
                    "sponsor_uri": "https://api.propublica.org/congress/v1/members/S001177.json",
                    "gpo_pdf_uri": null,
                    "congressdotgov_url": "https://www.congress.gov/bill/116th-congress/house-bill/559",
                    "govtrack_url": "https://www.govtrack.us/congress/bills/116/hr559",
                    "introduced_date": "2019-01-15",
                    "active": true,
                    "last_vote": null,
                    "house_passage": "2019-06-03",
                    "senate_passage": "2019-06-20",
                    "enacted": "2019-06-25",
                    "vetoed": null,
                    "cosponsors": 2,
                    "cosponsors_by_party": {
                        "R": 2
                    },
                    "committees": "House Judiciary Committee",
                    "primary_subject": "Immigration",
                    "summary": "Northern Mariana Islands Long-Term Legal Residents Relief Act This bill grants Commonwealth of the Northern Mariana Islands (CNMI) Resident status to certain aliens who have resided continuously and lawfully in the CNMI since November 28, 2009. An individual with such status shall be (1) authorized to work in the CNMI; (2) issued travel documentation; and (3) inadmissible to the United States at any port of entry outside of the CNMI, with the exception of Guam in certain instances.  To qualify for CNMI Resident status, an alien must meet various requirements, such as having (1) been lawfully present in the CNMI on the date of this bill's enactment or on December 31, 2018; and (2) resided continuously and lawfully in CNMI from November 28, 2009, through this bill's enactment.     ",
                    "summary_short": "Northern Mariana Islands Long-Term Legal Residents Relief Act This bill grants Commonwealth of the Northern Mariana Islands (CNMI) Resident status to certain aliens who have resided continuously and lawfully in the CNMI since November 28, 2009. An individual with such status shall be (1) authorized to work in the CNMI; (2) issued travel documentation; and (3) inadmissible to the United States at any port of entry outside of the CNMI, with the exception of Guam in certain instances.  To qualif...",
                    "latest_major_action_date": "2019-06-25",
                    "latest_major_action": "Became Public Law No: 116-24."
                },
                {
                    "congress": "115",
                    "bill_id": "hr339-115",
                    "bill_type": "hr",
                    "number": "H.R.339",
                    "bill_uri": "https://api.propublica.org/congress/v1/115/bills/hr339.json",
                    "title": "To amend Public Law 94-241 with respect to the Northern Mariana Islands.",
                    "short_title": "Northern Mariana Islands Economic Expansion Act",
                    "sponsor_title": "Del.",
                    "sponsor_id": "S001177",
                    "sponsor_name": "Gregorio Kilili Camacho Sablan",
                    "sponsor_state": "MP",
                    "sponsor_party": "D",
                    "sponsor_uri": "https://api.propublica.org/congress/v1/members/S001177.json",
                    "gpo_pdf_uri": null,
                    "congressdotgov_url": "https://www.congress.gov/bill/115th-congress/house-bill/339",
                    "govtrack_url": "https://www.govtrack.us/congress/bills/115/hr339",
                    "introduced_date": "2017-01-05",
                    "active": true,
                    "last_vote": null,
                    "house_passage": "2017-01-30",
                    "senate_passage": "2017-08-01",
                    "enacted": "2017-08-22",
                    "vetoed": null,
                    "cosponsors": 0,
                    "cosponsors_by_party": {},
                    "committees": "Senate Energy and Natural Resources Committee",
                    "primary_subject": "Immigration",
                    "summary": "Northern Mariana Islands Economic Expansion Act  (Sec. 2) This bill revises Commonwealth of the Northern Mariana Islands (CNMI) transitional worker (CW-1 visa) provisions. The supplemental vocational education fee charged to a prospective CNMI employer for each transitional worker is increased from $150 to $200.  Construction occupation permits may be issued only to extend permits issued before October 1, 2015, except that for FY2017, an additional 350 permits shall be made available with at least 60 reserved for health care practitioners and technical operations and at least 10 reserved for plant and system operators.",
                    "summary_short": "Northern Mariana Islands Economic Expansion Act  (Sec. 2) This bill revises Commonwealth of the Northern Mariana Islands (CNMI) transitional worker (CW-1 visa) provisions. The supplemental vocational education fee charged to a prospective CNMI employer for each transitional worker is increased from $150 to $200.  Construction occupation permits may be issued only to extend permits issued before October 1, 2015, except that for FY2017, an additional 350 permits shall be made available with at ...",
                    "latest_major_action_date": "2017-08-22",
                    "latest_major_action": "Became Public Law No: 115-53."
                },
                {
                    "congress": "114",
                    "bill_id": "hr5889-114",
                    "bill_type": "hr",
                    "number": "H.R.5889",
                    "bill_uri": "https://api.propublica.org/congress/v1/114/bills/hr5889.json",
                    "title": "To designate the facility of the United States Postal Service located at 1 Chalan Kanoa VLG in Saipan, Northern Mariana Islands, as the 'Segundo T. Sablan and CNMI Fallen Military Heroes Post Office Building'.",
                    "short_title": "To designate the facility of the United States Postal Service located at 1 Chalan Kanoa VLG in Saipan, Northern Mariana Islands, as the \"Segundo T. Sablan and CNMI Fallen Military Heroes Post Office Building\".",
                    "sponsor_title": "Del.",
                    "sponsor_id": "S001177",
                    "sponsor_name": "Gregorio Kilili Camacho Sablan",
                    "sponsor_state": "MP",
                    "sponsor_party": "D",
                    "sponsor_uri": "https://api.propublica.org/congress/v1/members/S001177.json",
                    "gpo_pdf_uri": null,
                    "congressdotgov_url": "https://www.congress.gov/bill/114th-congress/house-bill/5889",
                    "govtrack_url": "https://www.govtrack.us/congress/bills/114/hr5889",
                    "introduced_date": "2016-07-14",
                    "active": true,
                    "last_vote": null,
                    "house_passage": "2016-09-20",
                    "senate_passage": "2016-12-10",
                    "enacted": "2016-12-14",
                    "vetoed": null,
                    "cosponsors": 0,
                    "cosponsors_by_party": {},
                    "committees": "Senate Homeland Security and Governmental Affairs Committee",
                    "primary_subject": "Government Operations and Politics",
                    "summary": "(This measure has not been amended since it was introduced. The summary of that version is repeated here.) Designates the facility of the United States Postal Service located at 1 Chalan Kanoa VLG in Saipan, Northern Mariana Islands, as the \"Segundo T. Sablan and CNMI Fallen Military Heroes Post Office Building.\"",
                    "summary_short": "(This measure has not been amended since it was introduced. The summary of that version is repeated here.) Designates the facility of the United States Postal Service located at 1 Chalan Kanoa VLG in Saipan, Northern Mariana Islands, as the &quot;Segundo T. Sablan and CNMI Fallen Military Heroes Post Office Building.&quot;",
                    "latest_major_action_date": "2016-12-16",
                    "latest_major_action": "Became Public Law No: 114-305."
                }
            ]
        }
    ]
}
