{
    "status": "OK",
    "copyright": "Copyright (c) 2021 Pro Publica Inc. All Rights Reserved.",
    "results": [
        {
            "id": "S001156",
            "member_uri": "https://api.propublica.org/congress/v1/members/S001156.json",
            "name": "Linda T. S\u00e1nchez",
            "num_results": 1,
            "offset": 0,
            "bills": [
                {
                    "congress": "116",
                    "bill_id": "hr3144-116",
                    "bill_type": "hr",
                    "number": "H.R.3144",
                    "bill_uri": "https://api.propublica.org/congress/v1/116/bills/hr3144.json",
                    "title": "To designate the facility of the United States Postal Service located at 8520 Michigan Avenue in Whittier, California, as the 'Jose Ramos Post Office Building'.",
                    "short_title": "To designate the facility of the United States Postal Service located at 8520 Michigan Avenue in Whittier, California, as the \"Jose Ramos Post Office Building\".",
                    "sponsor_title": "Rep.",
                    "sponsor_id": "S001156",
                    "sponsor_name": "Linda T. S\u00e1nchez",
                    "sponsor_state": "CA",
                    "sponsor_party": "D",
                    "sponsor_uri": "https://api.propublica.org/congress/v1/members/S001156.json",
                    "gpo_pdf_uri": null,
                    "congressdotgov_url": "https://www.congress.gov/bill/116th-congress/house-bill/3144",
                    "govtrack_url": "https://www.govtrack.us/congress/bills/116/hr3144",
                    "introduced_date": "2019-06-05",
                    "active": true,
                    "last_vote": null,
                    "house_passage": "2019-10-16",
                    "senate_passage": "2019-11-21",
                    "enacted": "2019-12-13",
                    "vetoed": null,
                    "cosponsors": 52,
                    "cosponsors_by_party": {
                        "D": 45,
                        "R": 7
                    },
                    "committees": "Senate Homeland Security and Governmental Affairs Committee",
                    "primary_subject": "Government Operations and Politics",
                    "summary": "Designates the facility of the United States Postal Service located at 8520 Michigan Avenue in Whittier, California, as the \"Jose Ramos Post Office Building.\"",
                    "summary_short": "Designates the facility of the United States Postal Service located at 8520 Michigan Avenue in Whittier, California, as the &quot;Jose Ramos Post Office Building.&quot;",
                    "latest_major_action_date": "2019-12-13",
                    "latest_major_action": "Became Public Law No: 116-89."
                }
            ]
        }
    ]
}
