{
    "status": "OK",
    "copyright": "Copyright (c) 2021 Pro Publica Inc. All Rights Reserved.",
    "results": [
        {
            "id": "S001209",
            "member_uri": "https://api.propublica.org/congress/v1/members/S001209.json",
            "name": "Abigail Spanberger",
            "num_results": 1,
            "offset": 0,
            "bills": [
                {
                    "congress": "116",
                    "bill_id": "hr4975-116",
                    "bill_type": "hr",
                    "number": "H.R.4975",
                    "bill_uri": "https://api.propublica.org/congress/v1/116/bills/hr4975.json",
                    "title": "To designate the facility of the United States Postal Service located at 1201 Sycamore Square Drive in Midlothian, Virginia, as the 'Dorothy Braden Bruce Post Office Building'.",
                    "short_title": "To designate the facility of the United States Postal Service located at 1201 Sycamore Square Drive in Midlothian, Virginia, as the \"Dorothy Braden Bruce Post Office Building\".",
                    "sponsor_title": "Rep.",
                    "sponsor_id": "S001209",
                    "sponsor_name": "Abigail Spanberger",
                    "sponsor_state": "VA",
                    "sponsor_party": "D",
                    "sponsor_uri": "https://api.propublica.org/congress/v1/members/S001209.json",
                    "gpo_pdf_uri": null,
                    "congressdotgov_url": "https://www.congress.gov/bill/116th-congress/house-bill/4975",
                    "govtrack_url": "https://www.govtrack.us/congress/bills/116/hr4975",
                    "introduced_date": "2019-11-01",
                    "active": true,
                    "last_vote": null,
                    "house_passage": "2020-09-14",
                    "senate_passage": "2020-12-03",
                    "enacted": "2020-12-17",
                    "vetoed": null,
                    "cosponsors": 10,
                    "cosponsors_by_party": {
                        "R": 4,
                        "D": 6
                    },
                    "committees": "Senate Homeland Security and Governmental Affairs Committee",
                    "primary_subject": "Government Operations and Politics",
                    "summary": "Designates the facility of the United States Postal Service located at 1201 Sycamore Square Drive in Midlothian, Virginia, as the \"Dorothy Braden Bruce Post Office Building.\"",
                    "summary_short": "Designates the facility of the United States Postal Service located at 1201 Sycamore Square Drive in Midlothian, Virginia, as the &quot;Dorothy Braden Bruce Post Office Building.&quot;",
                    "latest_major_action_date": "2020-12-17",
                    "latest_major_action": "Became Public Law No: 116-218."
                }
            ]
        }
    ]
}
