{
    "status": "OK",
    "copyright": "Copyright (c) 2021 Pro Publica Inc. All Rights Reserved.",
    "results": [
        {
            "id": "S001185",
            "member_uri": "https://api.propublica.org/congress/v1/members/S001185.json",
            "name": "Terri Sewell",
            "num_results": 5,
            "offset": 0,
            "bills": [
                {
                    "congress": "116",
                    "bill_id": "hr5307-116",
                    "bill_type": "hr",
                    "number": "H.R.5307",
                    "bill_uri": "https://api.propublica.org/congress/v1/116/bills/hr5307.json",
                    "title": "To designate the facility of the United States Postal Service located at 115 Nicol Avenue in Thomasville, Alabama, as the 'Postmaster Robert Ingram Sr. Post Office'.",
                    "short_title": "To designate the facility of the United States Postal Service located at 115 Nicol Avenue in Thomasville, Alabama, as the \"Postmaster Robert Ingram Post Office\".",
                    "sponsor_title": "Rep.",
                    "sponsor_id": "S001185",
                    "sponsor_name": "Terri Sewell",
                    "sponsor_state": "AL",
                    "sponsor_party": "D",
                    "sponsor_uri": "https://api.propublica.org/congress/v1/members/S001185.json",
                    "gpo_pdf_uri": null,
                    "congressdotgov_url": "https://www.congress.gov/bill/116th-congress/house-bill/5307",
                    "govtrack_url": "https://www.govtrack.us/congress/bills/116/hr5307",
                    "introduced_date": "2019-12-05",
                    "active": true,
                    "last_vote": null,
                    "house_passage": "2020-09-30",
                    "senate_passage": "2020-12-03",
                    "enacted": "2020-12-17",
                    "vetoed": null,
                    "cosponsors": 6,
                    "cosponsors_by_party": {
                        "R": 6
                    },
                    "committees": "Senate Homeland Security and Governmental Affairs Committee",
                    "primary_subject": "Government Operations and Politics",
                    "summary": "Designates the facility of the United States Postal Service located at 115 Nicol Avenue in Thomasville, Alabama, as the \"Postmaster Robert Ingram Post Office.\"",
                    "summary_short": "Designates the facility of the United States Postal Service located at 115 Nicol Avenue in Thomasville, Alabama, as the &quot;Postmaster Robert Ingram Post Office.&quot;",
                    "latest_major_action_date": "2020-12-17",
                    "latest_major_action": "Became Public Law No: 116-220."
                },
                {
                    "congress": "116",
                    "bill_id": "hr991-116",
                    "bill_type": "hr",
                    "number": "H.R.991",
                    "bill_uri": "https://api.propublica.org/congress/v1/116/bills/hr991.json",
                    "title": "To extend certain provisions of the Caribbean Basin Economic Recovery Act until September 30, 2030, and for other purposes.",
                    "short_title": "Extension of the Caribbean Basin Economic Recovery Act",
                    "sponsor_title": "Rep.",
                    "sponsor_id": "S001185",
                    "sponsor_name": "Terri Sewell",
                    "sponsor_state": "AL",
                    "sponsor_party": "D",
                    "sponsor_uri": "https://api.propublica.org/congress/v1/members/S001185.json",
                    "gpo_pdf_uri": null,
                    "congressdotgov_url": "https://www.congress.gov/bill/116th-congress/house-bill/991",
                    "govtrack_url": "https://www.govtrack.us/congress/bills/116/hr991",
                    "introduced_date": "2019-02-06",
                    "active": true,
                    "last_vote": null,
                    "house_passage": "2020-09-22",
                    "senate_passage": "2020-09-30",
                    "enacted": "2020-10-10",
                    "vetoed": null,
                    "cosponsors": 26,
                    "cosponsors_by_party": {
                        "R": 9,
                        "D": 17
                    },
                    "committees": "Senate Finance Committee",
                    "primary_subject": "Foreign Trade and International Finance",
                    "summary": "Extension of the Caribbean Basin Economic Recovery Act  This bill extends preferential duty treatment for certain apparel items produced in the Caribbean Basin through FY2030, and it extends the date through which certain merchandise processing fees may be charged through October 21, 2029.",
                    "summary_short": "Extension of the Caribbean Basin Economic Recovery Act  This bill extends preferential duty treatment for certain apparel items produced in the Caribbean Basin through FY2030, and it extends the date through which certain merchandise processing fees may be charged through October 21, 2029.",
                    "latest_major_action_date": "2020-10-10",
                    "latest_major_action": "Became Public Law No: 116-164."
                },
                {
                    "congress": "114",
                    "bill_id": "hr4777-114",
                    "bill_type": "hr",
                    "number": "H.R.4777",
                    "bill_uri": "https://api.propublica.org/congress/v1/114/bills/hr4777.json",
                    "title": "To designate the facility of the United States Postal Service located at 1301 Alabama Avenue in Selma, Alabama as the 'Amelia Boynton Robinson Post Office Building'.",
                    "short_title": "To designate the facility of the United States Postal Service located at 1301 Alabama Avenue in Selma, Alabama as the \"Amelia Boynton Robinson Post Office Building\".",
                    "sponsor_title": "Rep.",
                    "sponsor_id": "S001185",
                    "sponsor_name": "Terri Sewell",
                    "sponsor_state": "AL",
                    "sponsor_party": "D",
                    "sponsor_uri": "https://api.propublica.org/congress/v1/members/S001185.json",
                    "gpo_pdf_uri": null,
                    "congressdotgov_url": "https://www.congress.gov/bill/114th-congress/house-bill/4777",
                    "govtrack_url": "https://www.govtrack.us/congress/bills/114/hr4777",
                    "introduced_date": "2016-03-17",
                    "active": true,
                    "last_vote": null,
                    "house_passage": "2016-06-21",
                    "senate_passage": "2016-07-14",
                    "enacted": "2016-07-19",
                    "vetoed": null,
                    "cosponsors": 6,
                    "cosponsors_by_party": {
                        "R": 6
                    },
                    "committees": "Senate Homeland Security and Governmental Affairs Committee",
                    "primary_subject": "Government Operations and Politics",
                    "summary": "(This measure has not been amended since it was introduced. The summary of that version is repeated here.) Designates the facility of the United States Postal Service located at 1301 Alabama Avenue in Selma, Alabama, as the \"Amelia Boynton Robinson Post Office Building.\"",
                    "summary_short": "(This measure has not been amended since it was introduced. The summary of that version is repeated here.) Designates the facility of the United States Postal Service located at 1301 Alabama Avenue in Selma, Alabama, as the &quot;Amelia Boynton Robinson Post Office Building.&quot;",
                    "latest_major_action_date": "2016-07-29",
                    "latest_major_action": "Became Public Law No: 114-208."
                },
                {
                    "congress": "114",
                    "bill_id": "hr431-114",
                    "bill_type": "hr",
                    "number": "H.R.431",
                    "bill_uri": "https://api.propublica.org/congress/v1/114/bills/hr431.json",
                    "title": "To award a Congressional Gold Medal to the Foot Soldiers who participated in Bloody Sunday, Turnaround Tuesday, or the final Selma to Montgomery Voting Rights March in March of 1965, which served as a catalyst for the Voting Rights Act of 1965.",
                    "short_title": "To award a Congressional Gold Medal to the Foot Soldiers who participated in Bloody Sunday, Turnaround Tuesday, or the final Selma to Montgomery Voting Rights March in March of 1965, which served as a catalyst for the Voting Rights Act of 1965.",
                    "sponsor_title": "Rep.",
                    "sponsor_id": "S001185",
                    "sponsor_name": "Terri Sewell",
                    "sponsor_state": "AL",
                    "sponsor_party": "D",
                    "sponsor_uri": "https://api.propublica.org/congress/v1/members/S001185.json",
                    "gpo_pdf_uri": null,
                    "congressdotgov_url": "https://www.congress.gov/bill/114th-congress/house-bill/431",
                    "govtrack_url": "https://www.govtrack.us/congress/bills/114/hr431",
                    "introduced_date": "2015-01-21",
                    "active": true,
                    "last_vote": "2015-02-11",
                    "house_passage": "2015-02-11",
                    "senate_passage": "2015-03-02",
                    "enacted": "2015-03-04",
                    "vetoed": null,
                    "cosponsors": 303,
                    "cosponsors_by_party": {
                        "R": 115,
                        "D": 188
                    },
                    "committees": "Senate Banking, Housing, and Urban Affairs Committee",
                    "primary_subject": "Civil Rights and Liberties, Minority Issues",
                    "summary": "(This measure has not been amended since it was introduced. The expanded summary of the House passed version is repeated here.) (Sec. 2) This bill directs the Speaker of the House and the President Pro Tempore of the Senate to arrange for the presentation, on behalf of Congress, of a gold medal to the Foot Soldiers who participated in Bloody Sunday, Turnaround Tuesday, or the final Selma to Montgomery Voting Rights March during March of 1965, which served as a catalyst for the Voting Rights Act of 1965.  (Sec. 4) The medals struck pursuant to this Act are national medals.",
                    "summary_short": "(This measure has not been amended since it was introduced. The expanded summary of the House passed version is repeated here.) (Sec. 2) This bill directs the Speaker of the House and the President Pro Tempore of the Senate to arrange for the presentation, on behalf of Congress, of a gold medal to the Foot Soldiers who participated in Bloody Sunday, Turnaround Tuesday, or the final Selma to Montgomery Voting Rights March during March of 1965, which served as a catalyst for the Voting Rights A...",
                    "latest_major_action_date": "2015-03-07",
                    "latest_major_action": "Became Public Law No: 114-5."
                },
                {
                    "congress": "113",
                    "bill_id": "hr360-113",
                    "bill_type": "hr",
                    "number": "H.R.360",
                    "bill_uri": "https://api.propublica.org/congress/v1/113/bills/hr360.json",
                    "title": "To award posthumously a Congressional Gold Medal to Addie Mae Collins, Denise McNair, Carole Robertson, and Cynthia Wesley, in recognition of the 50th commemoration of the bombing of the Sixteenth Street Baptist Church where the 4 little Black girls lost their lives, which served as a catalyst for the Civil Rights Movement.",
                    "short_title": "To award posthumously a Congressional Gold Medal to Addie Mae Collins, Denise McNair, Carole Robertson, and Cynthia Wesley to commemorate the lives they lost 50 years ago in the bombing of the Sixteenth Street Baptist Church, where these 4 little Black gi",
                    "sponsor_title": "Rep.",
                    "sponsor_id": "S001185",
                    "sponsor_name": "Terri Sewell",
                    "sponsor_state": "AL",
                    "sponsor_party": "D",
                    "sponsor_uri": "https://api.propublica.org/congress/v1/members/S001185.json",
                    "gpo_pdf_uri": null,
                    "congressdotgov_url": "https://www.congress.gov/bill/113th-congress/house-bill/360",
                    "govtrack_url": "https://www.govtrack.us/congress/bills/113/hr360",
                    "introduced_date": "2013-01-23",
                    "active": true,
                    "last_vote": "2013-04-24",
                    "house_passage": "2013-04-24",
                    "senate_passage": "2013-05-09",
                    "enacted": "2013-05-15",
                    "vetoed": null,
                    "cosponsors": 301,
                    "cosponsors_by_party": {
                        "R": 96,
                        "D": 205
                    },
                    "committees": "House Financial Services Committee",
                    "primary_subject": "Civil Rights and Liberties, Minority Issues",
                    "summary": "(This measure has not been amended since it was passed by the House on April 24, 2013. The summary of that version is repeated here.)  Directs the Speaker of the House of Representatives and the President pro tempore of the Senate to arrange for the presentation of a congressional gold medal to commemorate the lives of Addie Mae Collins, Denise McNair, Carole Robertson, and Cynthia Wesley (children who lost their lives in the September 1963 bombing of the Sixteenth Street Baptist Church in Birmingham, Alabama, an incident recognized as a catalyst for the civil rights movement).  Requires such medal to be given to the Birmingham Civil Rights Institute in Birmingham, AL, where it shall be available for display or temporary loan to other appropriate places.  Authorizes the Secretary of the Treasury to strike and sell bronze duplicates of such medal, with amounts received from the sale to be deposited in the U.S. Mint Public Enterprise Fund. ",
                    "summary_short": "(This measure has not been amended since it was passed by the House on April 24, 2013. The summary of that version is repeated here.)  Directs the Speaker of the House of Representatives and the President pro tempore of the Senate to arrange for the presentation of a congressional gold medal to commemorate the lives of Addie Mae Collins, Denise McNair, Carole Robertson, and Cynthia Wesley (children who lost their lives in the September 1963 bombing of the Sixteenth Street Baptist Church in Bi...",
                    "latest_major_action_date": "2013-05-24",
                    "latest_major_action": "Became Public Law No: 113-11."
                }
            ]
        }
    ]
}
