{
    "status": "OK",
    "copyright": "Copyright (c) 2021 Pro Publica Inc. All Rights Reserved.",
    "results": [
        {
            "id": "T000165",
            "member_uri": "https://api.propublica.org/congress/v1/members/T000165.json",
            "name": "Tom Tiffany",
            "num_results": 0,
            "offset": 0,
            "bills": []
        }
    ]
}
