{
    "status": "OK",
    "copyright": "Copyright (c) 2021 Pro Publica Inc. All Rights Reserved.",
    "results": [
        {
            "id": "T000250",
            "member_uri": "https://api.propublica.org/congress/v1/members/T000250.json",
            "name": "John Thune",
            "num_results": 10,
            "offset": 0,
            "bills": [
                {
                    "congress": "116",
                    "bill_id": "s151-116",
                    "bill_type": "s",
                    "number": "S.151",
                    "bill_uri": "https://api.propublica.org/congress/v1/116/bills/s151.json",
                    "title": "A bill to deter criminal robocall violations and improve enforcement of section 227(b) of the Communications Act of 1934, and for other purposes.",
                    "short_title": "Pallone-Thune TRACED Act",
                    "sponsor_title": "Sen.",
                    "sponsor_id": "T000250",
                    "sponsor_name": "John Thune",
                    "sponsor_state": "SD",
                    "sponsor_party": "R",
                    "sponsor_uri": "https://api.propublica.org/congress/v1/members/T000250.json",
                    "gpo_pdf_uri": null,
                    "congressdotgov_url": "https://www.congress.gov/bill/116th-congress/senate-bill/151",
                    "govtrack_url": "https://www.govtrack.us/congress/bills/116/s151",
                    "introduced_date": "2019-01-16",
                    "active": true,
                    "last_vote": "2019-12-04",
                    "house_passage": "2019-12-04",
                    "senate_passage": "2019-05-23",
                    "enacted": "2019-12-30",
                    "vetoed": null,
                    "cosponsors": 84,
                    "cosponsors_by_party": {
                        "D": 42,
                        "R": 40,
                        "ID": 2
                    },
                    "committees": "House Energy and Commerce Committee",
                    "primary_subject": "Science, Technology, Communications",
                    "summary": "Telephone Robocall Abuse Criminal Enforcement and Deterrence Act or the TRACED Act This bill implements a forfeiture penalty for violations (with or without intent) of the prohibition on certain robocalls. The bill also removes an annual reporting requirement for enforcement relating to unsolicited facsimile advertisements. The bill requires voice service providers to develop call authentication technologies.  The Federal Communications Commission (FCC) shall promulgate rules establishing when a provider may block a voice call based on information provided by the call authentication framework, but also must establish a process to permit a calling party adversely affected by the framework to verify the authenticity of their calls. The FCC shall also initiate a rulemaking to help protect a subscriber from receiving unwanted calls or texts from a caller using an unauthenticated number.  This bill requires the Department of Justice and the FCC to assemble an interagency working group to study and report to Congress on the enforcement of the prohibition of certain robocalls. Specifically, the working group will look into how to better enforce against robocalls by examining issues like the types of laws, policies, or constraints that could be inhibiting enforcement.  The bill requires the FCC to initiate a proceeding to determine whether its policies regarding access to number resources could be modified to help reduce access to numbers by potential robocall violators.",
                    "summary_short": "Telephone Robocall Abuse Criminal Enforcement and Deterrence Act or the TRACED Act This bill implements a forfeiture penalty for violations (with or without intent) of the prohibition on certain robocalls. The bill also removes an annual reporting requirement for enforcement relating to unsolicited facsimile advertisements. The bill requires voice service providers to develop call authentication technologies.  The Federal Communications Commission (FCC) shall promulgate rules establishing whe...",
                    "latest_major_action_date": "2019-12-30",
                    "latest_major_action": "Became Public Law No: 116-105."
                },
                {
                    "congress": "115",
                    "bill_id": "s2200-115",
                    "bill_type": "s",
                    "number": "S.2200",
                    "bill_uri": "https://api.propublica.org/congress/v1/115/bills/s2200.json",
                    "title": "A bill to reauthorize the National Integrated Drought Information System, and for other purposes.",
                    "short_title": "National Integrated Drought Information System Reauthorization Act of 2018",
                    "sponsor_title": "Sen.",
                    "sponsor_id": "T000250",
                    "sponsor_name": "John Thune",
                    "sponsor_state": "SD",
                    "sponsor_party": "R",
                    "sponsor_uri": "https://api.propublica.org/congress/v1/members/T000250.json",
                    "gpo_pdf_uri": null,
                    "congressdotgov_url": "https://www.congress.gov/bill/115th-congress/senate-bill/2200",
                    "govtrack_url": "https://www.govtrack.us/congress/bills/115/s2200",
                    "introduced_date": "2017-12-06",
                    "active": true,
                    "last_vote": "2018-12-20",
                    "house_passage": "2018-12-20",
                    "senate_passage": "2018-12-18",
                    "enacted": null,
                    "vetoed": null,
                    "cosponsors": 2,
                    "cosponsors_by_party": {
                        "D": 1,
                        "R": 1
                    },
                    "committees": "Senate Commerce, Science, and Transportation Committee",
                    "primary_subject": "Science, Technology, Communications",
                    "summary": "National Integrated Drought Information System Reauthorization Act of 2018 This bill reauthorizes through FY2023 and modifies the National Integrated Drought Information System (NIDIS) Program.  The bill amends the National Integrated Drought Information System Act of 2006 to require, under NIDIS, that the collection and integration of information on the key indicators of drought and drought impacts includes indicators of precipitation, soil moisture, and evaporative demand. NIDIS shall also:   provide timely data, information, and products that reflect watershed differences in drought conditions;  through interagency agreements, coordinate and integrate future federal research and monitoring in support of a drought early warning information system; utilize existing forecasting and assessment programs and partnerships, including forecast communication coordinators and cooperative institutes, and improvements in seasonal, subseasonal, and low flow water prediction; and  continue ongoing research and monitoring activities related to drought, including research activities relating to the prediction of drought.   NIDIS may:  engage with the private sector to improve drought forecast and communication if the National Oceanic and Atmospheric Administration determines such partnership is appropriate, cost-effective, and beneficial to the public and the decision-makers specified in the Act; and  facilitate the development of one or more academic cooperative partnerships to assist with NIDIS functions.  NIDIS shall develop a strategy for a national coordinated soil moisture monitoring network.   The bill amends the Food Security Act of 1985 to extend through FY2023 certain activities related to the provision of agricultural and silvicultural weather and climate information.",
                    "summary_short": "National Integrated Drought Information System Reauthorization Act of 2018 This bill reauthorizes through FY2023 and modifies the National Integrated Drought Information System (NIDIS) Program.  The bill amends the National Integrated Drought Information System Act of 2006 to require, under NIDIS, that the collection and integration of information on the key indicators of drought and drought impacts includes indicators of precipitation, soil moisture, and evaporative demand. NIDIS shall also:...",
                    "latest_major_action_date": "2019-01-07",
                    "latest_major_action": "Became Public Law No: 115-423."
                },
                {
                    "congress": "115",
                    "bill_id": "s3367-115",
                    "bill_type": "s",
                    "number": "S.3367",
                    "bill_uri": "https://api.propublica.org/congress/v1/115/bills/s3367.json",
                    "title": "A bill to amend certain transportation-related reporting requirements to improve congressional oversight, reduce reporting burdens, and promote transparency, and for other purposes.",
                    "short_title": "Department of Transportation Reports Harmonization Act",
                    "sponsor_title": "Sen.",
                    "sponsor_id": "T000250",
                    "sponsor_name": "John Thune",
                    "sponsor_state": "SD",
                    "sponsor_party": "R",
                    "sponsor_uri": "https://api.propublica.org/congress/v1/members/T000250.json",
                    "gpo_pdf_uri": null,
                    "congressdotgov_url": "https://www.congress.gov/bill/115th-congress/senate-bill/3367",
                    "govtrack_url": "https://www.govtrack.us/congress/bills/115/s3367",
                    "introduced_date": "2018-08-22",
                    "active": true,
                    "last_vote": "2018-12-21",
                    "house_passage": "2018-12-21",
                    "senate_passage": "2018-12-18",
                    "enacted": null,
                    "vetoed": null,
                    "cosponsors": 0,
                    "cosponsors_by_party": {},
                    "committees": "Senate Commerce, Science, and Transportation Committee",
                    "primary_subject": "Transportation and Public Works",
                    "summary": "",
                    "summary_short": "",
                    "latest_major_action_date": "2019-01-03",
                    "latest_major_action": "Became Public Law No: 115-420."
                },
                {
                    "congress": "115",
                    "bill_id": "s35-115",
                    "bill_type": "s",
                    "number": "S.35",
                    "bill_uri": "https://api.propublica.org/congress/v1/115/bills/s35.json",
                    "title": "A bill to transfer administrative jurisdiction over certain Bureau of Land Management land from the Secretary of the Interior to the Secretary of Veterans Affairs for inclusion in the Black Hills National Cemetery, and for other purposes.",
                    "short_title": "Black Hills National Cemetery Boundary Expansion Act",
                    "sponsor_title": "Sen.",
                    "sponsor_id": "T000250",
                    "sponsor_name": "John Thune",
                    "sponsor_state": "SD",
                    "sponsor_party": "R",
                    "sponsor_uri": "https://api.propublica.org/congress/v1/members/T000250.json",
                    "gpo_pdf_uri": null,
                    "congressdotgov_url": "https://www.congress.gov/bill/115th-congress/senate-bill/35",
                    "govtrack_url": "https://www.govtrack.us/congress/bills/115/s35",
                    "introduced_date": "2017-01-05",
                    "active": true,
                    "last_vote": "2018-05-16",
                    "house_passage": "2018-05-16",
                    "senate_passage": "2017-12-21",
                    "enacted": "2018-05-25",
                    "vetoed": null,
                    "cosponsors": 2,
                    "cosponsors_by_party": {
                        "R": 2
                    },
                    "committees": "House Veterans&#39; Affairs Committee",
                    "primary_subject": "Public Lands and Natural Resources",
                    "summary": "Black Hills National Cemetery Boundary Expansion Act  (Sec. 3) This bill directs the Department of Veterans Affairs (VA) to: (1) complete environmental, cultural resource, and other due diligence activities on certain federal land to confirm its suitability for inclusion in the Black Hills National Cemetery, South Dakota; and (2) notify, and coordinate with, the Department of the Interior regarding such activities.  After completion of such activities and upon receipt by Interior of written confirmation of suitability from the VA, the land shall: (1) be withdrawn from all forms of appropriation under the public land laws, including the mining laws, the mineral leasing laws, and the geothermal leasing laws, for as long as it remains under VA administrative jurisdiction; (2) be treated as property; and (3) be transferred, except for the land within 100 feet of the center of the Centennial Trail, from Interior to the VA for use as a national cemetery.  Interior shall publish a notice containing the legal descriptions of such transferred land.  The VA shall reimburse Interior for reasonable transfer costs, including survey costs.   The cemetery's boundary is modified to include such federal land.",
                    "summary_short": "Black Hills National Cemetery Boundary Expansion Act  (Sec. 3) This bill directs the Department of Veterans Affairs (VA) to: (1) complete environmental, cultural resource, and other due diligence activities on certain federal land to confirm its suitability for inclusion in the Black Hills National Cemetery, South Dakota; and (2) notify, and coordinate with, the Department of the Interior regarding such activities.  After completion of such activities and upon receipt by Interior of written c...",
                    "latest_major_action_date": "2018-05-25",
                    "latest_major_action": "Became Public Law No: 115-175."
                },
                {
                    "congress": "115",
                    "bill_id": "s1532-115",
                    "bill_type": "s",
                    "number": "S.1532",
                    "bill_uri": "https://api.propublica.org/congress/v1/115/bills/s1532.json",
                    "title": "A bill to disqualify from operating a commercial motor vehicle for life an individual who uses a commercial motor vehicle in committing a felony involving human trafficking.",
                    "short_title": "No Human Trafficking on Our Roads Act",
                    "sponsor_title": "Sen.",
                    "sponsor_id": "T000250",
                    "sponsor_name": "John Thune",
                    "sponsor_state": "SD",
                    "sponsor_party": "R",
                    "sponsor_uri": "https://api.propublica.org/congress/v1/members/T000250.json",
                    "gpo_pdf_uri": null,
                    "congressdotgov_url": "https://www.congress.gov/bill/115th-congress/senate-bill/1532",
                    "govtrack_url": "https://www.govtrack.us/congress/bills/115/s1532",
                    "introduced_date": "2017-07-12",
                    "active": true,
                    "last_vote": "2017-12-21",
                    "house_passage": "2017-12-21",
                    "senate_passage": "2017-09-14",
                    "enacted": "2018-01-08",
                    "vetoed": null,
                    "cosponsors": 6,
                    "cosponsors_by_party": {
                        "D": 3,
                        "R": 3
                    },
                    "committees": "House Transportation and Infrastructure Committee",
                    "primary_subject": "Transportation and Public Works",
                    "summary": "No Human Trafficking on Our Roads Act (Sec. 2) This bill directs the Department of Transportation to disqualify from operating a commercial motor vehicle for life an individual who uses such a vehicle in committing a felony involving a severe form of human trafficking.",
                    "summary_short": "No Human Trafficking on Our Roads Act (Sec. 2) This bill directs the Department of Transportation to disqualify from operating a commercial motor vehicle for life an individual who uses such a vehicle in committing a felony involving a severe form of human trafficking.",
                    "latest_major_action_date": "2018-01-08",
                    "latest_major_action": "Became Public Law No: 115-106."
                },
                {
                    "congress": "114",
                    "bill_id": "s3395-114",
                    "bill_type": "s",
                    "number": "S.3395",
                    "bill_uri": "https://api.propublica.org/congress/v1/114/bills/s3395.json",
                    "title": "A bill to require limitations on prescribed burns.",
                    "short_title": "Prescribed Burn Approval Act of 2016",
                    "sponsor_title": "Sen.",
                    "sponsor_id": "T000250",
                    "sponsor_name": "John Thune",
                    "sponsor_state": "SD",
                    "sponsor_party": "R",
                    "sponsor_uri": "https://api.propublica.org/congress/v1/members/T000250.json",
                    "gpo_pdf_uri": null,
                    "congressdotgov_url": "https://www.congress.gov/bill/114th-congress/senate-bill/3395",
                    "govtrack_url": "https://www.govtrack.us/congress/bills/114/s3395",
                    "introduced_date": "2016-09-27",
                    "active": true,
                    "last_vote": null,
                    "house_passage": "2016-12-05",
                    "senate_passage": "2016-11-17",
                    "enacted": "2016-12-07",
                    "vetoed": null,
                    "cosponsors": 1,
                    "cosponsors_by_party": {
                        "D": 1
                    },
                    "committees": "House Natural Resources Committee",
                    "primary_subject": "Public Lands and Natural Resources",
                    "summary": "(This measure has not been amended since it was introduced. The expanded summary of the Senate passed version is repeated here.) Prescribed Burn Approval Act of 2016 (Sec. 3) This bill prohibits the Forest Service from authorizing a prescribed burn (i.e., a planned fire intentionally ignited) on Forest Service land if, for the county or contiguous county in which such land is located, the national fire danger rating system is indicating an extreme fire danger level.  Nonetheless, the Forest Service may authorize a prescribed burn under such a condition if it coordinates with the applicable state government and local fire officials.  At the end of every fiscal year, the Forest Service shall submit a report that describes:   the number and locations of prescribed burns during that fiscal year, and  each prescribed burn during that year that was authorized by the Forest Service as an exception under this bill.   ",
                    "summary_short": "(This measure has not been amended since it was introduced. The expanded summary of the Senate passed version is repeated here.) Prescribed Burn Approval Act of 2016 (Sec. 3) This bill prohibits the Forest Service from authorizing a prescribed burn (i.e., a planned fire intentionally ignited) on Forest Service land if, for the county or contiguous county in which such land is located, the national fire danger rating system is indicating an extreme fire danger level.  Nonetheless, the Forest S...",
                    "latest_major_action_date": "2016-12-14",
                    "latest_major_action": "Became Public Law No: 114-275."
                },
                {
                    "congress": "114",
                    "bill_id": "s304-114",
                    "bill_type": "s",
                    "number": "S.304",
                    "bill_uri": "https://api.propublica.org/congress/v1/114/bills/s304.json",
                    "title": "A bill to improve motor vehicle safety by encouraging the sharing of certain information.",
                    "short_title": "Conscience Protection Act of 2016",
                    "sponsor_title": "Sen.",
                    "sponsor_id": "T000250",
                    "sponsor_name": "John Thune",
                    "sponsor_state": "SD",
                    "sponsor_party": "R",
                    "sponsor_uri": "https://api.propublica.org/congress/v1/members/T000250.json",
                    "gpo_pdf_uri": null,
                    "congressdotgov_url": "https://www.congress.gov/bill/114th-congress/senate-bill/304",
                    "govtrack_url": "https://www.govtrack.us/congress/bills/114/s304",
                    "introduced_date": "2015-01-29",
                    "active": true,
                    "last_vote": "2016-07-13",
                    "house_passage": "2016-07-13",
                    "senate_passage": "2015-04-28",
                    "enacted": null,
                    "vetoed": null,
                    "cosponsors": 7,
                    "cosponsors_by_party": {
                        "D": 4,
                        "R": 3
                    },
                    "committees": "House Energy and Commerce Committee",
                    "primary_subject": "Transportation and Public Works",
                    "summary": "Conscience Protection Act of 2016 (Sec. 3) This bill amends the Public Health Service Act to codify the prohibition against the federal government and state and local governments that receive federal financial assistance for health-related activities penalizing or discriminating against a health care provider based on the provider's refusal to be involved in, or provide coverage for, abortion. Health care providers include health care professionals, health care facilities, social services providers, health care professional training programs, and health insurers. The Office for Civil Rights of the Department of Health and Human Services, in coordination with the Department of Justice (DOJ), must investigate complaints alleging discrimination based on an individual's religious belief, moral conviction, or refusal to be involved in an abortion. DOJ or any entity adversely affected by such discrimination may obtain equitable or legal relief in a civil action. Administrative remedies do not need to be sought or exhausted prior to commencing an action or granting relief. Such an action may be brought against a governmental entity.",
                    "summary_short": "Conscience Protection Act of 2016 (Sec. 3) This bill amends the Public Health Service Act to codify the prohibition against the federal government and state and local governments that receive federal financial assistance for health-related activities penalizing or discriminating against a health care provider based on the provider&#39;s refusal to be involved in, or provide coverage for, abortion. Health care providers include health care professionals, health care facilities, social services pro...",
                    "latest_major_action_date": "2016-07-14",
                    "latest_major_action": "Message on House action received in Senate and at desk: House amendment to Senate bill."
                },
                {
                    "congress": "114",
                    "bill_id": "s1461-114",
                    "bill_type": "s",
                    "number": "S.1461",
                    "bill_uri": "https://api.propublica.org/congress/v1/114/bills/s1461.json",
                    "title": "A bill to provide for the extension of the enforcement instruction on supervision requirements for outpatient therapeutic services in critical access and small rural hospitals through 2015.",
                    "short_title": "A bill to provide for the extension of the enforcement instruction on supervision requirements for outpatient therapeutic services in critical access and small rural hospitals through 2015.",
                    "sponsor_title": "Sen.",
                    "sponsor_id": "T000250",
                    "sponsor_name": "John Thune",
                    "sponsor_state": "SD",
                    "sponsor_party": "R",
                    "sponsor_uri": "https://api.propublica.org/congress/v1/members/T000250.json",
                    "gpo_pdf_uri": null,
                    "congressdotgov_url": "https://www.congress.gov/bill/114th-congress/senate-bill/1461",
                    "govtrack_url": "https://www.govtrack.us/congress/bills/114/s1461",
                    "introduced_date": "2015-05-22",
                    "active": true,
                    "last_vote": null,
                    "house_passage": "2015-12-08",
                    "senate_passage": "2015-09-10",
                    "enacted": "2015-12-09",
                    "vetoed": null,
                    "cosponsors": 7,
                    "cosponsors_by_party": {
                        "D": 5,
                        "R": 2
                    },
                    "committees": "House Energy and Commerce Committee",
                    "primary_subject": "Health",
                    "summary": "(This measure has not been amended since it was reported to the Senate on July 30, 2015. The summary of that version is repeated here.) (Sec. 1) This bill requires the Department of Health and Human Services to continue to instruct Medicare contractors not to enforce requirements for direct physician supervision of outpatient therapeutic services in critical access and small rural hospitals through 2015.",
                    "summary_short": "(This measure has not been amended since it was reported to the Senate on July 30, 2015. The summary of that version is repeated here.) (Sec. 1) This bill requires the Department of Health and Human Services to continue to instruct Medicare contractors not to enforce requirements for direct physician supervision of outpatient therapeutic services in critical access and small rural hospitals through 2015.",
                    "latest_major_action_date": "2015-12-18",
                    "latest_major_action": "Became Public Law No: 114-112."
                },
                {
                    "congress": "114",
                    "bill_id": "s808-114",
                    "bill_type": "s",
                    "number": "S.808",
                    "bill_uri": "https://api.propublica.org/congress/v1/114/bills/s808.json",
                    "title": "A bill to establish the Surface Transportation Board as an independent establishment, and for other purposes.",
                    "short_title": "Surface Transportation Board Reauthorization Act of 2015",
                    "sponsor_title": "Sen.",
                    "sponsor_id": "T000250",
                    "sponsor_name": "John Thune",
                    "sponsor_state": "SD",
                    "sponsor_party": "R",
                    "sponsor_uri": "https://api.propublica.org/congress/v1/members/T000250.json",
                    "gpo_pdf_uri": null,
                    "congressdotgov_url": "https://www.congress.gov/bill/114th-congress/senate-bill/808",
                    "govtrack_url": "https://www.govtrack.us/congress/bills/114/s808",
                    "introduced_date": "2015-03-19",
                    "active": true,
                    "last_vote": null,
                    "house_passage": "2015-12-10",
                    "senate_passage": "2015-06-18",
                    "enacted": "2015-12-15",
                    "vetoed": null,
                    "cosponsors": 1,
                    "cosponsors_by_party": {
                        "D": 1
                    },
                    "committees": "House Transportation and Infrastructure Committee",
                    "primary_subject": "Transportation and Public Works",
                    "summary": "(This measure has not been amended since it was introduced. The expanded summary of the Senate reported version is repeated here.) Surface Transportation Board Reauthorization Act of 2015  (Sec. 3) Removes the Surface Transportation Board from the Department of Transportation (DOT) to establish it as an independent U.S. agency. Repeals the requirement that DOT provide administrative support for the Board.  (Sec. 4) Increases Board membership from three to five members. Increases from two to three the minimum number of Board members who must have professional standing and demonstrated knowledge in the fields of transportation, transportation regulation, or economic regulation. Increases from one to two the minimum number of Board members who must have professional or business experience (including agriculture) in the private sector. (Sec. 5) Authorizes a majority of Board members to hold a meeting not open to the public to discuss official business if:    no formal or informal vote or other official agency action is taken,   each individual present is a Board member or employee, and   the Board's General Counsel is present.   Requires the Board to disclose topics and participants within two business days after any non-public meeting, unless the discussion relates to an ongoing proceeding, in which case the required disclosure is postponed till the date of the final Board decision.  (Sec. 6) Requires the Board to:   establish a database of rail service complaints it has received, and  post quarterly reports of rail rate reasonableness cases as well as rail service complaints it has received on its website.  (Sec. 7) Reauthorizes appropriations for FY2016-FY2020 for the Board. (Sec. 8) Allows a rail carrier's agent to be located outside of Washington, DC.  (Sec. 9) Grants the DOT Inspector General authority to review only the financial management, property management, and business operations of the Board to determine its compliance with federal laws, rules, and regulations. Authorizes appropriations. (Sec. 11) Requires the Board to:    maintain one or more simplified and expedited methods for determining the reasonableness of challenged rail rates in cases where a full stand-alone cost presentation is too costly, given the value of the case; and   maintain procedures to ensure expeditious handling of challenges to the reasonableness of rail rates.  Prescribes time limits for Board review of rail rate reasonableness cases, including:  150 days for discovery, 155 days for development of the evidentiary record, 60 days for submission of a closing brief, and 180 days for a final Board decision.   Authorizes the Board to extend a timeline after a request from any party or in the interest of due process. Repeals certain rail service contract limitations involving the transportation of agricultural commodities. (Sec. 12) Authorizes the Board to investigate rail carrier and pipeline carrier violations on its own initiative as well as on complaint (as under existing law). Prescribes requirements for investigations commenced on the Board's own initiative. (Sec. 13) Requires the Board to establish a voluntary binding arbitration process to resolve rail rate and practice disputes. (Sec. 14) Directs the Government Accountability Office to study rail rate contract proposals containing multiple origin-to-destination movements. (Sec. 15) Directs the Board to report to Congress on whether:   current large rate case methodologies are sufficient, not unduly complex, and cost effective; and sound economic alternative methodologies exist, or could be developed, to streamline and expedite large rate cases.   Requires the Board to make quarterly reports to Congress on its progress toward addressing the issues raised in each unfinished regulatory proceeding, regardless of whether the proceeding is subject to a statutory or regulatory deadline.  (Sec. 16) Requires Board standards and procedures for establishing revenue levels for rail carriers to be adequate for the infrastructure and investment needed to meet the present and future demand for rail services. (Sec. 17) Declares that nothing in this Act may be construed to affect any suit commenced by or against the Board, or any proceeding or challenge pending before it, before the enactment of this Act. ",
                    "summary_short": "(This measure has not been amended since it was introduced. The expanded summary of the Senate reported version is repeated here.) Surface Transportation Board Reauthorization Act of 2015  (Sec. 3) Removes the Surface Transportation Board from the Department of Transportation (DOT) to establish it as an independent U.S. agency. Repeals the requirement that DOT provide administrative support for the Board.  (Sec. 4) Increases Board membership from three to five members. Increases from two to t...",
                    "latest_major_action_date": "2015-12-18",
                    "latest_major_action": "Became Public Law No: 114-110."
                },
                {
                    "congress": "113",
                    "bill_id": "s2086-113",
                    "bill_type": "s",
                    "number": "S.2086",
                    "bill_uri": "https://api.propublica.org/congress/v1/113/bills/s2086.json",
                    "title": "A bill to address current emergency shortages of propane and other home heating fuels and to provide greater flexibility and information for Governors to address such emergencies in the future.",
                    "short_title": "Reliable Home Heating Act",
                    "sponsor_title": "Sen.",
                    "sponsor_id": "T000250",
                    "sponsor_name": "John Thune",
                    "sponsor_state": "SD",
                    "sponsor_party": "R",
                    "sponsor_uri": "https://api.propublica.org/congress/v1/members/T000250.json",
                    "gpo_pdf_uri": null,
                    "congressdotgov_url": "https://www.congress.gov/bill/113th-congress/senate-bill/2086",
                    "govtrack_url": "https://www.govtrack.us/congress/bills/113/s2086",
                    "introduced_date": "2014-03-06",
                    "active": true,
                    "last_vote": null,
                    "house_passage": "2014-06-23",
                    "senate_passage": "2014-05-21",
                    "enacted": "2014-06-25",
                    "vetoed": null,
                    "cosponsors": 9,
                    "cosponsors_by_party": {
                        "D": 3,
                        "R": 6
                    },
                    "committees": "House Transportation and Infrastructure Committee",
                    "primary_subject": "Transportation and Public Works",
                    "summary": "(This measure has not been amended since it was reported to the Senate on May 20, 2014. The summary of that version is repeated here.) Reliable Home Heating Act - Directs the Federal Motor Carrier Safety Administration (FMCSA) to recognize any 30-day emergency period declared by a state governor due to a shortage of residential heating fuel (and up to two additional 30-day periods) as one during which FMCSA federal motor carrier safety regulations shall not apply to any motor carrier or driver operating a commercial motor vehicle providing residential heating fuel in a geographic area designated as under a state of emergency. Defines the term \"residential heating fuel\" to include heating oil, natural gas, and propane. Directs the Administrator of the Energy Information Administration, using data compiled from the Administration's Weekly Petroleum Status Reports, to notify the governor of each state in a Petroleum Administration for Defense District if that district's inventory of residential heating fuel has been below the most recent five-year average for more than three consecutive weeks. Directs the Secretary of Transportation (DOT) to study the impacts on safety from the extension of exemptions issued by the state governors.",
                    "summary_short": "(This measure has not been amended since it was reported to the Senate on May 20, 2014. The summary of that version is repeated here.) Reliable Home Heating Act - Directs the Federal Motor Carrier Safety Administration (FMCSA) to recognize any 30-day emergency period declared by a state governor due to a shortage of residential heating fuel (and up to two additional 30-day periods) as one during which FMCSA federal motor carrier safety regulations shall not apply to any motor carrier or drive...",
                    "latest_major_action_date": "2014-06-30",
                    "latest_major_action": "Became Public Law No: 113-125."
                }
            ]
        }
    ]
}
