{
    "status": "OK",
    "copyright": "Copyright (c) 2021 Pro Publica Inc. All Rights Reserved.",
    "results": [
        {
            "id": "W000817",
            "member_uri": "https://api.propublica.org/congress/v1/members/W000817.json",
            "name": "Elizabeth Warren",
            "num_results": 1,
            "offset": 0,
            "bills": [
                {
                    "congress": "116",
                    "bill_id": "s693-116",
                    "bill_type": "s",
                    "number": "S.693",
                    "bill_uri": "https://api.propublica.org/congress/v1/116/bills/s693.json",
                    "title": "A bill to amend title 36, United States Code, to require that the POW/MIA flag be displayed on all days that the flag of the United States is displayed on certain Federal property.",
                    "short_title": "National POW/MIA Flag Act",
                    "sponsor_title": "Sen.",
                    "sponsor_id": "W000817",
                    "sponsor_name": "Elizabeth Warren",
                    "sponsor_state": "MA",
                    "sponsor_party": "D",
                    "sponsor_uri": "https://api.propublica.org/congress/v1/members/W000817.json",
                    "gpo_pdf_uri": null,
                    "congressdotgov_url": "https://www.congress.gov/bill/116th-congress/senate-bill/693",
                    "govtrack_url": "https://www.govtrack.us/congress/bills/116/s693",
                    "introduced_date": "2019-03-07",
                    "active": true,
                    "last_vote": null,
                    "house_passage": "2019-10-22",
                    "senate_passage": "2019-05-02",
                    "enacted": "2019-11-07",
                    "vetoed": null,
                    "cosponsors": 7,
                    "cosponsors_by_party": {
                        "R": 4,
                        "D": 3
                    },
                    "committees": "House Judiciary Committee",
                    "primary_subject": "Government Operations and Politics",
                    "summary": "National POW/MIA Flag Act The bill changes the days on which the POW/MIA flag is required to be displayed at specified locations to all days on which the U.S. flag is displayed. (Current law requires the POW/MIA flag to be displayed only on Armed Forces Day, Memorial Day, Flag Day, Independence Day, National POW/MIA Recognition Day, and Veterans Day.) ",
                    "summary_short": "National POW/MIA Flag Act The bill changes the days on which the POW/MIA flag is required to be displayed at specified locations to all days on which the U.S. flag is displayed. (Current law requires the POW/MIA flag to be displayed only on Armed Forces Day, Memorial Day, Flag Day, Independence Day, National POW/MIA Recognition Day, and Veterans Day.) ",
                    "latest_major_action_date": "2019-11-07",
                    "latest_major_action": "Became Public Law No: 116-67."
                }
            ]
        }
    ]
}
