{
    "status": "OK",
    "copyright": "Copyright (c) 2021 Pro Publica Inc. All Rights Reserved.",
    "results": [
        {
            "id": "W000437",
            "member_uri": "https://api.propublica.org/congress/v1/members/W000437.json",
            "name": "Roger Wicker",
            "num_results": 8,
            "offset": 0,
            "bills": [
                {
                    "congress": "116",
                    "bill_id": "s914-116",
                    "bill_type": "s",
                    "number": "S.914",
                    "bill_uri": "https://api.propublica.org/congress/v1/116/bills/s914.json",
                    "title": "A bill to reauthorize the Integrated Coastal and Ocean Observation System Act of 2009, to clarify the authority of the Administrator of the National Oceanic and Atmospheric Administration with respect to post-storm assessments, and to require the establishment of a National Water Center, and for other purposes.",
                    "short_title": "Coordinated Ocean Observations and Research Act of 2020",
                    "sponsor_title": "Sen.",
                    "sponsor_id": "W000437",
                    "sponsor_name": "Roger Wicker",
                    "sponsor_state": "MS",
                    "sponsor_party": "R",
                    "sponsor_uri": "https://api.propublica.org/congress/v1/members/W000437.json",
                    "gpo_pdf_uri": null,
                    "congressdotgov_url": "https://www.congress.gov/bill/116th-congress/senate-bill/914",
                    "govtrack_url": "https://www.govtrack.us/congress/bills/116/s914",
                    "introduced_date": "2019-03-27",
                    "active": true,
                    "last_vote": null,
                    "house_passage": "2020-12-03",
                    "senate_passage": "2020-07-30",
                    "enacted": null,
                    "vetoed": null,
                    "cosponsors": 3,
                    "cosponsors_by_party": {
                        "D": 2,
                        "R": 1
                    },
                    "committees": "House Financial Services Committee",
                    "primary_subject": "Public Lands and Natural Resources",
                    "summary": "Coordinated Ocean Observations and Research Act of 2020 This bill reauthorizes through FY2025 and revises the Integrated Coastal and Ocean Observation System (IOOS), which is a network of federal and regional entities that provide information about the nation's coasts, oceans, and Great Lakes, as well as new tools and forecasts to improve safety, enhance the economy, and protect the environment. The bill revises the authority of the National Oceanic and Atmospheric Administration (NOAA) to conduct scientific assessments related to storms, including to (1) direct NOAA to seek public input before the Named Storm Event Model (the official meteorological and oceanographic computerized model which utilizes data to replicate the magnitude, timing, and spatial variations of winds, rainfall, and storm surges associated with named storms for which post-storm assessments are conducted) takes effect, and (2) allow NOAA to deploy sensors to areas in coastal states that are at the highest risk of experiencing geophysical events that would cause indeterminate losses. The bill provides statutory authority for NOAA's National Water Center. (The center currently exists at NOAA as the research and operational center of excellence for hydrologic analyses, forecasting, and related decision support services.) Additionally, the bill directs the National Weather Service (NWS) to make a policy directive for the National Water Center publicly available. The NWS must also (1) initiate and lead all research and development activities to develop operational water resource prediction and related decision support products, (2) collaborate with relevant state and federal agencies regarding total water prediction, and (3) collaboratively develop capabilities necessary for total water predictive capacity. ",
                    "summary_short": "Coordinated Ocean Observations and Research Act of 2020 This bill reauthorizes through FY2025 and revises the Integrated Coastal and Ocean Observation System (IOOS), which is a network of federal and regional entities that provide information about the nation&#39;s coasts, oceans, and Great Lakes, as well as new tools and forecasts to improve safety, enhance the economy, and protect the environment. The bill revises the authority of the National Oceanic and Atmospheric Administration (NOAA) to co...",
                    "latest_major_action_date": "2020-12-21",
                    "latest_major_action": "Presented to President."
                },
                {
                    "congress": "116",
                    "bill_id": "s910-116",
                    "bill_type": "s",
                    "number": "S.910",
                    "bill_uri": "https://api.propublica.org/congress/v1/116/bills/s910.json",
                    "title": "A bill to reauthorize and amend the National Sea Grant College Program Act, and for other purposes.",
                    "short_title": "National Sea Grant College Program Amendments Act of 2020",
                    "sponsor_title": "Sen.",
                    "sponsor_id": "W000437",
                    "sponsor_name": "Roger Wicker",
                    "sponsor_state": "MS",
                    "sponsor_party": "R",
                    "sponsor_uri": "https://api.propublica.org/congress/v1/members/W000437.json",
                    "gpo_pdf_uri": null,
                    "congressdotgov_url": "https://www.congress.gov/bill/116th-congress/senate-bill/910",
                    "govtrack_url": "https://www.govtrack.us/congress/bills/116/s910",
                    "introduced_date": "2019-03-27",
                    "active": true,
                    "last_vote": null,
                    "house_passage": "2020-11-16",
                    "senate_passage": "2020-09-30",
                    "enacted": "2020-12-18",
                    "vetoed": null,
                    "cosponsors": 5,
                    "cosponsors_by_party": {
                        "D": 3,
                        "R": 2
                    },
                    "committees": "Senate Commerce, Science, and Transportation Committee",
                    "primary_subject": "Public Lands and Natural Resources",
                    "summary": "National Sea Grant College Program Amendments Act of 2020 This bill reauthorizes through FY2024 and revises the National Sea Grant College Program, through which the National Oceanic and Atmospheric Administration (NOAA)supports university-based programs that focus on studying, conserving, and effectively using U.S. coastal resources. Among other things, the bill requires NOAA to award Dean John A. Knauss Marine Policy Fellowships. Currently, NOAA has discretion in awarding such fellowships. The fellowships support the placement of graduate students in fields related to ocean, coastal, and Great Lakes resources in positions with the executive and legislative branches. The bill reauthorizes through FY2024 grants for (1) university research on the biology, prevention, and control of aquatic nonnative species; (2) university research on oyster diseases, oyster restoration, and oyster-related human health risks; (3) university research on the biology, prevention, and forecasting of harmful algal blooms; and (4) fishery extension activities conducted by sea grant colleges or sea grant institutes to enhance existing core program funding. The bill authorizes grants for (1) priority issues identified in the National Sea Grant Program's strategic plan, and (2) university research on sustainable aquaculture techniques and technologies.",
                    "summary_short": "National Sea Grant College Program Amendments Act of 2020 This bill reauthorizes through FY2024 and revises the National Sea Grant College Program, through which the National Oceanic and Atmospheric Administration (NOAA)supports university-based programs that focus on studying, conserving, and effectively using U.S. coastal resources. Among other things, the bill requires NOAA to award Dean John A. Knauss Marine Policy Fellowships. Currently, NOAA has discretion in awarding such fellowships. ...",
                    "latest_major_action_date": "2020-12-18",
                    "latest_major_action": "Became Public Law No: 116-221."
                },
                {
                    "congress": "116",
                    "bill_id": "s1822-116",
                    "bill_type": "s",
                    "number": "S.1822",
                    "bill_uri": "https://api.propublica.org/congress/v1/116/bills/s1822.json",
                    "title": "A bill to require the Federal Communications Commission to issue rules relating to the collection of data with respect to the availability of broadband services, and for other purposes.",
                    "short_title": "Broadband DATA Act",
                    "sponsor_title": "Sen.",
                    "sponsor_id": "W000437",
                    "sponsor_name": "Roger Wicker",
                    "sponsor_state": "MS",
                    "sponsor_party": "R",
                    "sponsor_uri": "https://api.propublica.org/congress/v1/members/W000437.json",
                    "gpo_pdf_uri": null,
                    "congressdotgov_url": "https://www.congress.gov/bill/116th-congress/senate-bill/1822",
                    "govtrack_url": "https://www.govtrack.us/congress/bills/116/s1822",
                    "introduced_date": "2019-06-12",
                    "active": true,
                    "last_vote": null,
                    "house_passage": "2020-03-03",
                    "senate_passage": "2019-12-19",
                    "enacted": "2020-03-23",
                    "vetoed": null,
                    "cosponsors": 69,
                    "cosponsors_by_party": {
                        "D": 32,
                        "R": 35,
                        "ID": 2
                    },
                    "committees": "Senate Commerce, Science, and Transportation Committee",
                    "primary_subject": "Science, Technology, Communications",
                    "summary": "Broadband Deployment Accuracy and Technological Availability Act or the Broadband DATA Act This bill requires the Federal Communications Commission (FCC) to change the way broadband data is collected, verified, and reported. Specifically, the FCC must collect and disseminate granular broadband service availability data (broadband maps) from wired, fixed-wireless, satellite, and mobile\u00a0broadband providers. To do this, the FCC is required to establish the Broadband Serviceable Location Fabric (a dataset of geocoded information for all broadband service locations, atop which broadband maps are overlaid) as the vehicle for reporting broadband service availability data. Additionally, the FCC must put forth specified requirements for service availability data collected from broadband providers, and it must create a challenge process to enable the submission of independent data challenging the accuracy of FCC broadband maps.  The FCC must conduct regular audits of information submitted by providers, and it must develop a process whereby entities or individuals may submit information about the deployment and availability of broadband service to verify and supplement information submitted by providers. The FCC must also provide data collection and submission assistance to Indian tribes; small service providers; consumers; and state, local, and tribal governments. The Government Accountability Office must report on identified locations where fixed broadband can be installed to improve the quality and completeness of data sources for the fabric.",
                    "summary_short": "Broadband Deployment Accuracy and Technological Availability Act or the Broadband DATA Act This bill requires the Federal Communications Commission (FCC) to change the way broadband data is collected, verified, and reported. Specifically, the FCC must collect and disseminate granular broadband service availability data (broadband maps) from wired, fixed-wireless, satellite, and mobile\u00a0broadband providers. To do this, the FCC is required to establish the Broadband Serviceable Location Fabric (...",
                    "latest_major_action_date": "2020-03-23",
                    "latest_major_action": "Became Public Law No: 116-130."
                },
                {
                    "congress": "115",
                    "bill_id": "s7-115",
                    "bill_type": "s",
                    "number": "S.7",
                    "bill_uri": "https://api.propublica.org/congress/v1/115/bills/s7.json",
                    "title": "A bill to amend title 51, United States Code, to extend the authority of the National Aeronautics and Space Administration to enter into leases of non-excess property of the Administration.",
                    "short_title": "NASA Enhanced Use Leasing Extension Act of 2018",
                    "sponsor_title": "Sen.",
                    "sponsor_id": "W000437",
                    "sponsor_name": "Roger Wicker",
                    "sponsor_state": "MS",
                    "sponsor_party": "R",
                    "sponsor_uri": "https://api.propublica.org/congress/v1/members/W000437.json",
                    "gpo_pdf_uri": null,
                    "congressdotgov_url": "https://www.congress.gov/bill/115th-congress/senate-bill/7",
                    "govtrack_url": "https://www.govtrack.us/congress/bills/115/s7",
                    "introduced_date": "2018-11-27",
                    "active": true,
                    "last_vote": "2018-12-20",
                    "house_passage": "2018-12-20",
                    "senate_passage": "2018-12-06",
                    "enacted": null,
                    "vetoed": null,
                    "cosponsors": 0,
                    "cosponsors_by_party": {},
                    "committees": "Senate Commerce, Science, and Transportation Committee",
                    "primary_subject": "Science, Technology, Communications",
                    "summary": "",
                    "summary_short": "",
                    "latest_major_action_date": "2018-12-31",
                    "latest_major_action": "Became Public Law No: 115-403."
                },
                {
                    "congress": "115",
                    "bill_id": "s1520-115",
                    "bill_type": "s",
                    "number": "S.1520",
                    "bill_uri": "https://api.propublica.org/congress/v1/115/bills/s1520.json",
                    "title": "A bill to expand recreational fishing opportunities through enhanced marine fishery conservation and management, and for other purposes.",
                    "short_title": "Modernizing Recreational Fisheries Management Act of 2018",
                    "sponsor_title": "Sen.",
                    "sponsor_id": "W000437",
                    "sponsor_name": "Roger Wicker",
                    "sponsor_state": "MS",
                    "sponsor_party": "R",
                    "sponsor_uri": "https://api.propublica.org/congress/v1/members/W000437.json",
                    "gpo_pdf_uri": null,
                    "congressdotgov_url": "https://www.congress.gov/bill/115th-congress/senate-bill/1520",
                    "govtrack_url": "https://www.govtrack.us/congress/bills/115/s1520",
                    "introduced_date": "2017-07-10",
                    "active": true,
                    "last_vote": "2018-12-19",
                    "house_passage": "2018-12-19",
                    "senate_passage": "2018-12-17",
                    "enacted": null,
                    "vetoed": null,
                    "cosponsors": 18,
                    "cosponsors_by_party": {
                        "D": 9,
                        "R": 9
                    },
                    "committees": "Senate Commerce, Science, and Transportation Committee",
                    "primary_subject": "Public Lands and Natural Resources",
                    "summary": "",
                    "summary_short": "",
                    "latest_major_action_date": "2018-12-31",
                    "latest_major_action": "Became Public Law No: 115-405."
                },
                {
                    "congress": "115",
                    "bill_id": "s2511-115",
                    "bill_type": "s",
                    "number": "S.2511",
                    "bill_uri": "https://api.propublica.org/congress/v1/115/bills/s2511.json",
                    "title": "A bill to require the Under Secretary of Commerce for Oceans and Atmosphere to carry out a program on coordinating the assessment and acquisition by the National Oceanic and Atmospheric Administration of unmanned maritime systems, to make available to the public data collected by the Administration using such systems, and for other purposes.",
                    "short_title": "CENOTE Act of 2018",
                    "sponsor_title": "Sen.",
                    "sponsor_id": "W000437",
                    "sponsor_name": "Roger Wicker",
                    "sponsor_state": "MS",
                    "sponsor_party": "R",
                    "sponsor_uri": "https://api.propublica.org/congress/v1/members/W000437.json",
                    "gpo_pdf_uri": null,
                    "congressdotgov_url": "https://www.congress.gov/bill/115th-congress/senate-bill/2511",
                    "govtrack_url": "https://www.govtrack.us/congress/bills/115/s2511",
                    "introduced_date": "2018-03-07",
                    "active": true,
                    "last_vote": null,
                    "house_passage": "2018-12-10",
                    "senate_passage": "2018-08-23",
                    "enacted": null,
                    "vetoed": null,
                    "cosponsors": 1,
                    "cosponsors_by_party": {
                        "D": 1
                    },
                    "committees": "House Natural Resources Committee",
                    "primary_subject": "Transportation and Public Works",
                    "summary": "Commercial Engagement Through Ocean Technology Act of 2018 or the CENOTE Act of 2018 This bill directs the National Oceanic and Atmospheric Administration (NOAA)to establish a joint program office within the Office of Oceanic and Atmospheric Research and the Office of Marine and Aviation Operations to coordinate the acquisition and assessment of unmanned maritime systems. NOAA must coordinate with the Department of the Navy to leverage expertise in the development and operational transition of unmanned maritime systems. It may also coordinate with other federal agencies, the academic sector, and the private sector to maximize research opportunities and to support commercialization of unmanned maritime systems.",
                    "summary_short": "Commercial Engagement Through Ocean Technology Act of 2018 or the CENOTE Act of 2018 This bill directs the National Oceanic and Atmospheric Administration (NOAA)to establish a joint program office within the Office of Oceanic and Atmospheric Research and the Office of Marine and Aviation Operations to coordinate the acquisition and assessment of unmanned maritime systems. NOAA must coordinate with the Department of the Navy to leverage expertise in the development and operational transition o...",
                    "latest_major_action_date": "2018-12-21",
                    "latest_major_action": "Became Public Law No: 115-394."
                },
                {
                    "congress": "114",
                    "bill_id": "s764-114",
                    "bill_type": "s",
                    "number": "S.764",
                    "bill_uri": "https://api.propublica.org/congress/v1/114/bills/s764.json",
                    "title": "A bill to reauthorize and amend the National Sea Grant College Program Act, and for other purposes.",
                    "short_title": "A bill to reauthorize and amend the National Sea Grant College Program Act, and for other purposes.",
                    "sponsor_title": "Sen.",
                    "sponsor_id": "W000437",
                    "sponsor_name": "Roger Wicker",
                    "sponsor_state": "MS",
                    "sponsor_party": "R",
                    "sponsor_uri": "https://api.propublica.org/congress/v1/members/W000437.json",
                    "gpo_pdf_uri": null,
                    "congressdotgov_url": "https://www.congress.gov/bill/114th-congress/senate-bill/764",
                    "govtrack_url": "https://www.govtrack.us/congress/bills/114/s764",
                    "introduced_date": "2015-03-17",
                    "active": true,
                    "last_vote": "2016-07-14",
                    "house_passage": "2016-07-14",
                    "senate_passage": "2015-07-28",
                    "enacted": "2016-07-19",
                    "vetoed": null,
                    "cosponsors": 3,
                    "cosponsors_by_party": {
                        "D": 2,
                        "R": 1
                    },
                    "committees": "House Natural Resources Committee",
                    "primary_subject": "Agriculture and Food",
                    "summary": "(This measure has not been amended since the Senate agreed to the House amendment with an amendment on July 7, 2016. The summary of that version is repeated here.) This bill amends the Agricultural Marketing Act of 1946 to establish a national mandatory bioengineered food disclosure standard. (Bioengineered food is commonly referred to as a genetically modified organism or GMO food.)  (Sec. 1) Bioengineered food is food that that has been genetically modified in a way that could not be obtained through conventional breeding or found in nature.  The standard applies to any claim in a disclosure a food bears indicating that the food is bioengineered and to any food subject to the labeling requirements under the Federal Food, Drug, and Cosmetic Act (FFDCA).  It applies to foods subject to labeling requirements under the Federal Meat Inspection Act, the Poultry Products Inspection Act, or the Egg Products Inspection Act if: (1) the most predominant ingredient would independently be subject to the FFDCA labeling requirements; or (2) the most predominant ingredient is broth, stock, water, or a similar solution and the second-most predominant ingredient would independently be subject to the FFDCA labeling requirements.  Within two years of enactment of this bill, USDA must establish: (1) a national mandatory bioengineered food disclosure standard for any bioengineered food and any food that may be bioengineered, and (2) requirements and procedures to carry out the standard.  Regulations prescribing the labeling of bioengineered food must:   prohibit a food derived from an animal from being considered bioengineered solely because the animal consumed feed produced from, containing, or consisting of a bioengineered substance;  determine the amounts of a bioengineered substance that may be present for a food to be bioengineered;  establish a process for requesting and granting a USDA determination regarding other factors and conditions under which a food is considered bioengineered;  require the form of disclosure to be a text, symbol, or electronic or digital link (excluding Internet website Uniform Resource Locators not embedded in the link) with the disclosure option to be selected by the food manufacturer; and provide alternative reasonable disclosure options for food contained in small or very small packages.   For small food manufacturers, the regulations must provide: (1) an implementation date that is no earlier than one year after the implementation date of the regulations; and (2) additional on-package disclosure options to be selected by the manufacturer that consist of: a telephone number with language indicating that it provides access to additional information, and an Internet website maintained by the manufacturer.  The regulations must exclude: (1) food served in a restaurant or similar retail food establishment, and (2) very small food manufacturers.  A bioengineered food that has successfully completed the pre-market federal regulatory review process shall not be treated as safer than, or not as safe as, a non-bioengineered counterpart solely because the food is bioengineered or produced or developed with bioengineering.  USDA must: (1) conduct a study to identify potential technological challenges that may impact whether consumers would have access to the bioengineering disclosure through electronic or digital disclosure methods, and (2) provide additional disclosure options if it determines that consumers will not have sufficient access to disclosures through electronic or digital methods.  USDA must ensure that specified on-package language accompanies electronic or digital link disclosures and telephone number disclosures.  USDA must also ensure that an electronic or digital link disclosure:   provides access to the disclosure located in a consistent and conspicuous manner on the first product information page that appears, excluding marketing and promotional information;  may not collect, analyze, or sell personally identifiable information about consumers or their devices unless the information is necessary to carry out the bill and is deleted immediately after it is used; includes a telephone number that provides access to the disclosure; and is of sufficient size to be easily and effectively scanned or read by a digital device.   The bill prohibits states or political subdivisions of states from establishing or continuing requirements for labeling or disclosure of bioengineered or genetically engineered food that are not identical to the mandatory disclosure standard established by this bill.  This bill prohibits a person from knowingly failing to make a disclosure required by the standard. Each person subject to the mandatory disclosure requirement must maintain records necessary to establish compliance and provide the records to USDA upon request. USDA may conduct examinations and audits related to compliance, subject to requirements for notice, a public hearing, and the publication of the results. USDA may not recall any food on the basis of whether the food includes the disclosure.  A food may not include claims related to the absence of bioengineering solely based on whether or not a disclosure is required by the standard. A certification under the national organic program is sufficient to make a claim regarding the absence of bioengineering in a food. ",
                    "summary_short": "(This measure has not been amended since the Senate agreed to the House amendment with an amendment on July 7, 2016. The summary of that version is repeated here.) This bill amends the Agricultural Marketing Act of 1946 to establish a national mandatory bioengineered food disclosure standard. (Bioengineered food is commonly referred to as a genetically modified organism or GMO food.)  (Sec. 1) Bioengineered food is food that that has been genetically modified in a way that could not be obtain...",
                    "latest_major_action_date": "2016-07-29",
                    "latest_major_action": "Became Public Law No: 114-216."
                },
                {
                    "congress": "114",
                    "bill_id": "s611-114",
                    "bill_type": "s",
                    "number": "S.611",
                    "bill_uri": "https://api.propublica.org/congress/v1/114/bills/s611.json",
                    "title": "A bill to amend the Safe Drinking Water Act to reauthorize technical assistance to small public water systems, and for other purposes.",
                    "short_title": "Grassroots Rural and Small Community Water Systems Assistance Act",
                    "sponsor_title": "Sen.",
                    "sponsor_id": "W000437",
                    "sponsor_name": "Roger Wicker",
                    "sponsor_state": "MS",
                    "sponsor_party": "R",
                    "sponsor_uri": "https://api.propublica.org/congress/v1/members/W000437.json",
                    "gpo_pdf_uri": null,
                    "congressdotgov_url": "https://www.congress.gov/bill/114th-congress/senate-bill/611",
                    "govtrack_url": "https://www.govtrack.us/congress/bills/114/s611",
                    "introduced_date": "2015-02-27",
                    "active": true,
                    "last_vote": null,
                    "house_passage": "2015-11-30",
                    "senate_passage": "2015-06-09",
                    "enacted": "2015-12-02",
                    "vetoed": null,
                    "cosponsors": 19,
                    "cosponsors_by_party": {
                        "D": 9,
                        "R": 10
                    },
                    "committees": "House Energy and Commerce Committee",
                    "primary_subject": "Environmental Protection",
                    "summary": "(This measure has not been amended since it was introduced. The expanded summary of the Senate reported version is repeated here.) Grassroots Rural and Small Community Water Systems Assistance Act  (Sec. 4) This bill amends the Safe Drinking Water Act to reauthorize through FY2020 the Environmental Protection Agency's (EPA) program providing technical assistance to small public water systems in complying with national primary drinking water regulations. The EPA may use the funds to provide grants or cooperative agreements to nonprofit organizations that provide onsite technical assistance; circuit-rider technical assistance programs; multistate, regional technical assistance programs; onsite and regional training; assistance with implementing source water protection plans; and assistance with implementation monitoring plans, rules, regulations, and water security enhancements. Those grants and cooperative agreements may not be used for citizen suits brought under that Act. In order to ensure that technical assistance funding is used in a manner that is most beneficial to the small and rural communities, the EPA must give preference to nonprofit organizations that are the most qualified and experienced and that the small community water systems find to be the most beneficial and effective.",
                    "summary_short": "(This measure has not been amended since it was introduced. The expanded summary of the Senate reported version is repeated here.) Grassroots Rural and Small Community Water Systems Assistance Act  (Sec. 4) This bill amends the Safe Drinking Water Act to reauthorize through FY2020 the Environmental Protection Agency&#39;s (EPA) program providing technical assistance to small public water systems in complying with national primary drinking water regulations. The EPA may use the funds to provide gr...",
                    "latest_major_action_date": "2015-12-11",
                    "latest_major_action": "Became Public Law No: 114-98."
                }
            ]
        }
    ]
}
