{
    "status": "OK",
    "copyright": "Copyright (c) 2021 Pro Publica Inc. All Rights Reserved.",
    "results": [
        {
            "id": "W000804",
            "member_uri": "https://api.propublica.org/congress/v1/members/W000804.json",
            "name": "Robert J. Wittman",
            "num_results": 2,
            "offset": 0,
            "bills": [
                {
                    "congress": "115",
                    "bill_id": "hr984-115",
                    "bill_type": "hr",
                    "number": "H.R.984",
                    "bill_uri": "https://api.propublica.org/congress/v1/115/bills/hr984.json",
                    "title": "To extend Federal recognition to the Chickahominy Indian Tribe, the Chickahominy Indian Tribe-Eastern Division, the Upper Mattaponi Tribe, the Rappahannock Tribe, Inc., the Monacan Indian Nation, and the Nansemond Indian Tribe.",
                    "short_title": "Thomasina E. Jordan Indian Tribes of Virginia Federal Recognition Act of 2017",
                    "sponsor_title": "Rep.",
                    "sponsor_id": "W000804",
                    "sponsor_name": "Robert J. Wittman",
                    "sponsor_state": "VA",
                    "sponsor_party": "R",
                    "sponsor_uri": "https://api.propublica.org/congress/v1/members/W000804.json",
                    "gpo_pdf_uri": null,
                    "congressdotgov_url": "https://www.congress.gov/bill/115th-congress/house-bill/984",
                    "govtrack_url": "https://www.govtrack.us/congress/bills/115/hr984",
                    "introduced_date": "2017-02-07",
                    "active": true,
                    "last_vote": null,
                    "house_passage": "2017-05-17",
                    "senate_passage": "2018-01-11",
                    "enacted": "2018-01-29",
                    "vetoed": null,
                    "cosponsors": 5,
                    "cosponsors_by_party": {
                        "D": 4,
                        "R": 1
                    },
                    "committees": "Senate Indian Affairs Committee",
                    "primary_subject": "Native Americans",
                    "summary": "(This measure has not been amended since it was introduced. The expanded summary of the House passed version is repeated here.) Thomasina E. Jordan Indian Tribes of Virginia Federal Recognition Act of 2017 TITLE I--CHICKAHOMINY INDIAN TRIBE (Sec. 103) This bill extends federal recognition to the Chickahominy Tribe. The tribe and its members are made eligible for the services and benefits provided by the federal government to federally recognized Indian tribes, without regard to the existence of a reservation for the tribe. The bill establishes the service area of the tribe. (Sec. 104) The bill sets forth requirements for the tribe regarding its membership roll, governing documents, and governing body. (Sec. 106) The Department of the Interior, upon the request of the tribe, must take certain land owned by the tribe in Virginia into trust for the benefit of the tribe, to be considered part of the tribe's reservation. The bill prohibits the tribe from conducting gaming activities. (Sec. 107) The bill does not affect the hunting, fishing, trapping, gathering, or water rights of the tribe or its members. TITLE II--CHICKAHOMINY INDIAN TRIBE--EASTERN DIVISION (Sec. 203) This bill extends federal recognition to the Chickahominy Indian Tribe--Eastern Division. The tribe and its members are made eligible for the services and benefits provided by the federal government to federally recognized tribes, without regard to the existence of a reservation for the tribe. The bill establishes the service area of the tribe. (Sec. 204) The bill sets forth requirements for the tribe regarding its membership roll, governing documents, and governing body. (Sec. 206) The Department of the Interior, upon the request of the tribe, must take certain land owned by the tribe in Virginia into trust for the benefit of the tribe, to be considered part of the tribe's reservation. The bill prohibits the tribe from conducting gaming activities. (Sec. 207) The bill does not affect the hunting, fishing, trapping, gathering, or water rights of the tribe or its members. TITLE III--UPPER MATTAPONI TRIBE (Sec. 303) This bill extends federal recognition to the Upper Mattaponi Tribe. The tribe and its members are made eligible for the services and benefits provided by the federal government to federally recognized tribes, without regard to the existence of a reservation for the tribe. The bill establishes the service area of the tribe. (Sec. 304) The bill sets forth requirements for the tribe regarding its membership roll, governing documents, and governing body. (Sec. 306) The Department of the Interior, upon the request of the tribe, must take certain land owned by the tribe in Virginia into trust for the benefit of the tribe, to be considered part of the tribe's reservation. The bill prohibits the tribe from conducting gaming activities. (Sec. 307) The bill does not affect the hunting, fishing, trapping, gathering, or water rights of the tribe or its members. TITLE IV--RAPPAHANNOCK TRIBE, INC. (Sec. 403) This bill extends federal recognition to the Rappahannock Tribe, Inc. The tribe and its members are made eligible for the services and benefits provided by the federal government to federally recognized tribes, without regard to the existence of a reservation for the tribe. The bill establishes the service area of the tribe. (Sec. 404) The bill sets forth requirements for the tribe regarding its membership roll, governing documents, and governing body. (Sec. 406) The Department of the Interior, upon the request of the tribe, must take certain land owned by the tribe in Virginia into trust for the benefit of the tribe, to be considered part of the tribe's reservation. The bill prohibits the tribe from conducting gaming activities. (Sec. 407) The bill does not affect the hunting, fishing, trapping, gathering, or water rights of the tribe or its members. TITLE V--MONACAN INDIAN NATION (Sec. 503) This bill extends federal recognition to the Monacan Indian Nation. The tribe and its members are made eligible for the services and benefits provided by the federal government to federally recognized tribes, without regard to the existence of a reservation for the tribe. The bill establishes the service area of the tribe. (Sec. 504) The bill sets forth requirements for the tribe regarding its membership roll, governing documents, and governing body. (Sec. 506) The Department of the Interior, upon the request of the tribe, must take certain land owned by the tribe in Virginia into trust for the benefit of the tribe, to be considered part of the tribe's reservation. The bill prohibits the tribe from conducting gaming activities. (Sec. 507) The bill does not affect the hunting, fishing, trapping, gathering, or water rights of the tribe or its members. TITLE VI--NANSEMOND INDIAN TRIBE (Sec. 603) This bill extends federal recognition to the Nansemond Indian Tribe. The tribe and its members are made eligible for the services and benefits provided by the federal government to federally recognized tribes, without regard to the existence of a reservation for the tribe. The bill establishes the service area of the tribe. (Sec. 604) The bill sets forth requirements for the tribe regarding its membership roll, governing documents, and governing body. (Sec. 606) The Department of the Interior, upon the request of the tribe, must take certain land owned by the tribe in Virginia into trust for the benefit of the tribe, to be considered part of the tribe's reservation. The bill prohibits the tribe from conducting gaming activities. (Sec. 607) The bill does not affect the hunting, fishing, trapping, gathering, or water rights of the tribe or its members. TITLE VII--EMINENT DOMAIN (Sec. 701) Eminent domain may not be used to acquire lands for a tribe recognized under this bill.",
                    "summary_short": "(This measure has not been amended since it was introduced. The expanded summary of the House passed version is repeated here.) Thomasina E. Jordan Indian Tribes of Virginia Federal Recognition Act of 2017 TITLE I--CHICKAHOMINY INDIAN TRIBE (Sec. 103) This bill extends federal recognition to the Chickahominy Tribe. The tribe and its members are made eligible for the services and benefits provided by the federal government to federally recognized Indian tribes, without regard to the existence ...",
                    "latest_major_action_date": "2018-01-29",
                    "latest_major_action": "Became Public Law No: 115-121."
                },
                {
                    "congress": "113",
                    "bill_id": "hr1206-113",
                    "bill_type": "hr",
                    "number": "H.R.1206",
                    "bill_uri": "https://api.propublica.org/congress/v1/113/bills/hr1206.json",
                    "title": "To grant the Secretary of the Interior permanent authority to authorize States to issue electronic duck stamps, and for other purposes.",
                    "short_title": "Permanent Electronic Duck Stamp Act of 2013",
                    "sponsor_title": "Rep.",
                    "sponsor_id": "W000804",
                    "sponsor_name": "Robert J. Wittman",
                    "sponsor_state": "VA",
                    "sponsor_party": "R",
                    "sponsor_uri": "https://api.propublica.org/congress/v1/members/W000804.json",
                    "gpo_pdf_uri": null,
                    "congressdotgov_url": "https://www.congress.gov/bill/113th-congress/house-bill/1206",
                    "govtrack_url": "https://www.govtrack.us/congress/bills/113/hr1206",
                    "introduced_date": "2013-03-14",
                    "active": true,
                    "last_vote": "2013-06-03",
                    "house_passage": "2013-06-03",
                    "senate_passage": "2014-12-15",
                    "enacted": "2014-12-17",
                    "vetoed": null,
                    "cosponsors": 1,
                    "cosponsors_by_party": {
                        "D": 1
                    },
                    "committees": "Senate Environment and Public Works Committee",
                    "primary_subject": "Animals",
                    "summary": "(This measure has not been amended since it was introduced. The expanded summary of the House reported version is repeated here.)  Permanent Electronic Duck Stamp Act of 2013 - Grants the Secretary of the Interior permanent authority to authorize any state to issue electronic duck stamps.  Sets forth state electronic duck stamp application requirements. Allows the Secretary to determine the number of new states permitted per year to participate in the electronic duck stamp program.  Instructs the Secretary to require electronic stamp revenue and customer information collected by each state to be transmitted in accordance with a written agreement between the Secretary and the state.",
                    "summary_short": "(This measure has not been amended since it was introduced. The expanded summary of the House reported version is repeated here.)  Permanent Electronic Duck Stamp Act of 2013 - Grants the Secretary of the Interior permanent authority to authorize any state to issue electronic duck stamps.  Sets forth state electronic duck stamp application requirements. Allows the Secretary to determine the number of new states permitted per year to participate in the electronic duck stamp program.  Instructs...",
                    "latest_major_action_date": "2014-12-18",
                    "latest_major_action": "Became Public Law No: 113-239."
                }
            ]
        }
    ]
}
