{
    "status": "OK",
    "copyright": "Copyright (c) 2021 Pro Publica Inc. All Rights Reserved.",
    "results": [
        {
            "id": "Y000033",
            "member_uri": "https://api.propublica.org/congress/v1/members/Y000033.json",
            "name": "Don Young",
            "num_results": 8,
            "offset": 0,
            "bills": [
                {
                    "congress": "116",
                    "bill_id": "hr1240-116",
                    "bill_type": "hr",
                    "number": "H.R.1240",
                    "bill_uri": "https://api.propublica.org/congress/v1/116/bills/hr1240.json",
                    "title": "To preserve United States fishing heritage through a national program dedicated to training and assisting the next generation of commercial fishermen.",
                    "short_title": "Young Fishermen's Development Act",
                    "sponsor_title": "Rep.",
                    "sponsor_id": "Y000033",
                    "sponsor_name": "Don Young",
                    "sponsor_state": "AK",
                    "sponsor_party": "R",
                    "sponsor_uri": "https://api.propublica.org/congress/v1/members/Y000033.json",
                    "gpo_pdf_uri": null,
                    "congressdotgov_url": "https://www.congress.gov/bill/116th-congress/house-bill/1240",
                    "govtrack_url": "https://www.govtrack.us/congress/bills/116/hr1240",
                    "introduced_date": "2019-02-14",
                    "active": true,
                    "last_vote": null,
                    "house_passage": "2020-12-10",
                    "senate_passage": "2020-12-20",
                    "enacted": null,
                    "vetoed": null,
                    "cosponsors": 12,
                    "cosponsors_by_party": {
                        "R": 1,
                        "D": 11
                    },
                    "committees": "House Natural Resources Committee",
                    "primary_subject": "Public Lands and Natural Resources",
                    "summary": "Young Fishermen's Development Act This bill directs the National Sea Grant Office in the National Oceanic and Atmospheric Administration to establish a Young Fishermen's Development Grant Program to provide training, education, outreach, and technical assistance initiatives for young fishermen. The office shall make competitive matching grants to support local and regional training, education, outreach, and technical assistance initiatives for young fishermen, including programs, workshops, and services related to (1) seamanship, navigation, electronics, and safety; (2) vessel and engine care, maintenance, and repair; and (3) sustainable fishing practices.Grant recipients must be a collaborative state, tribal, local, or regionally based network or partnership of public or private entities.  Grants may not be used to purchase a fishing license, permit, quota, or other harvesting right.",
                    "summary_short": "Young Fishermen&#39;s Development Act This bill directs the National Sea Grant Office in the National Oceanic and Atmospheric Administration to establish a Young Fishermen&#39;s Development Grant Program to provide training, education, outreach, and technical assistance initiatives for young fishermen. The office shall make competitive matching grants to support local and regional training, education, outreach, and technical assistance initiatives for young fishermen, including programs, workshops, a...",
                    "latest_major_action_date": "2020-12-24",
                    "latest_major_action": "Presented to President."
                },
                {
                    "congress": "115",
                    "bill_id": "hr3398-115",
                    "bill_type": "hr",
                    "number": "H.R.3398",
                    "bill_uri": "https://api.propublica.org/congress/v1/115/bills/hr3398.json",
                    "title": "To amend the Real ID Act of 2005 to permit Freely Associated States to meet identification requirements under such Act, and for other purposes.",
                    "short_title": "REAL ID Act Modification for Freely Associated States Act",
                    "sponsor_title": "Rep.",
                    "sponsor_id": "Y000033",
                    "sponsor_name": "Don Young",
                    "sponsor_state": "AK",
                    "sponsor_party": "R",
                    "sponsor_uri": "https://api.propublica.org/congress/v1/members/Y000033.json",
                    "gpo_pdf_uri": null,
                    "congressdotgov_url": "https://www.congress.gov/bill/115th-congress/house-bill/3398",
                    "govtrack_url": "https://www.govtrack.us/congress/bills/115/hr3398",
                    "introduced_date": "2017-07-25",
                    "active": true,
                    "last_vote": null,
                    "house_passage": "2018-09-26",
                    "senate_passage": "2018-12-06",
                    "enacted": "2018-12-17",
                    "vetoed": null,
                    "cosponsors": 5,
                    "cosponsors_by_party": {
                        "D": 3,
                        "R": 2
                    },
                    "committees": "Senate Homeland Security and Governmental Affairs Committee",
                    "primary_subject": "Transportation and Public Works",
                    "summary": "REAL ID Act Modification for Freely Associated States Act (Sec. 2) This bill amends the Real ID Act of 2005 to make a citizen of the Republic of the Marshall Islands, the Federated States of Micronesia, or the Republic of Palau who has been admitted to the United States as a nonimmigrant pursuant to a Compact of Free Association between the United States and the Republic or Federated States eligible for a driver's license or personal identification card. Under current law, a citizen of those countries is eligible for a temporary driver's license or personal identification card.",
                    "summary_short": "REAL ID Act Modification for Freely Associated States Act (Sec. 2) This bill amends the Real ID Act of 2005 to make a citizen of the Republic of the Marshall Islands, the Federated States of Micronesia, or the Republic of Palau who has been admitted to the United States as a nonimmigrant pursuant to a Compact of Free Association between the United States and the Republic or Federated States eligible for a driver&#39;s license or personal identification card. Under current law, a citizen of those ...",
                    "latest_major_action_date": "2018-12-17",
                    "latest_major_action": "Became Public Law No: 115-323."
                },
                {
                    "congress": "115",
                    "bill_id": "hr1417-115",
                    "bill_type": "hr",
                    "number": "H.R.1417",
                    "bill_uri": "https://api.propublica.org/congress/v1/115/bills/hr1417.json",
                    "title": "To amend the National Law Enforcement Museum Act to allow the Museum to acquire, receive, possess, collect, ship, transport, import, and display firearms, and for other purposes.",
                    "short_title": "National Law Enforcement Museum Exhibits Act",
                    "sponsor_title": "Rep.",
                    "sponsor_id": "Y000033",
                    "sponsor_name": "Don Young",
                    "sponsor_state": "AK",
                    "sponsor_party": "R",
                    "sponsor_uri": "https://api.propublica.org/congress/v1/members/Y000033.json",
                    "gpo_pdf_uri": null,
                    "congressdotgov_url": "https://www.congress.gov/bill/115th-congress/house-bill/1417",
                    "govtrack_url": "https://www.govtrack.us/congress/bills/115/hr1417",
                    "introduced_date": "2017-03-07",
                    "active": true,
                    "last_vote": null,
                    "house_passage": "2018-05-15",
                    "senate_passage": "2018-12-06",
                    "enacted": "2018-12-17",
                    "vetoed": null,
                    "cosponsors": 1,
                    "cosponsors_by_party": {
                        "R": 1
                    },
                    "committees": "Senate Judiciary Committee",
                    "primary_subject": "Arts, Culture, Religion",
                    "summary": "National Law Enforcement Museum Exhibits Act (Sec. 2) This bill amends the National Law Enforcement Museum Act to permit the National Law Enforcement Museum in Washington, DC, to acquire, receive, possess, collect, ship, transport, import, and display firearms in fulfilling the museum's purposes. ",
                    "summary_short": "National Law Enforcement Museum Exhibits Act (Sec. 2) This bill amends the National Law Enforcement Museum Act to permit the National Law Enforcement Museum in Washington, DC, to acquire, receive, possess, collect, ship, transport, import, and display firearms in fulfilling the museum&#39;s purposes. ",
                    "latest_major_action_date": "2018-12-17",
                    "latest_major_action": "Became Public Law No: 115-321."
                },
                {
                    "congress": "115",
                    "bill_id": "hr220-115",
                    "bill_type": "hr",
                    "number": "H.R.220",
                    "bill_uri": "https://api.propublica.org/congress/v1/115/bills/hr220.json",
                    "title": "To authorize the expansion of an existing hydroelectric project, and for other purposes.",
                    "short_title": "To authorize the expansion of an existing hydroelectric project, and for other purposes.",
                    "sponsor_title": "Rep.",
                    "sponsor_id": "Y000033",
                    "sponsor_name": "Don Young",
                    "sponsor_state": "AK",
                    "sponsor_party": "R",
                    "sponsor_uri": "https://api.propublica.org/congress/v1/members/Y000033.json",
                    "gpo_pdf_uri": null,
                    "congressdotgov_url": "https://www.congress.gov/bill/115th-congress/house-bill/220",
                    "govtrack_url": "https://www.govtrack.us/congress/bills/115/hr220",
                    "introduced_date": "2017-01-03",
                    "active": true,
                    "last_vote": "2017-06-27",
                    "house_passage": "2017-06-27",
                    "senate_passage": "2018-06-28",
                    "enacted": "2018-07-20",
                    "vetoed": null,
                    "cosponsors": 0,
                    "cosponsors_by_party": {},
                    "committees": "House Natural Resources Committee",
                    "primary_subject": "Energy",
                    "summary": "(Sec.1)This bill authorizes the licensee for the Terror Lake Hydroelectric Project in Kodiak Island, Alaska, to occupy not more than 20 acres of federal land to construct, operate, and maintain the Upper Hidden Basin Diversion Expansion without further authorization under the Alaska National Interest Lands Conservation Act or from the Department of the Interior.",
                    "summary_short": "(Sec.1)This bill authorizes the licensee for the Terror Lake Hydroelectric Project in Kodiak Island, Alaska, to occupy not more than 20 acres of federal land to construct, operate, and maintain the Upper Hidden Basin Diversion Expansion without further authorization under the Alaska National Interest Lands Conservation Act or from the Department of the Interior.",
                    "latest_major_action_date": "2018-07-20",
                    "latest_major_action": "Became Public Law No: 115-201."
                },
                {
                    "congress": "115",
                    "bill_id": "hr219-115",
                    "bill_type": "hr",
                    "number": "H.R.219",
                    "bill_uri": "https://api.propublica.org/congress/v1/115/bills/hr219.json",
                    "title": "To correct the Swan Lake hydroelectric project survey boundary and to provide for the conveyance of the remaining tract of land within the corrected survey boundary to the State of Alaska.",
                    "short_title": "Swan Lake Hydroelectric Project Boundary Correction Act",
                    "sponsor_title": "Rep.",
                    "sponsor_id": "Y000033",
                    "sponsor_name": "Don Young",
                    "sponsor_state": "AK",
                    "sponsor_party": "R",
                    "sponsor_uri": "https://api.propublica.org/congress/v1/members/Y000033.json",
                    "gpo_pdf_uri": null,
                    "congressdotgov_url": "https://www.congress.gov/bill/115th-congress/house-bill/219",
                    "govtrack_url": "https://www.govtrack.us/congress/bills/115/hr219",
                    "introduced_date": "2017-01-03",
                    "active": true,
                    "last_vote": null,
                    "house_passage": "2018-02-06",
                    "senate_passage": "2018-06-28",
                    "enacted": "2018-07-20",
                    "vetoed": null,
                    "cosponsors": 1,
                    "cosponsors_by_party": {
                        "D": 1
                    },
                    "committees": "House Natural Resources Committee",
                    "primary_subject": "Public Lands and Natural Resources",
                    "summary": "Swan Lake Hydroelectric Project Boundary Correction Act (Sec.2)This bill directs the Department of the Interior, after consulting with the U.S. Forest Service, to modify the boundary of the Swan Lake Hydroelectric Project (FERC No. 2911) in southeast Alaska and to convey any additional land necessary for the project to the State of Alaska.",
                    "summary_short": "Swan Lake Hydroelectric Project Boundary Correction Act (Sec.2)This bill directs the Department of the Interior, after consulting with the U.S. Forest Service, to modify the boundary of the Swan Lake Hydroelectric Project (FERC No. 2911) in southeast Alaska and to convey any additional land necessary for the project to the State of Alaska.",
                    "latest_major_action_date": "2018-07-20",
                    "latest_major_action": "Became Public Law No: 115-200."
                },
                {
                    "congress": "115",
                    "bill_id": "hr228-115",
                    "bill_type": "hr",
                    "number": "H.R.228",
                    "bill_uri": "https://api.propublica.org/congress/v1/115/bills/hr228.json",
                    "title": "To amend the Indian Employment, Training and Related Services Demonstration Act of 1992 to facilitate the ability of Indian tribes to integrate the employment, training, and related services from diverse Federal sources, and for other purposes.",
                    "short_title": "Indian Employment, Training and Related Services Consolidation Act of 2017",
                    "sponsor_title": "Rep.",
                    "sponsor_id": "Y000033",
                    "sponsor_name": "Don Young",
                    "sponsor_state": "AK",
                    "sponsor_party": "R",
                    "sponsor_uri": "https://api.propublica.org/congress/v1/members/Y000033.json",
                    "gpo_pdf_uri": null,
                    "congressdotgov_url": "https://www.congress.gov/bill/115th-congress/house-bill/228",
                    "govtrack_url": "https://www.govtrack.us/congress/bills/115/hr228",
                    "introduced_date": "2017-01-03",
                    "active": true,
                    "last_vote": null,
                    "house_passage": "2017-02-27",
                    "senate_passage": "2017-11-29",
                    "enacted": "2017-12-18",
                    "vetoed": null,
                    "cosponsors": 0,
                    "cosponsors_by_party": {},
                    "committees": "House Natural Resources Committee",
                    "primary_subject": "Native Americans",
                    "summary": "(This measure has not been amended since it was passed by the House on February 27, 2017. The summary of that version is repeated here.) Indian Employment, Training and Related Services Consolidation Act of 2017  (Sec. 2) This bill amends the Indian Employment, Training and Related Services Demonstration Act of 1992 to rename the Act to the Indian Employment, Training and Related Services Act of 1992 and to revise the program that provides for the integration of employment, training, and related services programs for Indian tribes. (Sec. 6) The bill revises the types of programs that may be integrated.  (Sec. 8) The bill revises the process for: (1) federal agencies to grant or deny a tribe's request to waive statutory, regulatory, or administrative requirements to efficiently implement an integration plan; and (2) the Department of the Interior to approve or disapprove an integration plan. A tribe is granted certain hearing and appeal rights if Interior disapproves its plan.   (Sec. 10) Tribal authority to use funds to place participants in training positions with employers is revised.   (Sec. 13) The Bureau of Indian Affairs must receive and distribute funds for use in accordance with an approved integration plan.  (Sec. 14) Funds transferred to a tribe must be treated as non-federal funds for purposes of meeting matching requirements, except funds administered by the Department of Labor or the Department of Health and Human Services. Civil liability limitations apply to approved integration plans.",
                    "summary_short": "(This measure has not been amended since it was passed by the House on February 27, 2017. The summary of that version is repeated here.) Indian Employment, Training and Related Services Consolidation Act of 2017  (Sec. 2) This bill amends the Indian Employment, Training and Related Services Demonstration Act of 1992 to rename the Act to the Indian Employment, Training and Related Services Act of 1992 and to revise the program that provides for the integration of employment, training, and rela...",
                    "latest_major_action_date": "2017-12-18",
                    "latest_major_action": "Became Public Law No: 115-93."
                },
                {
                    "congress": "115",
                    "bill_id": "hjres69-115",
                    "bill_type": "hjres",
                    "number": "H.J.RES.69",
                    "bill_uri": "https://api.propublica.org/congress/v1/115/bills/hjres69.json",
                    "title": "Providing for congressional disapproval under chapter 8 of title 5, United States Code, of the final rule of the Department of the Interior relating to 'Non-Subsistence Take of Wildlife, and Public Participation and Closure Procedures, on National Wildlife Refuges in Alaska'.",
                    "short_title": "Providing for congressional disapproval under chapter 8 of title 5, United States Code, of the final rule of the Department of the Interior relating to \"Non-Subsistence Take of Wildlife, and Public Participation and Closure Procedures, on National Wildlif",
                    "sponsor_title": "Rep.",
                    "sponsor_id": "Y000033",
                    "sponsor_name": "Don Young",
                    "sponsor_state": "AK",
                    "sponsor_party": "R",
                    "sponsor_uri": "https://api.propublica.org/congress/v1/members/Y000033.json",
                    "gpo_pdf_uri": null,
                    "congressdotgov_url": "https://www.congress.gov/bill/115th-congress/house-joint-resolution/69",
                    "govtrack_url": "https://www.govtrack.us/congress/bills/115/hjres69",
                    "introduced_date": "2017-02-07",
                    "active": true,
                    "last_vote": "2017-03-21",
                    "house_passage": "2017-02-16",
                    "senate_passage": "2017-03-21",
                    "enacted": "2017-04-03",
                    "vetoed": null,
                    "cosponsors": 2,
                    "cosponsors_by_party": {
                        "R": 2
                    },
                    "committees": "House Natural Resources Committee",
                    "primary_subject": "Public Lands and Natural Resources",
                    "summary": "(This measure has not been amended since it was introduced. The summary of that version is repeated here.) This joint resolution nullifies the rule finalized by the Department of the Interior on August 5, 2016, relating to non-subsistence takings of wildlife and public participation and closure procedures on National Wildlife Refuges in Alaska. ",
                    "summary_short": "(This measure has not been amended since it was introduced. The summary of that version is repeated here.) This joint resolution nullifies the rule finalized by the Department of the Interior on August 5, 2016, relating to non-subsistence takings of wildlife and public participation and closure procedures on National Wildlife Refuges in Alaska. ",
                    "latest_major_action_date": "2017-04-03",
                    "latest_major_action": "Became Public Law No: 115-20."
                },
                {
                    "congress": "113",
                    "bill_id": "hr588-113",
                    "bill_type": "hr",
                    "number": "H.R.588",
                    "bill_uri": "https://api.propublica.org/congress/v1/113/bills/hr588.json",
                    "title": "To provide for donor contribution acknowledgments to be displayed at the Vietnam Veterans Memorial Visitor Center, and for other purposes.",
                    "short_title": "Vietnam Veterans Donor Acknowledgment Act of 2013",
                    "sponsor_title": "Rep.",
                    "sponsor_id": "Y000033",
                    "sponsor_name": "Don Young",
                    "sponsor_state": "AK",
                    "sponsor_party": "R",
                    "sponsor_uri": "https://api.propublica.org/congress/v1/members/Y000033.json",
                    "gpo_pdf_uri": null,
                    "congressdotgov_url": "https://www.congress.gov/bill/113th-congress/house-bill/588",
                    "govtrack_url": "https://www.govtrack.us/congress/bills/113/hr588",
                    "introduced_date": "2013-02-06",
                    "active": true,
                    "last_vote": "2013-05-06",
                    "house_passage": "2013-05-06",
                    "senate_passage": "2013-06-03",
                    "enacted": "2013-07-12",
                    "vetoed": null,
                    "cosponsors": 38,
                    "cosponsors_by_party": {
                        "D": 22,
                        "R": 16
                    },
                    "committees": "House Natural Resources Committee",
                    "primary_subject": "Public Lands and Natural Resources",
                    "summary": "Vietnam Veterans Donor Acknowledgment Act of 2013 - Extends, to November 17, 2018, the legislative authority of the Vietnam Veterans Memorial Fund, Inc. (Fund) to establish a Vietnam Veterans Memorial visitors center. Directs the Secretary of the Interior to allow the Fund to acknowledge donor contributions to the Vietnam Veterans Memorial Visitor Center by displaying, inside the Center, an appropriate statement or credit. Requires the Fund to: (1) bear all display expenses; and (2) prior to such display, submit to the Secretary for approval a display plan. Requires the Secretary to approve such plan if it: (1) allows only short, discrete, and unobtrusive acknowledgments or credits; (2) does not permit any advertising slogans or company logos; and (3) conforms to applicable National Park Service guidelines for indoor donor recognition. Allows the Fund, if a plan is not approved, to resubmit a revised plan.",
                    "summary_short": "Vietnam Veterans Donor Acknowledgment Act of 2013 - Extends, to November 17, 2018, the legislative authority of the Vietnam Veterans Memorial Fund, Inc. (Fund) to establish a Vietnam Veterans Memorial visitors center. Directs the Secretary of the Interior to allow the Fund to acknowledge donor contributions to the Vietnam Veterans Memorial Visitor Center by displaying, inside the Center, an appropriate statement or credit. Requires the Fund to: (1) bear all display expenses; and (2) prior to ...",
                    "latest_major_action_date": "2013-07-18",
                    "latest_major_action": "Became Public Law No: 113-21."
                }
            ]
        }
    ]
}
