{
    "status": "OK",
    "copyright": "Copyright (c) 2021 Pro Publica Inc. All Rights Reserved.",
    "results": [
        {
            "id": "Y000062",
            "member_uri": "https://api.propublica.org/congress/v1/members/Y000062.json",
            "name": "John Yarmuth",
            "num_results": 2,
            "offset": 0,
            "bills": [
                {
                    "congress": "117",
                    "bill_id": "hr1319-117",
                    "bill_type": "hr",
                    "number": "H.R.1319",
                    "bill_uri": "https://api.propublica.org/congress/v1/117/bills/hr1319.json",
                    "title": "To provide for reconciliation pursuant to title II of S. Con. Res. 5.",
                    "short_title": "American Rescue Plan Act of 2021",
                    "sponsor_title": "Rep.",
                    "sponsor_id": "Y000062",
                    "sponsor_name": "John Yarmuth",
                    "sponsor_state": "KY",
                    "sponsor_party": "D",
                    "sponsor_uri": "https://api.propublica.org/congress/v1/members/Y000062.json",
                    "gpo_pdf_uri": null,
                    "congressdotgov_url": "https://www.congress.gov/bill/117th-congress/house-bill/1319",
                    "govtrack_url": "https://www.govtrack.us/congress/bills/117/hr1319",
                    "introduced_date": "2021-02-24",
                    "active": true,
                    "last_vote": "2021-03-10",
                    "house_passage": "2021-03-10",
                    "senate_passage": "2021-03-06",
                    "enacted": "2021-03-11",
                    "vetoed": null,
                    "cosponsors": 0,
                    "cosponsors_by_party": {},
                    "committees": "House Budget Committee",
                    "primary_subject": "Economics and Public Finance",
                    "summary": "American Rescue Plan Act of 2021 This bill provides additional relief to address the continued impact of COVID-19 (i.e., coronavirus disease 2019) on the economy, public health, state and local governments, individuals, and businesses.  Specifically, the bill provides funding for  agriculture and nutrition programs, including the Supplemental Nutrition Assistance Program (SNAP, formerly known as the food stamp program);  schools and institutions of higher education;  child care and programs for older Americans and their families; COVID-19 vaccinations, testing, treatment, and prevention; mental health and substance-use disorder services; emergency rental assistance, homeowner assistance, and other housing programs;  payments to state, local, tribal, and territorial governments for economic relief;  multiemployer pension plans;  small business assistance, including specific programs for restaurants and live venues;  programs for health care workers, transportation workers, federal employees, veterans, and other targeted populations;  international and humanitarian responses; tribal government services;  scientific research and development;  state, territorial, and tribal capital projects that enable work, education, and health monitoring in response to COVID-19; and   health care providers in rural areas.  The bill also includes provisions that  extend unemployment benefits and related services;  make up to $10,200 of 2020 unemployment compensation tax-free; make student loan forgiveness tax-free through 2025; provide a maximum recovery rebate of $1,400 per eligible individual; expand and otherwise modify certain tax credits, including the child tax credit and the earned income tax credit; provide premium assistance for certain health insurance coverage; and require coverage, without cost-sharing, of COVID-19 vaccines and treatment under Medicaid and the Children's Health Insurance Program (CHIP). ",
                    "summary_short": "American Rescue Plan Act of 2021 This bill provides additional relief to address the continued impact of COVID-19 (i.e., coronavirus disease 2019) on the economy, public health, state and local governments, individuals, and businesses.  Specifically, the bill provides funding for  agriculture and nutrition programs, including the Supplemental Nutrition Assistance Program (SNAP, formerly known as the food stamp program);  schools and institutions of higher education;  child care and programs f...",
                    "latest_major_action_date": "2021-03-11",
                    "latest_major_action": "Became Public Law No: 117-2."
                },
                {
                    "congress": "116",
                    "bill_id": "hr3877-116",
                    "bill_type": "hr",
                    "number": "H.R.3877",
                    "bill_uri": "https://api.propublica.org/congress/v1/116/bills/hr3877.json",
                    "title": "To amend the Balanced Budget and Emergency Deficit Control Act of 1985, to establish a congressional budget for fiscal years 2020 and 2021, to temporarily suspend the debt limit, and for other purposes.",
                    "short_title": "Bipartisan Budget Act of 2019",
                    "sponsor_title": "Rep.",
                    "sponsor_id": "Y000062",
                    "sponsor_name": "John Yarmuth",
                    "sponsor_state": "KY",
                    "sponsor_party": "D",
                    "sponsor_uri": "https://api.propublica.org/congress/v1/members/Y000062.json",
                    "gpo_pdf_uri": null,
                    "congressdotgov_url": "https://www.congress.gov/bill/116th-congress/house-bill/3877",
                    "govtrack_url": "https://www.govtrack.us/congress/bills/116/hr3877",
                    "introduced_date": "2019-07-23",
                    "active": true,
                    "last_vote": "2019-08-01",
                    "house_passage": "2019-07-25",
                    "senate_passage": "2019-08-01",
                    "enacted": "2019-08-02",
                    "vetoed": null,
                    "cosponsors": 1,
                    "cosponsors_by_party": {
                        "D": 1
                    },
                    "committees": "House Ways and Means Committee",
                    "primary_subject": "Economics and Public Finance",
                    "summary": "Bipartisan Budget Act of 2019  This bill increases discretionary spending limits, suspends the debt limit, and modifies budget enforcement procedures.  The bill increases the FY2020 and FY2021 discretionary spending limits for defense and nondefense spending. The bill also (1) specifies limits for Overseas Contingency Operations funding, which is exempt from discretionary spending limits; and (2) requires the FY2020 discretionary spending limits to be adjusted to accommodate specified funding for the 2020 Census.  The bill suspends the public debt limit through July 31, 2021. On August 1, 2021, the limit will be increased to accommodate obligations issued during the suspension period.  The bill also includes provisions that   set forth procedures for enforcing spending and revenue levels consistent with this bill as if they were included in congressional budget resolutions for FY2020 and FY2021;   specify limits on advance appropriations;  extend the sequestration (automatic spending cuts) for certain mandatory spending programs through FY2029;   extend the authority to collect certain customs user fees through FY2029;   extend and modify Senate points of order regarding advance appropriations, certain changes in mandatory programs (CHIMPs), and designations of funds for Overseas Contingency Operations; and reset the balances on the Pay-As-You-Go (PAYGO) scorecards established by the Statutory Pay-As-You-Go Act of 2010. ",
                    "summary_short": "Bipartisan Budget Act of 2019  This bill increases discretionary spending limits, suspends the debt limit, and modifies budget enforcement procedures.  The bill increases the FY2020 and FY2021 discretionary spending limits for defense and nondefense spending. The bill also (1) specifies limits for Overseas Contingency Operations funding, which is exempt from discretionary spending limits; and (2) requires the FY2020 discretionary spending limits to be adjusted to accommodate specified funding...",
                    "latest_major_action_date": "2019-08-02",
                    "latest_major_action": "Became Public Law No: 116-37."
                }
            ]
        }
    ]
}
